x-axis,1
second,Volt
-62.8500E-06,+91.1374976E-03
-62.7500E-06,+90.5124976E-03
-62.6500E-06,+90.1999976E-03
-62.5500E-06,+90.1999976E-03
-62.4500E-06,+90.1999976E-03
-62.3500E-06,+89.8874977E-03
-62.2500E-06,+89.8874977E-03
-62.1500E-06,+89.8874977E-03
-62.0500E-06,+89.8874977E-03
-61.9500E-06,+90.1999976E-03
-61.8500E-06,+90.1999976E-03
-61.7500E-06,+89.8874977E-03
-61.6500E-06,+89.5749977E-03
-61.5500E-06,+89.5749977E-03
-61.4500E-06,+89.5749977E-03
-61.3500E-06,+89.2624977E-03
-61.2500E-06,+89.2624977E-03
-61.1500E-06,+89.5749977E-03
-61.0500E-06,+89.2624977E-03
-60.9500E-06,+88.3249977E-03
-60.8500E-06,+88.6374977E-03
-60.7500E-06,+88.9499977E-03
-60.6500E-06,+88.6374977E-03
-60.5500E-06,+88.6374977E-03
-60.4500E-06,+88.3249977E-03
-60.3500E-06,+88.6374977E-03
-60.2500E-06,+88.6374977E-03
-60.1500E-06,+88.3249977E-03
-60.0500E-06,+88.6374977E-03
-59.9500E-06,+88.6374977E-03
-59.8500E-06,+88.6374977E-03
-59.7500E-06,+88.6374977E-03
-59.6500E-06,+88.6374977E-03
-59.5500E-06,+88.6374977E-03
-59.4500E-06,+88.9499977E-03
-59.3500E-06,+88.9499977E-03
-59.2500E-06,+88.6374977E-03
-59.1500E-06,+88.9499977E-03
-59.0500E-06,+88.9499977E-03
-58.9500E-06,+88.6374977E-03
-58.8500E-06,+88.9499977E-03
-58.7500E-06,+88.9499977E-03
-58.6500E-06,+88.6374977E-03
-58.5500E-06,+88.9499977E-03
-58.4500E-06,+88.9499977E-03
-58.3500E-06,+89.2624977E-03
-58.2500E-06,+89.2624977E-03
-58.1500E-06,+89.2624977E-03
-58.0500E-06,+89.2624977E-03
-57.9500E-06,+88.6374977E-03
-57.8500E-06,+88.3249977E-03
-57.7500E-06,+88.3249977E-03
-57.6500E-06,+88.6374977E-03
-57.5500E-06,+88.6374977E-03
-57.4500E-06,+88.6374977E-03
-57.3500E-06,+88.3249977E-03
-57.2500E-06,+88.0124977E-03
-57.1500E-06,+88.0124977E-03
-57.0500E-06,+88.0124977E-03
-56.9500E-06,+88.0124977E-03
-56.8500E-06,+87.3874977E-03
-56.7500E-06,+87.3874977E-03
-56.6500E-06,+87.6999977E-03
-56.5500E-06,+87.3874977E-03
-56.4500E-06,+88.0124977E-03
-56.3500E-06,+88.3249977E-03
-56.2500E-06,+87.6999977E-03
-56.1500E-06,+87.3874977E-03
-56.0500E-06,+87.6999977E-03
-55.9500E-06,+87.6999977E-03
-55.8500E-06,+87.0749977E-03
-55.7500E-06,+87.0749977E-03
-55.6500E-06,+87.0749977E-03
-55.5500E-06,+87.0749977E-03
-55.4500E-06,+87.0749977E-03
-55.3500E-06,+86.7624977E-03
-55.2500E-06,+86.7624977E-03
-55.1500E-06,+87.0749977E-03
-55.0500E-06,+87.0749977E-03
-54.9500E-06,+86.7624977E-03
-54.8500E-06,+87.0749977E-03
-54.7500E-06,+87.6999977E-03
-54.6500E-06,+87.3874977E-03
-54.5500E-06,+87.0749977E-03
-54.4500E-06,+87.0749977E-03
-54.3500E-06,+87.0749977E-03
-54.2500E-06,+87.3874977E-03
-54.1500E-06,+87.0749977E-03
-54.0500E-06,+86.4499977E-03
-53.9500E-06,+86.7624977E-03
-53.8500E-06,+87.0749977E-03
-53.7500E-06,+86.7624977E-03
-53.6500E-06,+86.7624977E-03
-53.5500E-06,+86.7624977E-03
-53.4500E-06,+86.7624977E-03
-53.3500E-06,+87.0749977E-03
-53.2500E-06,+87.0749977E-03
-53.1500E-06,+86.7624977E-03
-53.0500E-06,+86.7624977E-03
-52.9500E-06,+86.7624977E-03
-52.8500E-06,+86.7624977E-03
-52.7500E-06,+86.7624977E-03
-52.6500E-06,+86.7624977E-03
-52.5500E-06,+86.7624977E-03
-52.4500E-06,+86.7624977E-03
-52.3500E-06,+86.7624977E-03
-52.2500E-06,+87.0749977E-03
-52.1500E-06,+87.0749977E-03
-52.0500E-06,+86.4499977E-03
-51.9500E-06,+86.1374977E-03
-51.8500E-06,+86.1374977E-03
-51.7500E-06,+86.1374977E-03
-51.6500E-06,+86.1374977E-03
-51.5500E-06,+86.1374977E-03
-51.4500E-06,+85.5124978E-03
-51.3500E-06,+85.5124978E-03
-51.2500E-06,+85.8249977E-03
-51.1500E-06,+85.5124978E-03
-51.0500E-06,+85.1999978E-03
-50.9500E-06,+84.8874978E-03
-50.8500E-06,+84.8874978E-03
-50.7500E-06,+85.5124978E-03
-50.6500E-06,+85.5124978E-03
-50.5500E-06,+85.1999978E-03
-50.4500E-06,+85.5124978E-03
-50.3500E-06,+85.5124978E-03
-50.2500E-06,+85.5124978E-03
-50.1500E-06,+85.5124978E-03
-50.0500E-06,+85.1999978E-03
-49.9500E-06,+84.8874978E-03
-49.8500E-06,+84.8874978E-03
-49.7500E-06,+85.1999978E-03
-49.6500E-06,+85.1999978E-03
-49.5500E-06,+85.5124978E-03
-49.4500E-06,+85.8249977E-03
-49.3500E-06,+85.1999978E-03
-49.2500E-06,+84.8874978E-03
-49.1500E-06,+84.8874978E-03
-49.0500E-06,+84.5749978E-03
-48.9500E-06,+84.8874978E-03
-48.8500E-06,+85.5124978E-03
-48.7500E-06,+85.1999978E-03
-48.6500E-06,+84.8874978E-03
-48.5500E-06,+84.8874978E-03
-48.4500E-06,+84.8874978E-03
-48.3500E-06,+84.8874978E-03
-48.2500E-06,+85.1999978E-03
-48.1500E-06,+85.1999978E-03
-48.0500E-06,+84.5749978E-03
-47.9500E-06,+84.5749978E-03
-47.8500E-06,+84.5749978E-03
-47.7500E-06,+84.5749978E-03
-47.6500E-06,+84.8874978E-03
-47.5500E-06,+84.5749978E-03
-47.4500E-06,+84.2624978E-03
-47.3500E-06,+84.5749978E-03
-47.2500E-06,+84.5749978E-03
-47.1500E-06,+84.2624978E-03
-47.0500E-06,+84.2624978E-03
-46.9500E-06,+83.9499978E-03
-46.8500E-06,+83.9499978E-03
-46.7500E-06,+83.9499978E-03
-46.6500E-06,+83.9499978E-03
-46.5500E-06,+83.9499978E-03
-46.4500E-06,+83.6374978E-03
-46.3500E-06,+83.9499978E-03
-46.2500E-06,+84.2624978E-03
-46.1500E-06,+83.9499978E-03
-46.0500E-06,+83.3249978E-03
-45.9500E-06,+83.3249978E-03
-45.8500E-06,+83.3249978E-03
-45.7500E-06,+83.3249978E-03
-45.6500E-06,+83.3249978E-03
-45.5500E-06,+83.3249978E-03
-45.4500E-06,+83.3249978E-03
-45.3500E-06,+83.0124978E-03
-45.2500E-06,+83.0124978E-03
-45.1500E-06,+83.0124978E-03
-45.0500E-06,+82.6999978E-03
-44.9500E-06,+82.3874978E-03
-44.8500E-06,+82.0749978E-03
-44.7500E-06,+82.0749978E-03
-44.6500E-06,+82.0749978E-03
-44.5500E-06,+82.0749978E-03
-44.4500E-06,+82.0749978E-03
-44.3500E-06,+82.0749978E-03
-44.2500E-06,+82.3874978E-03
-44.1500E-06,+82.0749978E-03
-44.0500E-06,+81.7624978E-03
-43.9500E-06,+82.3874978E-03
-43.8500E-06,+82.6999978E-03
-43.7500E-06,+82.3874978E-03
-43.6500E-06,+82.3874978E-03
-43.5500E-06,+82.0749978E-03
-43.4500E-06,+82.0749978E-03
-43.3500E-06,+82.0749978E-03
-43.2500E-06,+81.7624978E-03
-43.1500E-06,+82.0749978E-03
-43.0500E-06,+81.7624978E-03
-42.9500E-06,+81.4499978E-03
-42.8500E-06,+81.7624978E-03
-42.7500E-06,+81.4499978E-03
-42.6500E-06,+81.4499978E-03
-42.5500E-06,+81.7624978E-03
-42.4500E-06,+81.4499978E-03
-42.3500E-06,+81.1374979E-03
-42.2500E-06,+81.1374979E-03
-42.1500E-06,+80.8249979E-03
-42.0500E-06,+81.1374979E-03
-41.9500E-06,+81.4499978E-03
-41.8500E-06,+80.8249979E-03
-41.7500E-06,+80.5124979E-03
-41.6500E-06,+80.5124979E-03
-41.5500E-06,+80.5124979E-03
-41.4500E-06,+80.1999979E-03
-41.3500E-06,+80.1999979E-03
-41.2500E-06,+80.5124979E-03
-41.1500E-06,+80.5124979E-03
-41.0500E-06,+80.1999979E-03
-40.9500E-06,+80.1999979E-03
-40.8500E-06,+79.8874979E-03
-40.7500E-06,+79.5749979E-03
-40.6500E-06,+79.8874979E-03
-40.5500E-06,+79.8874979E-03
-40.4500E-06,+79.5749979E-03
-40.3500E-06,+79.8874979E-03
-40.2500E-06,+79.8874979E-03
-40.1500E-06,+79.5749979E-03
-40.0500E-06,+79.5749979E-03
-39.9500E-06,+79.2624979E-03
-39.8500E-06,+79.5749979E-03
-39.7500E-06,+79.5749979E-03
-39.6500E-06,+79.2624979E-03
-39.5500E-06,+79.2624979E-03
-39.4500E-06,+79.2624979E-03
-39.3500E-06,+79.2624979E-03
-39.2500E-06,+79.2624979E-03
-39.1500E-06,+79.5749979E-03
-39.0500E-06,+79.5749979E-03
-38.9500E-06,+79.2624979E-03
-38.8500E-06,+78.9499979E-03
-38.7500E-06,+78.9499979E-03
-38.6500E-06,+78.9499979E-03
-38.5500E-06,+78.9499979E-03
-38.4500E-06,+78.9499979E-03
-38.3500E-06,+78.9499979E-03
-38.2500E-06,+78.6374979E-03
-38.1500E-06,+78.6374979E-03
-38.0500E-06,+78.6374979E-03
-37.9500E-06,+78.0124979E-03
-37.8500E-06,+78.0124979E-03
-37.7500E-06,+78.0124979E-03
-37.6500E-06,+78.0124979E-03
-37.5500E-06,+78.3249979E-03
-37.4500E-06,+78.3249979E-03
-37.3500E-06,+78.3249979E-03
-37.2500E-06,+78.3249979E-03
-37.1500E-06,+78.0124979E-03
-37.0500E-06,+77.6999979E-03
-36.9500E-06,+77.6999979E-03
-36.8500E-06,+78.0124979E-03
-36.7500E-06,+78.0124979E-03
-36.6500E-06,+77.3874979E-03
-36.5500E-06,+77.0749979E-03
-36.4500E-06,+77.0749979E-03
-36.3500E-06,+76.7624979E-03
-36.2500E-06,+76.4499980E-03
-36.1500E-06,+76.1374980E-03
-36.0500E-06,+75.8249980E-03
-35.9500E-06,+75.8249980E-03
-35.8500E-06,+76.1374980E-03
-35.7500E-06,+76.1374980E-03
-35.6500E-06,+76.1374980E-03
-35.5500E-06,+75.8249980E-03
-35.4500E-06,+75.5124980E-03
-35.3500E-06,+75.5124980E-03
-35.2500E-06,+75.5124980E-03
-35.1500E-06,+75.1999980E-03
-35.0500E-06,+75.1999980E-03
-34.9500E-06,+75.1999980E-03
-34.8500E-06,+74.5749980E-03
-34.7500E-06,+74.5749980E-03
-34.6500E-06,+74.5749980E-03
-34.5500E-06,+74.5749980E-03
-34.4500E-06,+75.1999980E-03
-34.3500E-06,+75.1999980E-03
-34.2500E-06,+74.8874980E-03
-34.1500E-06,+74.8874980E-03
-34.0500E-06,+74.8874980E-03
-33.9500E-06,+74.5749980E-03
-33.8500E-06,+74.5749980E-03
-33.7500E-06,+74.8874980E-03
-33.6500E-06,+74.2624980E-03
-33.5500E-06,+73.9499980E-03
-33.4500E-06,+73.9499980E-03
-33.3500E-06,+73.0124980E-03
-33.2500E-06,+72.6999980E-03
-33.1500E-06,+73.0124980E-03
-33.0500E-06,+72.6999980E-03
-32.9500E-06,+72.6999980E-03
-32.8500E-06,+72.6999980E-03
-32.7500E-06,+72.6999980E-03
-32.6500E-06,+73.0124980E-03
-32.5500E-06,+73.3249980E-03
-32.4500E-06,+73.3249980E-03
-32.3500E-06,+73.3249980E-03
-32.2500E-06,+73.0124980E-03
-32.1500E-06,+73.0124980E-03
-32.0500E-06,+73.3249980E-03
-31.9500E-06,+73.0124980E-03
-31.8500E-06,+72.6999980E-03
-31.7500E-06,+72.3874980E-03
-31.6500E-06,+72.6999980E-03
-31.5500E-06,+72.6999980E-03
-31.4500E-06,+72.3874980E-03
-31.3500E-06,+72.3874980E-03
-31.2500E-06,+72.0749981E-03
-31.1500E-06,+72.0749981E-03
-31.0500E-06,+72.0749981E-03
-30.9500E-06,+71.4499981E-03
-30.8500E-06,+71.1374981E-03
-30.7500E-06,+70.8249981E-03
-30.6500E-06,+70.5124981E-03
-30.5500E-06,+70.5124981E-03
-30.4500E-06,+70.5124981E-03
-30.3500E-06,+70.5124981E-03
-30.2500E-06,+70.1999981E-03
-30.1500E-06,+70.1999981E-03
-30.0500E-06,+70.1999981E-03
-29.9500E-06,+69.8874981E-03
-29.8500E-06,+69.5749981E-03
-29.7500E-06,+69.5749981E-03
-29.6500E-06,+69.8874981E-03
-29.5500E-06,+69.8874981E-03
-29.4500E-06,+69.5749981E-03
-29.3500E-06,+69.2624981E-03
-29.2500E-06,+69.2624981E-03
-29.1500E-06,+68.9499981E-03
-29.0500E-06,+68.9499981E-03
-28.9500E-06,+68.9499981E-03
-28.8500E-06,+68.3249981E-03
-28.7500E-06,+68.0124981E-03
-28.6500E-06,+68.0124981E-03
-28.5500E-06,+68.0124981E-03
-28.4500E-06,+67.3874982E-03
-28.3500E-06,+67.0749982E-03
-28.2500E-06,+67.0749982E-03
-28.1500E-06,+67.0749982E-03
-28.0500E-06,+67.0749982E-03
-27.9500E-06,+66.4499982E-03
-27.8500E-06,+66.1374982E-03
-27.7500E-06,+66.1374982E-03
-27.6500E-06,+65.8249982E-03
-27.5500E-06,+65.5124982E-03
-27.4500E-06,+65.5124982E-03
-27.3500E-06,+65.5124982E-03
-27.2500E-06,+65.5124982E-03
-27.1500E-06,+65.5124982E-03
-27.0500E-06,+64.8874982E-03
-26.9500E-06,+64.2624982E-03
-26.8500E-06,+63.6374982E-03
-26.7500E-06,+63.3249982E-03
-26.6500E-06,+63.6374982E-03
-26.5500E-06,+63.9499982E-03
-26.4500E-06,+63.9499982E-03
-26.3500E-06,+63.6374982E-03
-26.2500E-06,+63.3249982E-03
-26.1500E-06,+63.3249982E-03
-26.0500E-06,+63.6374982E-03
-25.9500E-06,+63.3249982E-03
-25.8500E-06,+63.0124983E-03
-25.7500E-06,+62.6999983E-03
-25.6500E-06,+62.0749983E-03
-25.5500E-06,+61.7624983E-03
-25.4500E-06,+61.1374983E-03
-25.3500E-06,+61.1374983E-03
-25.2500E-06,+61.4499983E-03
-25.1500E-06,+61.1374983E-03
-25.0500E-06,+61.1374983E-03
-24.9500E-06,+61.1374983E-03
-24.8500E-06,+60.5124983E-03
-24.7500E-06,+59.8874983E-03
-24.6500E-06,+59.5749983E-03
-24.5500E-06,+59.2624983E-03
-24.4500E-06,+59.2624983E-03
-24.3500E-06,+58.9499983E-03
-24.2500E-06,+58.3249984E-03
-24.1500E-06,+58.3249984E-03
-24.0500E-06,+58.3249984E-03
-23.9500E-06,+57.6999984E-03
-23.8500E-06,+57.3874984E-03
-23.7500E-06,+57.3874984E-03
-23.6500E-06,+57.0749984E-03
-23.5500E-06,+56.4499984E-03
-23.4500E-06,+56.1374984E-03
-23.3500E-06,+56.1374984E-03
-23.2500E-06,+56.1374984E-03
-23.1500E-06,+55.8249984E-03
-23.0500E-06,+55.5124984E-03
-22.9500E-06,+55.1999984E-03
-22.8500E-06,+54.2624985E-03
-22.7500E-06,+53.3249985E-03
-22.6500E-06,+52.3874985E-03
-22.5500E-06,+52.0749985E-03
-22.4500E-06,+52.0749985E-03
-22.3500E-06,+51.7624985E-03
-22.2500E-06,+51.7624985E-03
-22.1500E-06,+51.7624985E-03
-22.0500E-06,+51.7624985E-03
-21.9500E-06,+52.0749985E-03
-21.8500E-06,+51.4499985E-03
-21.7500E-06,+51.1374985E-03
-21.6500E-06,+51.7624985E-03
-21.5500E-06,+51.4499985E-03
-21.4500E-06,+51.1374985E-03
-21.3500E-06,+51.1374985E-03
-21.2500E-06,+51.1374985E-03
-21.1500E-06,+50.8249985E-03
-21.0500E-06,+50.1999985E-03
-20.9500E-06,+49.8874985E-03
-20.8500E-06,+49.8874985E-03
-20.7500E-06,+49.8874985E-03
-20.6500E-06,+49.2624986E-03
-20.5500E-06,+48.3249986E-03
-20.4500E-06,+48.0124986E-03
-20.3500E-06,+48.3249986E-03
-20.2500E-06,+48.6374986E-03
-20.1500E-06,+48.6374986E-03
-20.0500E-06,+48.0124986E-03
-19.9500E-06,+47.3874986E-03
-19.8500E-06,+46.7624986E-03
-19.7500E-06,+45.8249986E-03
-19.6500E-06,+45.5124986E-03
-19.5500E-06,+45.5124986E-03
-19.4500E-06,+44.5749987E-03
-19.3500E-06,+43.3249987E-03
-19.2500E-06,+42.6999987E-03
-19.1500E-06,+42.6999987E-03
-19.0500E-06,+42.3874987E-03
-18.9500E-06,+41.7624987E-03
-18.8500E-06,+41.4499987E-03
-18.7500E-06,+40.8249988E-03
-18.6500E-06,+40.1999988E-03
-18.5500E-06,+39.8874988E-03
-18.4500E-06,+39.8874988E-03
-18.3500E-06,+39.5749988E-03
-18.2500E-06,+38.9499988E-03
-18.1500E-06,+38.9499988E-03
-18.0500E-06,+38.9499988E-03
-17.9500E-06,+38.6374988E-03
-17.8500E-06,+38.6374988E-03
-17.7500E-06,+38.6374988E-03
-17.6500E-06,+38.3249988E-03
-17.5500E-06,+38.0124988E-03
-17.4500E-06,+37.6999988E-03
-17.3500E-06,+37.0749988E-03
-17.2500E-06,+36.7624988E-03
-17.1500E-06,+37.0749988E-03
-17.0500E-06,+37.0749988E-03
-16.9500E-06,+37.0749988E-03
-16.8500E-06,+37.3874988E-03
-16.7500E-06,+37.3874988E-03
-16.6500E-06,+37.3874988E-03
-16.5500E-06,+37.0749988E-03
-16.4500E-06,+37.0749988E-03
-16.3500E-06,+37.3874988E-03
-16.2500E-06,+36.7624988E-03
-16.1500E-06,+36.4499989E-03
-16.0500E-06,+36.7624988E-03
-15.9500E-06,+36.4499988E-03
-15.8500E-06,+36.1374989E-03
-15.7500E-06,+36.1374989E-03
-15.6500E-06,+35.5124989E-03
-15.5500E-06,+35.1999989E-03
-15.4500E-06,+35.1999989E-03
-15.3500E-06,+34.8874989E-03
-15.2500E-06,+34.8874989E-03
-15.1500E-06,+34.8874989E-03
-15.0500E-06,+34.5749989E-03
-14.9500E-06,+34.8874989E-03
-14.8500E-06,+35.1999989E-03
-14.7500E-06,+35.1999989E-03
-14.6500E-06,+34.5749989E-03
-14.5500E-06,+33.9499989E-03
-14.4500E-06,+33.9499989E-03
-14.3500E-06,+33.6374989E-03
-14.2500E-06,+33.3249989E-03
-14.1500E-06,+33.0124989E-03
-14.0500E-06,+32.6999989E-03
-13.9500E-06,+32.0749989E-03
-13.8500E-06,+31.4499990E-03
-13.7500E-06,+31.1374990E-03
-13.6500E-06,+31.4499990E-03
-13.5500E-06,+31.4499990E-03
-13.4500E-06,+30.5124990E-03
-13.3500E-06,+29.8874990E-03
-13.2500E-06,+29.8874990E-03
-13.1500E-06,+29.8874990E-03
-13.0500E-06,+29.5749990E-03
-12.9500E-06,+29.2624990E-03
-12.8500E-06,+29.2624990E-03
-12.7500E-06,+29.2624990E-03
-12.6500E-06,+29.2624990E-03
-12.5500E-06,+29.2624990E-03
-12.4500E-06,+29.5749990E-03
-12.3500E-06,+29.8874990E-03
-12.2500E-06,+29.5749990E-03
-12.1500E-06,+29.2624990E-03
-12.0500E-06,+28.9499990E-03
-11.9500E-06,+28.9499990E-03
-11.8500E-06,+28.9499990E-03
-11.7500E-06,+28.9499990E-03
-11.6500E-06,+28.9499990E-03
-11.5500E-06,+28.6374990E-03
-11.4500E-06,+28.6374990E-03
-11.3500E-06,+28.6374990E-03
-11.2500E-06,+28.0124990E-03
-11.1500E-06,+27.3874991E-03
-11.0500E-06,+27.0749991E-03
-10.9500E-06,+26.4499991E-03
-10.8500E-06,+26.1374991E-03
-10.7500E-06,+26.4499991E-03
-10.6500E-06,+26.7624991E-03
-10.5500E-06,+26.4499991E-03
-10.4500E-06,+25.8249991E-03
-10.3500E-06,+25.5124991E-03
-10.2500E-06,+25.5124991E-03
-10.1500E-06,+25.5124991E-03
-10.0500E-06,+25.1999991E-03
-9.9500E-06,+24.8874991E-03
-9.8500E-06,+24.5749991E-03
-9.7500E-06,+24.5749991E-03
-9.6500E-06,+24.5749991E-03
-9.5500E-06,+24.5749991E-03
-9.4500E-06,+24.5749991E-03
-9.3500E-06,+24.8874991E-03
-9.2500E-06,+25.1999991E-03
-9.1500E-06,+25.1999991E-03
-9.0500E-06,+24.8874991E-03
-8.9500E-06,+24.8874991E-03
-8.8500E-06,+24.8874991E-03
-8.7500E-06,+24.5749991E-03
-8.6500E-06,+24.5749991E-03
-8.5500E-06,+24.5749991E-03
-8.4500E-06,+24.8874991E-03
-8.3500E-06,+25.1999991E-03
-8.2500E-06,+25.1999991E-03
-8.1500E-06,+24.8874991E-03
-8.0500E-06,+24.2624991E-03
-7.9500E-06,+23.6374991E-03
-7.8500E-06,+23.0124992E-03
-7.7500E-06,+22.6999992E-03
-7.6500E-06,+22.6999992E-03
-7.5500E-06,+22.6999992E-03
-7.4500E-06,+22.6999992E-03
-7.3500E-06,+21.7624992E-03
-7.2500E-06,+20.1999992E-03
-7.1500E-06,+18.6374992E-03
-7.0500E-06,+17.3874993E-03
-6.9500E-06,+16.7624993E-03
-6.8500E-06,+16.7624993E-03
-6.7500E-06,+16.4499993E-03
-6.6500E-06,+15.8249993E-03
-6.5500E-06,+15.8249993E-03
-6.4500E-06,+15.5124993E-03
-6.3500E-06,+14.2624993E-03
-6.2500E-06,+12.0749994E-03
-6.1500E-06,+9.8874994E-03
-6.0500E-06,+9.2624995E-03
-5.9500E-06,+9.5749995E-03
-5.8500E-06,+9.2624995E-03
-5.7500E-06,+8.9499995E-03
-5.6500E-06,+8.3249995E-03
-5.5500E-06,+7.3874995E-03
-5.4500E-06,+6.7624995E-03
-5.3500E-06,+6.7624995E-03
-5.2500E-06,+7.6999995E-03
-5.1500E-06,+8.3249995E-03
-5.0500E-06,+8.3249995E-03
-4.9500E-06,+8.3249995E-03
-4.8500E-06,+8.9499995E-03
-4.7500E-06,+9.2624995E-03
-4.6500E-06,+8.9499995E-03
-4.5500E-06,+8.9499995E-03
-4.4500E-06,+8.9499995E-03
-4.3500E-06,+8.6374995E-03
-4.2500E-06,+8.6374995E-03
-4.1500E-06,+8.6374995E-03
-4.0500E-06,+8.3249995E-03
-3.9500E-06,+8.3249995E-03
-3.8500E-06,+8.3249995E-03
-3.7500E-06,+8.3249995E-03
-3.6500E-06,+8.3249995E-03
-3.5500E-06,+8.3249995E-03
-3.4500E-06,+8.3249995E-03
-3.3500E-06,+8.0124995E-03
-3.2500E-06,+8.0124995E-03
-3.1500E-06,+8.3249995E-03
-3.0500E-06,+8.0124995E-03
-2.9500E-06,+7.3874995E-03
-2.8500E-06,+5.8249995E-03
-2.7500E-06,+3.6374996E-03
-2.6500E-06,+2.3874996E-03
-2.5500E-06,+1.7624996E-03
-2.4500E-06,+1.1374996E-03
-2.3500E-06,+824.9996E-06
-2.2500E-06,+824.9996E-06
-2.1500E-06,+824.9996E-06
-2.0500E-06,+824.9996E-06
-1.9500E-06,+512.4997E-06
-1.8500E-06,+512.4997E-06
-1.7500E-06,+512.4997E-06
-1.6500E-06,+199.9997E-06
-1.5500E-06,-112.5003E-06
-1.4500E-06,-112.5003E-06
-1.3500E-06,+199.9997E-06
-1.2500E-06,-112.5003E-06
-1.1500E-06,-737.5003E-06
-1.0500E-06,-737.5003E-06
-950.0E-09,-425.0003E-06
-850.0E-09,-425.0003E-06
-750.0E-09,-425.0003E-06
-650.0E-09,-112.5003E-06
-550.0E-09,+199.9997E-06
-450.0E-09,-112.5003E-06
-350.0E-09,-425.0003E-06
-250.0E-09,-425.0003E-06
-150.0E-09,-425.0003E-06
-50.0E-09,-425.0003E-06
+50.0E-09,-425.0003E-06
+150.0E-09,-112.5003E-06
+250.0E-09,-112.5003E-06
+350.0E-09,-425.0003E-06
+450.0E-09,-425.0003E-06
+550.0E-09,-112.5003E-06
+650.0E-09,+199.9997E-06
+750.0E-09,+199.9997E-06
+850.0E-09,-112.5003E-06
+950.0E-09,-112.5003E-06
+1.0500E-06,+199.9997E-06
+1.1500E-06,+199.9997E-06
+1.2500E-06,-112.5003E-06
+1.3500E-06,-112.5003E-06
+1.4500E-06,+199.9997E-06
+1.5500E-06,-112.5003E-06
+1.6500E-06,-425.0003E-06
+1.7500E-06,-425.0003E-06
+1.8500E-06,-425.0003E-06
+1.9500E-06,-425.0003E-06
+2.0500E-06,-737.5003E-06
+2.1500E-06,-737.5003E-06
+2.2500E-06,-425.0003E-06
+2.3500E-06,-425.0003E-06
+2.4500E-06,-425.0003E-06
+2.5500E-06,-425.0003E-06
+2.6500E-06,-425.0003E-06
+2.7500E-06,-112.5003E-06
+2.8500E-06,-112.5003E-06
+2.9500E-06,-112.5003E-06
+3.0500E-06,-112.5003E-06
+3.1500E-06,-112.5003E-06
+3.2500E-06,-112.5003E-06
+3.3500E-06,-425.0003E-06
+3.4500E-06,-737.5003E-06
+3.5500E-06,-1.0500003E-03
+3.6500E-06,-1.0500003E-03
+3.7500E-06,-1.0500003E-03
+3.8500E-06,-1.0500003E-03
+3.9500E-06,-1.0500003E-03
+4.0500E-06,-1.0500003E-03
+4.1500E-06,-737.5003E-06
+4.2500E-06,-737.5003E-06
+4.3500E-06,-1.0500003E-03
+4.4500E-06,-737.5003E-06
+4.5500E-06,-425.0003E-06
+4.6500E-06,-112.5003E-06
+4.7500E-06,-112.5003E-06
+4.8500E-06,-425.0003E-06
+4.9500E-06,-112.5003E-06
+5.0500E-06,+199.9997E-06
+5.1500E-06,+199.9997E-06
+5.2500E-06,+199.9997E-06
+5.3500E-06,+199.9997E-06
+5.4500E-06,-112.5003E-06
+5.5500E-06,-112.5003E-06
+5.6500E-06,+199.9997E-06
+5.7500E-06,-112.5003E-06
+5.8500E-06,-425.0003E-06
+5.9500E-06,-112.5003E-06
+6.0500E-06,+199.9997E-06
+6.1500E-06,-112.5003E-06
+6.2500E-06,-112.5003E-06
+6.3500E-06,+199.9997E-06
+6.4500E-06,-112.5003E-06
+6.5500E-06,-425.0003E-06
+6.6500E-06,-425.0003E-06
+6.7500E-06,-425.0003E-06
+6.8500E-06,-425.0003E-06
+6.9500E-06,-425.0003E-06
+7.0500E-06,-112.5003E-06
+7.1500E-06,+199.9997E-06
+7.2500E-06,+199.9997E-06
+7.3500E-06,+199.9997E-06
+7.4500E-06,-112.5003E-06
+7.5500E-06,-425.0003E-06
+7.6500E-06,-425.0003E-06
+7.7500E-06,-425.0003E-06
+7.8500E-06,-425.0003E-06
+7.9500E-06,-425.0003E-06
+8.0500E-06,-425.0003E-06
+8.1500E-06,-425.0003E-06
+8.2500E-06,-737.5003E-06
+8.3500E-06,-737.5003E-06
+8.4500E-06,-425.0003E-06
+8.5500E-06,-425.0003E-06
+8.6500E-06,-425.0003E-06
+8.7500E-06,-112.5003E-06
+8.8500E-06,-425.0003E-06
+8.9500E-06,-737.5003E-06
+9.0500E-06,-425.0003E-06
+9.1500E-06,-425.0003E-06
+9.2500E-06,-737.5003E-06
+9.3500E-06,-737.5003E-06
+9.4500E-06,-425.0003E-06
+9.5500E-06,-425.0003E-06
+9.6500E-06,-425.0003E-06
+9.7500E-06,-425.0003E-06
+9.8500E-06,-425.0003E-06
+9.9500E-06,-425.0003E-06
+10.0500E-06,-425.0003E-06
+10.1500E-06,-425.0003E-06
+10.2500E-06,-425.0003E-06
+10.3500E-06,-425.0003E-06
+10.4500E-06,-425.0003E-06
+10.5500E-06,-425.0003E-06
+10.6500E-06,-425.0003E-06
+10.7500E-06,-425.0003E-06
+10.8500E-06,-112.5003E-06
+10.9500E-06,+199.9997E-06
+11.0500E-06,-112.5003E-06
+11.1500E-06,-425.0003E-06
+11.2500E-06,-425.0003E-06
+11.3500E-06,-425.0003E-06
+11.4500E-06,-425.0003E-06
+11.5500E-06,-425.0003E-06
+11.6500E-06,-425.0003E-06
+11.7500E-06,-112.5003E-06
+11.8500E-06,-425.0003E-06
+11.9500E-06,-737.5003E-06
+12.0500E-06,-737.5003E-06
+12.1500E-06,-737.5003E-06
+12.2500E-06,-425.0003E-06
+12.3500E-06,-425.0003E-06
+12.4500E-06,-425.0003E-06
+12.5500E-06,-425.0003E-06
+12.6500E-06,-425.0003E-06
+12.7500E-06,-112.5003E-06
+12.8500E-06,+199.9997E-06
+12.9500E-06,-112.5003E-06
+13.0500E-06,-425.0003E-06
+13.1500E-06,-737.5003E-06
+13.2500E-06,-737.5003E-06
+13.3500E-06,-425.0003E-06
+13.4500E-06,-425.0003E-06
+13.5500E-06,-425.0003E-06
+13.6500E-06,-425.0003E-06
+13.7500E-06,-425.0003E-06
+13.8500E-06,-737.5003E-06
+13.9500E-06,-737.5003E-06
+14.0500E-06,-737.5003E-06
+14.1500E-06,-737.5003E-06
+14.2500E-06,-737.5003E-06
+14.3500E-06,-737.5003E-06
+14.4500E-06,-737.5003E-06
+14.5500E-06,-737.5003E-06
+14.6500E-06,-737.5003E-06
+14.7500E-06,-737.5003E-06
+14.8500E-06,-737.5003E-06
+14.9500E-06,-1.0500003E-03
+15.0500E-06,-1.0500003E-03
+15.1500E-06,-737.5003E-06
+15.2500E-06,-425.0003E-06
+15.3500E-06,-112.5003E-06
+15.4500E-06,-737.5003E-06
+15.5500E-06,-1.0500003E-03
+15.6500E-06,-425.0003E-06
+15.7500E-06,-425.0003E-06
+15.8500E-06,-425.0003E-06
+15.9500E-06,-425.0003E-06
+16.0500E-06,-425.0003E-06
+16.1500E-06,-425.0003E-06
+16.2500E-06,-425.0003E-06
+16.3500E-06,-425.0003E-06
+16.4500E-06,-425.0003E-06
+16.5500E-06,-425.0003E-06
+16.6500E-06,-737.5003E-06
+16.7500E-06,-1.3625003E-03
+16.8500E-06,-1.6750003E-03
+16.9500E-06,-1.3625003E-03
+17.0500E-06,-1.0500003E-03
+17.1500E-06,-737.5003E-06
+17.2500E-06,-1.0500003E-03
+17.3500E-06,-1.3625003E-03
+17.4500E-06,-1.0500003E-03
+17.5500E-06,-1.0500003E-03
+17.6500E-06,-1.3625003E-03
+17.7500E-06,-1.0500003E-03
+17.8500E-06,-737.5003E-06
+17.9500E-06,-737.5003E-06
+18.0500E-06,-1.0500003E-03
+18.1500E-06,-1.0500003E-03
+18.2500E-06,-425.0003E-06
+18.3500E-06,-737.5003E-06
+18.4500E-06,-1.3625003E-03
+18.5500E-06,-1.3625003E-03
+18.6500E-06,-1.3625003E-03
+18.7500E-06,-1.3625003E-03
+18.8500E-06,-1.0500003E-03
+18.9500E-06,-737.5003E-06
+19.0500E-06,-737.5003E-06
+19.1500E-06,-737.5003E-06
+19.2500E-06,-1.0500003E-03
+19.3500E-06,-1.0500003E-03
+19.4500E-06,-737.5003E-06
+19.5500E-06,-737.5003E-06
+19.6500E-06,-425.0003E-06
+19.7500E-06,-425.0003E-06
+19.8500E-06,-1.0500003E-03
+19.9500E-06,-1.0500003E-03
+20.0500E-06,-425.0003E-06
+20.1500E-06,-425.0003E-06
+20.2500E-06,-737.5003E-06
+20.3500E-06,-737.5003E-06
+20.4500E-06,-737.5003E-06
+20.5500E-06,-1.0500003E-03
+20.6500E-06,-1.0500003E-03
+20.7500E-06,-737.5003E-06
+20.8500E-06,-425.0003E-06
+20.9500E-06,-425.0003E-06
+21.0500E-06,-425.0003E-06
+21.1500E-06,-112.5003E-06
+21.2500E-06,-112.5003E-06
+21.3500E-06,-425.0003E-06
+21.4500E-06,-425.0003E-06
+21.5500E-06,-425.0003E-06
+21.6500E-06,-425.0003E-06
+21.7500E-06,-425.0003E-06
+21.8500E-06,-737.5003E-06
+21.9500E-06,-737.5003E-06
+22.0500E-06,-737.5003E-06
+22.1500E-06,-737.5003E-06
+22.2500E-06,-737.5003E-06
+22.3500E-06,-737.5003E-06
+22.4500E-06,-737.5003E-06
+22.5500E-06,-1.0500003E-03
+22.6500E-06,-1.3625003E-03
+22.7500E-06,-1.6750003E-03
+22.8500E-06,-1.3625003E-03
+22.9500E-06,-1.3625003E-03
+23.0500E-06,-1.6750003E-03
+23.1500E-06,-1.6750003E-03
+23.2500E-06,-1.6750003E-03
+23.3500E-06,-1.6750003E-03
+23.4500E-06,-1.6750003E-03
+23.5500E-06,-1.3625003E-03
+23.6500E-06,-1.3625003E-03
+23.7500E-06,-1.6750003E-03
+23.8500E-06,-1.6750003E-03
+23.9500E-06,-1.6750003E-03
+24.0500E-06,-1.6750003E-03
+24.1500E-06,-1.0500003E-03
+24.2500E-06,-1.0500003E-03
+24.3500E-06,-1.6750003E-03
+24.4500E-06,-1.3625003E-03
+24.5500E-06,-737.5003E-06
+24.6500E-06,-737.5003E-06
+24.7500E-06,-737.5003E-06
+24.8500E-06,-737.5003E-06
+24.9500E-06,-737.5003E-06
+25.0500E-06,-737.5003E-06
+25.1500E-06,-737.5003E-06
+25.2500E-06,-425.0003E-06
+25.3500E-06,-425.0003E-06
+25.4500E-06,-737.5003E-06
+25.5500E-06,-737.5003E-06
+25.6500E-06,-425.0003E-06
+25.7500E-06,-425.0003E-06
+25.8500E-06,-425.0003E-06
+25.9500E-06,-737.5003E-06
+26.0500E-06,-737.5003E-06
+26.1500E-06,-425.0003E-06
+26.2500E-06,-737.5003E-06
+26.3500E-06,-737.5003E-06
+26.4500E-06,-737.5003E-06
+26.5500E-06,-1.3625003E-03
+26.6500E-06,-1.3625003E-03
+26.7500E-06,-1.3625003E-03
+26.8500E-06,-1.3625003E-03
+26.9500E-06,-1.0500003E-03
+27.0500E-06,-1.3625003E-03
+27.1500E-06,-1.3625003E-03
+27.2500E-06,-1.0500003E-03
+27.3500E-06,-1.0500003E-03
+27.4500E-06,-1.3625003E-03
+27.5500E-06,-1.6750003E-03
+27.6500E-06,-1.6750003E-03
+27.7500E-06,-1.3625003E-03
+27.8500E-06,-1.6750003E-03
+27.9500E-06,-1.6750003E-03
+28.0500E-06,-1.3625003E-03
+28.1500E-06,-1.6750003E-03
+28.2500E-06,-1.6750003E-03
+28.3500E-06,-1.6750003E-03
+28.4500E-06,-1.6750003E-03
+28.5500E-06,-1.3625003E-03
+28.6500E-06,-1.3625003E-03
+28.7500E-06,-1.6750003E-03
+28.8500E-06,-1.6750003E-03
+28.9500E-06,-1.3625003E-03
+29.0500E-06,-1.3625003E-03
+29.1500E-06,-1.6750003E-03
+29.2500E-06,-1.6750003E-03
+29.3500E-06,-1.6750003E-03
+29.4500E-06,-1.6750003E-03
+29.5500E-06,-1.6750003E-03
+29.6500E-06,-1.6750003E-03
+29.7500E-06,-1.3625003E-03
+29.8500E-06,-1.3625003E-03
+29.9500E-06,-1.6750003E-03
+30.0500E-06,-1.0500003E-03
+30.1500E-06,-737.5003E-06
+30.2500E-06,-1.3625003E-03
+30.3500E-06,-1.6750003E-03
+30.4500E-06,-1.6750003E-03
+30.5500E-06,-1.3625003E-03
+30.6500E-06,-1.3625003E-03
+30.7500E-06,-1.3625003E-03
+30.8500E-06,-1.3625003E-03
+30.9500E-06,-1.0500003E-03
+31.0500E-06,-1.0500003E-03
+31.1500E-06,-1.3625003E-03
+31.2500E-06,-1.3625003E-03
+31.3500E-06,-1.3625003E-03
+31.4500E-06,-1.3625003E-03
+31.5500E-06,-1.0500003E-03
+31.6500E-06,-1.3625003E-03
+31.7500E-06,-1.6750003E-03
+31.8500E-06,-1.6750003E-03
+31.9500E-06,-1.6750003E-03
+32.0500E-06,-1.3625003E-03
+32.1500E-06,-1.6750003E-03
+32.2500E-06,-1.3625003E-03
+32.3500E-06,-1.3625003E-03
+32.4500E-06,-1.6750003E-03
+32.5500E-06,-1.6750003E-03
+32.6500E-06,-1.6750003E-03
+32.7500E-06,-1.6750003E-03
+32.8500E-06,-1.6750003E-03
+32.9500E-06,-1.3625003E-03
+33.0500E-06,-1.6750003E-03
+33.1500E-06,-1.9875003E-03
+33.2500E-06,-1.6750003E-03
+33.3500E-06,-1.6750003E-03
+33.4500E-06,-1.9875003E-03
+33.5500E-06,-1.9875003E-03
+33.6500E-06,-1.6750003E-03
+33.7500E-06,-1.3625003E-03
+33.8500E-06,-1.0500003E-03
+33.9500E-06,-1.0500003E-03
+34.0500E-06,-1.3625003E-03
+34.1500E-06,-1.6750003E-03
+34.2500E-06,-1.3625003E-03
+34.3500E-06,-1.0500003E-03
+34.4500E-06,-1.3625003E-03
+34.5500E-06,-1.0500003E-03
+34.6500E-06,-737.5003E-06
+34.7500E-06,-1.3625003E-03
+34.8500E-06,-1.6750003E-03
+34.9500E-06,-1.6750003E-03
+35.0500E-06,-1.6750003E-03
+35.1500E-06,-1.6750003E-03
+35.2500E-06,-1.6750003E-03
+35.3500E-06,-1.6750003E-03
+35.4500E-06,-1.6750003E-03
+35.5500E-06,-1.3625003E-03
+35.6500E-06,-1.0500003E-03
+35.7500E-06,-1.3625003E-03
+35.8500E-06,-1.6750003E-03
+35.9500E-06,-1.6750003E-03
+36.0500E-06,-1.3625003E-03
+36.1500E-06,-1.3625003E-03
+36.2500E-06,-1.6750003E-03
+36.3500E-06,-1.0500003E-03
+36.4500E-06,-737.5003E-06
+36.5500E-06,-1.3625003E-03
+36.6500E-06,-1.6750003E-03
+36.7500E-06,-1.3625003E-03
+36.8500E-06,-1.3625003E-03
+36.9500E-06,-1.6750003E-03
+37.0500E-06,-1.9875003E-03
