x-axis,1
second,Volt
-276.8000E-06,+95.8249975E-03
-276.3000E-06,+95.8249975E-03
-275.8000E-06,+95.8249975E-03
-275.3000E-06,+95.8249975E-03
-274.8000E-06,+95.8249975E-03
-274.3000E-06,+96.0749975E-03
-273.8000E-06,+96.4499975E-03
-273.3000E-06,+96.4499975E-03
-272.8000E-06,+96.4499975E-03
-272.3000E-06,+96.4499975E-03
-271.8000E-06,+96.1999975E-03
-271.3000E-06,+96.3249975E-03
-270.8000E-06,+96.5749975E-03
-270.3000E-06,+96.0749975E-03
-269.8000E-06,+96.4499975E-03
-269.3000E-06,+96.6999975E-03
-268.8000E-06,+97.0749975E-03
-268.3000E-06,+96.8249975E-03
-267.8000E-06,+96.4499975E-03
-267.3000E-06,+96.1999975E-03
-266.8000E-06,+96.0749975E-03
-266.3000E-06,+95.9499975E-03
-265.8000E-06,+95.4499975E-03
-265.3000E-06,+95.8249975E-03
-264.8000E-06,+95.8249975E-03
-264.3000E-06,+96.0749975E-03
-263.8000E-06,+96.4499975E-03
-263.3000E-06,+96.1999975E-03
-262.8000E-06,+95.8249975E-03
-262.3000E-06,+95.8249975E-03
-261.8000E-06,+95.8249975E-03
-261.3000E-06,+95.8249975E-03
-260.8000E-06,+95.8249975E-03
-260.3000E-06,+96.0749975E-03
-259.8000E-06,+96.4499975E-03
-259.3000E-06,+96.4499975E-03
-258.8000E-06,+96.1999975E-03
-258.3000E-06,+95.8249975E-03
-257.8000E-06,+95.8249975E-03
-257.3000E-06,+95.8249975E-03
-256.8000E-06,+95.8249975E-03
-256.3000E-06,+95.5749975E-03
-255.8000E-06,+95.4499975E-03
-255.3000E-06,+95.8249975E-03
-254.8000E-06,+95.8249975E-03
-254.3000E-06,+96.0749975E-03
-253.8000E-06,+96.4499975E-03
-253.3000E-06,+96.1999975E-03
-252.8000E-06,+95.8249975E-03
-252.3000E-06,+96.0749975E-03
-251.8000E-06,+96.1999975E-03
-251.3000E-06,+95.8249975E-03
-250.8000E-06,+95.8249975E-03
-250.3000E-06,+96.0749975E-03
-249.8000E-06,+96.4499975E-03
-249.3000E-06,+96.4499975E-03
-248.8000E-06,+96.4499975E-03
-248.3000E-06,+96.1999975E-03
-247.8000E-06,+95.5749975E-03
-247.3000E-06,+95.4499975E-03
-246.8000E-06,+95.8249975E-03
-246.3000E-06,+95.5749975E-03
-245.8000E-06,+95.4499975E-03
-245.3000E-06,+95.8249975E-03
-244.8000E-06,+95.8249975E-03
-244.3000E-06,+95.8249975E-03
-243.8000E-06,+95.8249975E-03
-243.3000E-06,+95.3249975E-03
-242.8000E-06,+95.0749975E-03
-242.3000E-06,+95.5749975E-03
-241.8000E-06,+95.1999975E-03
-241.3000E-06,+94.6999975E-03
-240.8000E-06,+94.4499976E-03
-240.3000E-06,+95.1999975E-03
-239.8000E-06,+95.4499975E-03
-239.3000E-06,+95.8249975E-03
-238.8000E-06,+95.8249975E-03
-238.3000E-06,+95.3249975E-03
-237.8000E-06,+94.5749976E-03
-237.3000E-06,+94.8249975E-03
-236.8000E-06,+95.4499975E-03
-236.3000E-06,+95.5749975E-03
-235.8000E-06,+94.9499975E-03
-235.3000E-06,+95.0749975E-03
-234.8000E-06,+95.5749975E-03
-234.3000E-06,+95.1999975E-03
-233.8000E-06,+95.1999975E-03
-233.3000E-06,+95.4499975E-03
-232.8000E-06,+95.5749975E-03
-232.3000E-06,+95.1999975E-03
-231.8000E-06,+95.1999975E-03
-231.3000E-06,+95.4499975E-03
-230.8000E-06,+95.5749975E-03
-230.3000E-06,+94.9499975E-03
-229.8000E-06,+94.8249975E-03
-229.3000E-06,+95.1999975E-03
-228.8000E-06,+94.9499975E-03
-228.3000E-06,+94.5749976E-03
-227.8000E-06,+94.5749976E-03
-227.3000E-06,+94.8249975E-03
-226.8000E-06,+94.9499975E-03
-226.3000E-06,+94.8249975E-03
-225.8000E-06,+94.9499975E-03
-225.3000E-06,+95.0749975E-03
-224.8000E-06,+95.5749975E-03
-224.3000E-06,+95.1999975E-03
-223.8000E-06,+95.1999975E-03
-223.3000E-06,+94.9499975E-03
-222.8000E-06,+94.5749976E-03
-222.3000E-06,+94.3249976E-03
-221.8000E-06,+94.1999976E-03
-221.3000E-06,+94.5749976E-03
-220.8000E-06,+94.8249975E-03
-220.3000E-06,+95.1999975E-03
-219.8000E-06,+95.1999975E-03
-219.3000E-06,+95.1999975E-03
-218.8000E-06,+95.1999975E-03
-218.3000E-06,+94.9499975E-03
-217.8000E-06,+94.5749976E-03
-217.3000E-06,+94.5749976E-03
-216.8000E-06,+94.3249976E-03
-216.3000E-06,+94.1999976E-03
-215.8000E-06,+94.5749976E-03
-215.3000E-06,+94.8249975E-03
-214.8000E-06,+95.4499975E-03
-214.3000E-06,+95.3249975E-03
-213.8000E-06,+94.5749976E-03
-213.3000E-06,+94.3249976E-03
-212.8000E-06,+93.9499976E-03
-212.3000E-06,+94.4499976E-03
-211.8000E-06,+94.9499975E-03
-211.3000E-06,+94.5749976E-03
-210.8000E-06,+94.5749976E-03
-210.3000E-06,+94.5749976E-03
-209.8000E-06,+94.5749976E-03
-209.3000E-06,+94.5749976E-03
-208.8000E-06,+94.5749976E-03
-208.3000E-06,+94.0749976E-03
-207.8000E-06,+93.3249976E-03
-207.3000E-06,+93.5749976E-03
-206.8000E-06,+93.9499976E-03
-206.3000E-06,+94.1999976E-03
-205.8000E-06,+94.5749976E-03
-205.3000E-06,+94.3249976E-03
-204.8000E-06,+93.9499976E-03
-204.3000E-06,+93.9499976E-03
-203.8000E-06,+93.6999976E-03
-203.3000E-06,+93.5749976E-03
-202.8000E-06,+93.6999976E-03
-202.3000E-06,+93.5749976E-03
-201.8000E-06,+93.9499976E-03
-201.3000E-06,+93.9499976E-03
-200.8000E-06,+93.9499976E-03
-200.3000E-06,+93.9499976E-03
-199.8000E-06,+93.9499976E-03
-199.3000E-06,+93.9499976E-03
-198.8000E-06,+93.6999976E-03
-198.3000E-06,+93.0749976E-03
-197.8000E-06,+92.9499976E-03
-197.3000E-06,+93.3249976E-03
-196.8000E-06,+93.3249976E-03
-196.3000E-06,+93.5749976E-03
-195.8000E-06,+93.6999976E-03
-195.3000E-06,+93.5749976E-03
-194.8000E-06,+93.6999976E-03
-194.3000E-06,+93.3249976E-03
-193.8000E-06,+93.0749976E-03
-193.3000E-06,+92.9499976E-03
-192.8000E-06,+93.5749976E-03
-192.3000E-06,+93.6999976E-03
-191.8000E-06,+93.0749976E-03
-191.3000E-06,+92.9499976E-03
-190.8000E-06,+93.3249976E-03
-190.3000E-06,+93.3249976E-03
-189.8000E-06,+93.0749976E-03
-189.3000E-06,+92.6999976E-03
-188.8000E-06,+92.9499976E-03
-188.3000E-06,+93.3249976E-03
-187.8000E-06,+93.0749976E-03
-187.3000E-06,+92.9499976E-03
-186.8000E-06,+93.5749976E-03
-186.3000E-06,+93.6999976E-03
-185.8000E-06,+93.3249976E-03
-185.3000E-06,+93.3249976E-03
-184.8000E-06,+93.0749976E-03
-184.3000E-06,+92.9499976E-03
-183.8000E-06,+93.0749976E-03
-183.3000E-06,+92.4499976E-03
-182.8000E-06,+92.5749976E-03
-182.3000E-06,+93.0749976E-03
-181.8000E-06,+92.6999976E-03
-181.3000E-06,+92.9499976E-03
-180.8000E-06,+93.0749976E-03
-180.3000E-06,+92.9499976E-03
-179.8000E-06,+93.0749976E-03
-179.3000E-06,+92.4499976E-03
-178.8000E-06,+92.0749976E-03
-178.3000E-06,+92.3249976E-03
-177.8000E-06,+92.4499976E-03
-177.3000E-06,+92.0749976E-03
-176.8000E-06,+92.0749976E-03
-176.3000E-06,+92.0749976E-03
-175.8000E-06,+92.3249976E-03
-175.3000E-06,+92.1999976E-03
-174.8000E-06,+91.6999976E-03
-174.3000E-06,+92.0749976E-03
-173.8000E-06,+91.8249976E-03
-173.3000E-06,+91.4499976E-03
-172.8000E-06,+91.4499976E-03
-172.3000E-06,+91.6999976E-03
-171.8000E-06,+92.0749976E-03
-171.3000E-06,+92.0749976E-03
-170.8000E-06,+91.8249976E-03
-170.3000E-06,+91.1999976E-03
-169.8000E-06,+91.0749976E-03
-169.3000E-06,+91.4499976E-03
-168.8000E-06,+91.4499976E-03
-168.3000E-06,+91.4499976E-03
-167.8000E-06,+91.1999976E-03
-167.3000E-06,+91.0749976E-03
-166.8000E-06,+91.1999976E-03
-166.3000E-06,+91.0749976E-03
-165.8000E-06,+91.4499976E-03
-165.3000E-06,+91.4499976E-03
-164.8000E-06,+91.4499976E-03
-164.3000E-06,+91.4499976E-03
-163.8000E-06,+91.4499976E-03
-163.3000E-06,+91.1999976E-03
-162.8000E-06,+91.0749976E-03
-162.3000E-06,+91.4499976E-03
-161.8000E-06,+91.4499976E-03
-161.3000E-06,+91.4499976E-03
-160.8000E-06,+91.4499976E-03
-160.3000E-06,+91.1999976E-03
-159.8000E-06,+90.5749976E-03
-159.3000E-06,+90.1999976E-03
-158.8000E-06,+89.9499977E-03
-158.3000E-06,+89.5749977E-03
-157.8000E-06,+89.8249977E-03
-157.3000E-06,+90.1999976E-03
-156.8000E-06,+90.4499976E-03
-156.3000E-06,+90.8249976E-03
-155.8000E-06,+90.8249976E-03
-155.3000E-06,+90.3249976E-03
-154.8000E-06,+89.5749977E-03
-154.3000E-06,+89.5749977E-03
-153.8000E-06,+89.8249977E-03
-153.3000E-06,+89.6999977E-03
-152.8000E-06,+89.4499977E-03
-152.3000E-06,+89.9499977E-03
-151.8000E-06,+89.8249977E-03
-151.3000E-06,+90.1999976E-03
-150.8000E-06,+90.1999976E-03
-150.3000E-06,+89.9499977E-03
-149.8000E-06,+90.0749977E-03
-149.3000E-06,+90.3249976E-03
-148.8000E-06,+89.3249977E-03
-148.3000E-06,+88.9499977E-03
-147.8000E-06,+89.1999977E-03
-147.3000E-06,+89.5749977E-03
-146.8000E-06,+89.5749977E-03
-146.3000E-06,+89.5749977E-03
-145.8000E-06,+89.3249977E-03
-145.3000E-06,+88.9499977E-03
-144.8000E-06,+89.1999977E-03
-144.3000E-06,+89.3249977E-03
-143.8000E-06,+88.9499977E-03
-143.3000E-06,+88.6999977E-03
-142.8000E-06,+88.5749977E-03
-142.3000E-06,+89.1999977E-03
-141.8000E-06,+89.3249977E-03
-141.3000E-06,+88.9499977E-03
-140.8000E-06,+88.6999977E-03
-140.3000E-06,+88.3249977E-03
-139.8000E-06,+88.3249977E-03
-139.3000E-06,+88.0749977E-03
-138.8000E-06,+87.6999977E-03
-138.3000E-06,+87.9499977E-03
-137.8000E-06,+88.3249977E-03
-137.3000E-06,+88.0749977E-03
-136.8000E-06,+87.9499977E-03
-136.3000E-06,+88.3249977E-03
-135.8000E-06,+88.3249977E-03
-135.3000E-06,+88.0749977E-03
-134.8000E-06,+87.6999977E-03
-134.3000E-06,+87.6999977E-03
-133.8000E-06,+87.4499977E-03
-133.3000E-06,+87.3249977E-03
-132.8000E-06,+87.6999977E-03
-132.3000E-06,+87.6999977E-03
-131.8000E-06,+87.4499977E-03
-131.3000E-06,+87.3249977E-03
-130.8000E-06,+87.1999977E-03
-130.3000E-06,+86.4499977E-03
-129.8000E-06,+86.4499977E-03
-129.3000E-06,+86.4499977E-03
-128.8000E-06,+86.4499977E-03
-128.3000E-06,+86.6999977E-03
-127.8000E-06,+87.0749977E-03
-127.3000E-06,+87.3249977E-03
-126.8000E-06,+87.4499977E-03
-126.3000E-06,+87.0749977E-03
-125.8000E-06,+86.8249977E-03
-125.3000E-06,+86.6999977E-03
-124.8000E-06,+86.3249977E-03
-124.3000E-06,+85.6999977E-03
-123.8000E-06,+85.9499977E-03
-123.3000E-06,+85.4499978E-03
-122.8000E-06,+85.5749978E-03
-122.3000E-06,+85.1999978E-03
-121.8000E-06,+85.1999978E-03
-121.3000E-06,+85.1999978E-03
-120.8000E-06,+84.9499978E-03
-120.3000E-06,+84.8249978E-03
-119.8000E-06,+84.9499978E-03
-119.3000E-06,+84.5749978E-03
-118.8000E-06,+84.3249978E-03
-118.3000E-06,+84.1999978E-03
-117.8000E-06,+84.5749978E-03
-117.3000E-06,+84.5749978E-03
-116.8000E-06,+84.3249978E-03
-116.3000E-06,+84.1999978E-03
-115.8000E-06,+84.3249978E-03
-115.3000E-06,+84.1999978E-03
-114.8000E-06,+84.3249978E-03
-114.3000E-06,+83.9499978E-03
-113.8000E-06,+83.6999978E-03
-113.3000E-06,+83.0749978E-03
-112.8000E-06,+82.6999978E-03
-112.3000E-06,+82.9499978E-03
-111.8000E-06,+83.0749978E-03
-111.3000E-06,+82.4499978E-03
-110.8000E-06,+82.3249978E-03
-110.3000E-06,+82.4499978E-03
-109.8000E-06,+81.8249978E-03
-109.3000E-06,+81.6999978E-03
-108.8000E-06,+81.8249978E-03
-108.3000E-06,+81.4499978E-03
-107.8000E-06,+81.4499978E-03
-107.3000E-06,+81.6999978E-03
-106.8000E-06,+81.8249978E-03
-106.3000E-06,+81.1999978E-03
-105.8000E-06,+80.8249979E-03
-105.3000E-06,+80.5749979E-03
-104.8000E-06,+80.1999979E-03
-104.3000E-06,+80.4499979E-03
-103.8000E-06,+80.5749979E-03
-103.3000E-06,+80.4499979E-03
-102.8000E-06,+80.5749979E-03
-102.3000E-06,+80.4499979E-03
-101.8000E-06,+80.5749979E-03
-101.3000E-06,+79.9499979E-03
-100.8000E-06,+79.3249979E-03
-100.3000E-06,+78.6999979E-03
-99.8000E-06,+78.3249979E-03
-99.3000E-06,+78.3249979E-03
-98.8000E-06,+78.5749979E-03
-98.3000E-06,+78.6999979E-03
-97.8000E-06,+78.0749979E-03
-97.3000E-06,+77.9499979E-03
-96.8000E-06,+78.0749979E-03
-96.3000E-06,+77.4499979E-03
-95.8000E-06,+77.0749979E-03
-95.3000E-06,+77.0749979E-03
-94.8000E-06,+76.8249979E-03
-94.3000E-06,+76.1999980E-03
-93.8000E-06,+76.0749980E-03
-93.3000E-06,+75.6999980E-03
-92.8000E-06,+74.8249980E-03
-92.3000E-06,+74.9499980E-03
-91.8000E-06,+74.5749980E-03
-91.3000E-06,+74.5749980E-03
-90.8000E-06,+74.0749980E-03
-90.3000E-06,+73.5749980E-03
-89.8000E-06,+73.6999980E-03
-89.3000E-06,+73.3249980E-03
-88.8000E-06,+73.3249980E-03
-88.3000E-06,+73.3249980E-03
-87.8000E-06,+73.3249980E-03
-87.3000E-06,+73.5749980E-03
-86.8000E-06,+73.6999980E-03
-86.3000E-06,+73.0749980E-03
-85.8000E-06,+72.6999980E-03
-85.3000E-06,+72.4499980E-03
-84.8000E-06,+72.0749981E-03
-84.3000E-06,+72.0749981E-03
-83.8000E-06,+72.0749981E-03
-83.3000E-06,+71.8249981E-03
-82.8000E-06,+71.1999981E-03
-82.3000E-06,+70.5749981E-03
-81.8000E-06,+70.1999981E-03
-81.3000E-06,+70.4499981E-03
-80.8000E-06,+70.0749981E-03
-80.3000E-06,+68.6999981E-03
-79.8000E-06,+68.5749981E-03
-79.3000E-06,+68.6999981E-03
-78.8000E-06,+68.3249981E-03
-78.3000E-06,+68.5749981E-03
-77.8000E-06,+68.9499981E-03
-77.3000E-06,+68.4499981E-03
-76.8000E-06,+67.4499982E-03
-76.3000E-06,+67.0749982E-03
-75.8000E-06,+67.0749982E-03
-75.3000E-06,+67.5749982E-03
-74.8000E-06,+67.8249981E-03
-74.3000E-06,+66.8249982E-03
-73.8000E-06,+66.6999982E-03
-73.3000E-06,+66.8249982E-03
-72.8000E-06,+66.1999982E-03
-72.3000E-06,+66.0749982E-03
-71.8000E-06,+65.9499982E-03
-71.3000E-06,+65.4499982E-03
-70.8000E-06,+65.5749982E-03
-70.3000E-06,+64.9499982E-03
-69.8000E-06,+64.5749982E-03
-69.3000E-06,+64.5749982E-03
-68.8000E-06,+64.3249982E-03
-68.3000E-06,+63.9499982E-03
-67.8000E-06,+63.4499982E-03
-67.3000E-06,+62.6999983E-03
-66.8000E-06,+61.9499983E-03
-66.3000E-06,+60.8249983E-03
-65.8000E-06,+60.5749983E-03
-65.3000E-06,+60.4499983E-03
-64.8000E-06,+61.0749983E-03
-64.3000E-06,+61.4499983E-03
-63.8000E-06,+61.4499983E-03
-63.3000E-06,+60.9499983E-03
-62.8000E-06,+59.9499983E-03
-62.3000E-06,+59.5749983E-03
-61.8000E-06,+58.5749984E-03
-61.3000E-06,+57.5749984E-03
-60.8000E-06,+57.5749984E-03
-60.3000E-06,+56.4499984E-03
-59.8000E-06,+56.4499984E-03
-59.3000E-06,+56.4499984E-03
-58.8000E-06,+56.1999984E-03
-58.3000E-06,+55.5749984E-03
-57.8000E-06,+55.4499984E-03
-57.3000E-06,+55.3249984E-03
-56.8000E-06,+54.3249985E-03
-56.3000E-06,+53.9499985E-03
-55.8000E-06,+53.6999985E-03
-55.3000E-06,+53.3249985E-03
-54.8000E-06,+53.3249985E-03
-54.3000E-06,+53.3249985E-03
-53.8000E-06,+53.3249985E-03
-53.3000E-06,+53.5749985E-03
-52.8000E-06,+53.9499985E-03
-52.3000E-06,+52.6999985E-03
-51.8000E-06,+50.3249985E-03
-51.3000E-06,+49.3249986E-03
-50.8000E-06,+48.6999986E-03
-50.3000E-06,+48.8249986E-03
-49.8000E-06,+49.5749986E-03
-49.3000E-06,+49.5749986E-03
-48.8000E-06,+49.3249986E-03
-48.3000E-06,+48.9499986E-03
-47.8000E-06,+48.6999986E-03
-47.3000E-06,+48.5749986E-03
-46.8000E-06,+48.1999986E-03
-46.3000E-06,+47.3249986E-03
-45.8000E-06,+47.4499986E-03
-45.3000E-06,+47.3249986E-03
-44.8000E-06,+47.4499986E-03
-44.3000E-06,+46.8249986E-03
-43.8000E-06,+46.4499986E-03
-43.3000E-06,+46.4499986E-03
-42.8000E-06,+46.6999986E-03
-42.3000E-06,+46.8249986E-03
-41.8000E-06,+46.1999986E-03
-41.3000E-06,+45.8249986E-03
-40.8000E-06,+46.0749986E-03
-40.3000E-06,+46.4499986E-03
-39.8000E-06,+46.6999986E-03
-39.3000E-06,+46.8249986E-03
-38.8000E-06,+45.9499986E-03
-38.3000E-06,+44.9499987E-03
-37.8000E-06,+43.0749987E-03
-37.3000E-06,+40.8249988E-03
-36.8000E-06,+41.0749987E-03
-36.3000E-06,+41.4499987E-03
-35.8000E-06,+40.4499988E-03
-35.3000E-06,+39.1999988E-03
-34.8000E-06,+39.8249988E-03
-34.3000E-06,+39.9499988E-03
-33.8000E-06,+39.3249988E-03
-33.3000E-06,+38.6999988E-03
-32.8000E-06,+37.3249988E-03
-32.3000E-06,+36.0749989E-03
-31.8000E-06,+35.9499989E-03
-31.3000E-06,+34.9499989E-03
-30.8000E-06,+34.3249989E-03
-30.3000E-06,+33.9499989E-03
-29.8000E-06,+33.9499989E-03
-29.3000E-06,+33.9499989E-03
-28.8000E-06,+33.4499989E-03
-28.3000E-06,+32.4499989E-03
-27.8000E-06,+32.0749989E-03
-27.3000E-06,+32.0749989E-03
-26.8000E-06,+32.3249989E-03
-26.3000E-06,+32.4499989E-03
-25.8000E-06,+32.0749989E-03
-25.3000E-06,+32.0749989E-03
-24.8000E-06,+31.5749990E-03
-24.3000E-06,+29.8249990E-03
-23.8000E-06,+27.5749990E-03
-23.3000E-06,+26.4499991E-03
-22.8000E-06,+26.1999991E-03
-22.3000E-06,+25.8249991E-03
-21.8000E-06,+25.5749991E-03
-21.3000E-06,+25.6999991E-03
-20.8000E-06,+26.1999991E-03
-20.3000E-06,+25.5749991E-03
-19.8000E-06,+24.6999991E-03
-19.3000E-06,+24.1999991E-03
-18.8000E-06,+24.5749991E-03
-18.3000E-06,+24.3249991E-03
-17.8000E-06,+23.1999991E-03
-17.3000E-06,+22.3249992E-03
-16.8000E-06,+19.9499992E-03
-16.3000E-06,+15.5749993E-03
-15.8000E-06,+14.4499993E-03
-15.3000E-06,+13.3249994E-03
-14.8000E-06,+13.3249994E-03
-14.3000E-06,+13.3249994E-03
-13.8000E-06,+13.0749994E-03
-13.3000E-06,+12.4499994E-03
-12.8000E-06,+11.8249994E-03
-12.3000E-06,+11.4499994E-03
-11.8000E-06,+11.1999994E-03
-11.3000E-06,+10.8249994E-03
-10.8000E-06,+10.5749994E-03
-10.3000E-06,+10.4499994E-03
-9.8000E-06,+10.5749994E-03
-9.3000E-06,+9.1999995E-03
-8.8000E-06,+7.4499995E-03
-8.3000E-06,+7.0749995E-03
-7.8000E-06,+6.8249995E-03
-7.3000E-06,+6.4499995E-03
-6.8000E-06,+6.1999995E-03
-6.3000E-06,+5.8249995E-03
-5.8000E-06,+6.0749995E-03
-5.3000E-06,+6.1999995E-03
-4.8000E-06,+6.0749995E-03
-4.3000E-06,+6.4499995E-03
-3.8000E-06,+6.6999995E-03
-3.3000E-06,+6.8249995E-03
-2.8000E-06,+6.4499995E-03
-2.3000E-06,+6.4499995E-03
-1.8000E-06,+7.1999995E-03
-1.3000E-06,+7.5749995E-03
-800.0E-09,+5.6999995E-03
-300.0E-09,+3.3249996E-03
+200.0E-09,+1.1999996E-03
+700.0E-09,+824.9996E-06
+1.2000E-06,+574.9997E-06
+1.7000E-06,+199.9997E-06
+2.2000E-06,+199.9997E-06
+2.7000E-06,+199.9997E-06
+3.2000E-06,+199.9997E-06
+3.7000E-06,+199.9997E-06
+4.2000E-06,+199.9997E-06
+4.7000E-06,+199.9997E-06
+5.2000E-06,+199.9997E-06
+5.7000E-06,+199.9997E-06
+6.2000E-06,+449.9997E-06
+6.7000E-06,+824.9996E-06
+7.2000E-06,+574.9997E-06
+7.7000E-06,+199.9997E-06
+8.2000E-06,+199.9997E-06
+8.7000E-06,-300.0003E-06
+9.2000E-06,-1.0500003E-03
+9.7000E-06,-800.0003E-06
+10.2000E-06,-175.0003E-06
+10.7000E-06,-50.0003E-06
+11.2000E-06,-175.0003E-06
+11.7000E-06,-50.0003E-06
+12.2000E-06,-425.0003E-06
+12.7000E-06,-675.0003E-06
+13.2000E-06,-800.0003E-06
+13.7000E-06,-175.0003E-06
+14.2000E-06,-300.0003E-06
+14.7000E-06,-800.0003E-06
+15.2000E-06,-175.0003E-06
+15.7000E-06,+199.9997E-06
+16.2000E-06,+199.9997E-06
+16.7000E-06,-50.0003E-06
+17.2000E-06,-675.0003E-06
+17.7000E-06,-1.0500003E-03
+18.2000E-06,-800.0003E-06
+18.7000E-06,-425.0003E-06
+19.2000E-06,-425.0003E-06
+19.7000E-06,-175.0003E-06
+20.2000E-06,-50.0003E-06
+20.7000E-06,-175.0003E-06
+21.2000E-06,+199.9997E-06
+21.7000E-06,-50.0003E-06
+22.2000E-06,-175.0003E-06
+22.7000E-06,-50.0003E-06
+23.2000E-06,-425.0003E-06
+23.7000E-06,-425.0003E-06
+24.2000E-06,-675.0003E-06
+24.7000E-06,-800.0003E-06
+25.2000E-06,-425.0003E-06
+25.7000E-06,-425.0003E-06
+26.2000E-06,-675.0003E-06
+26.7000E-06,-1.0500003E-03
+27.2000E-06,-800.0003E-06
+27.7000E-06,-425.0003E-06
+28.2000E-06,-175.0003E-06
+28.7000E-06,-50.0003E-06
+29.2000E-06,-175.0003E-06
+29.7000E-06,-50.0003E-06
+30.2000E-06,-425.0003E-06
+30.7000E-06,-175.0003E-06
+31.2000E-06,-50.0003E-06
+31.7000E-06,-425.0003E-06
+32.2000E-06,-175.0003E-06
+32.7000E-06,-50.0003E-06
+33.2000E-06,-175.0003E-06
+33.7000E-06,+199.9997E-06
+34.2000E-06,+199.9997E-06
+34.7000E-06,+199.9997E-06
+35.2000E-06,+1.4499996E-03
+35.7000E-06,+2.0749996E-03
+36.2000E-06,-550.0003E-06
+36.7000E-06,-1.1750003E-03
+37.2000E-06,+74.9997E-06
+37.7000E-06,+574.9997E-06
+38.2000E-06,-50.0003E-06
+38.7000E-06,-175.0003E-06
+39.2000E-06,+449.9997E-06
+39.7000E-06,+574.9997E-06
+40.2000E-06,-50.0003E-06
+40.7000E-06,-175.0003E-06
+41.2000E-06,+199.9997E-06
+41.7000E-06,-50.0003E-06
+42.2000E-06,-425.0003E-06
+42.7000E-06,-425.0003E-06
+43.2000E-06,-175.0003E-06
+43.7000E-06,-50.0003E-06
+44.2000E-06,-175.0003E-06
+44.7000E-06,+199.9997E-06
+45.2000E-06,+199.9997E-06
+45.7000E-06,-50.0003E-06
+46.2000E-06,-675.0003E-06
+46.7000E-06,-1.0500003E-03
+47.2000E-06,-800.0003E-06
+47.7000E-06,-425.0003E-06
+48.2000E-06,-425.0003E-06
+48.7000E-06,-425.0003E-06
+49.2000E-06,-425.0003E-06
+49.7000E-06,-425.0003E-06
+50.2000E-06,-175.0003E-06
+50.7000E-06,-50.0003E-06
+51.2000E-06,-425.0003E-06
+51.7000E-06,-425.0003E-06
+52.2000E-06,-425.0003E-06
+52.7000E-06,-175.0003E-06
+53.2000E-06,+199.9997E-06
+53.7000E-06,-50.0003E-06
+54.2000E-06,-425.0003E-06
+54.7000E-06,-175.0003E-06
+55.2000E-06,-50.0003E-06
+55.7000E-06,-675.0003E-06
+56.2000E-06,-1.0500003E-03
+56.7000E-06,-1.3000003E-03
+57.2000E-06,-1.1750003E-03
+57.7000E-06,-425.0003E-06
+58.2000E-06,-175.0003E-06
+58.7000E-06,+199.9997E-06
+59.2000E-06,+199.9997E-06
+59.7000E-06,+199.9997E-06
+60.2000E-06,-300.0003E-06
+60.7000E-06,-1.0500003E-03
+61.2000E-06,-800.0003E-06
+61.7000E-06,-675.0003E-06
+62.2000E-06,-1.0500003E-03
+62.7000E-06,-1.0500003E-03
+63.2000E-06,-800.0003E-06
+63.7000E-06,-425.0003E-06
+64.2000E-06,-175.0003E-06
+64.7000E-06,-50.0003E-06
+65.2000E-06,-425.0003E-06
+65.7000E-06,-175.0003E-06
+66.2000E-06,-50.0003E-06
+66.7000E-06,-675.0003E-06
+67.2000E-06,-800.0003E-06
+67.7000E-06,-675.0003E-06
+68.2000E-06,-550.0003E-06
+68.7000E-06,-50.0003E-06
+69.2000E-06,-175.0003E-06
+69.7000E-06,+199.9997E-06
+70.2000E-06,+199.9997E-06
+70.7000E-06,-50.0003E-06
+71.2000E-06,-425.0003E-06
+71.7000E-06,-175.0003E-06
+72.2000E-06,+1.1999996E-03
+72.7000E-06,+1.1999996E-03
+73.2000E-06,-1.3000003E-03
+73.7000E-06,-675.0003E-06
+74.2000E-06,+1.0749996E-03
+74.7000E-06,+949.9996E-06
+75.2000E-06,-300.0003E-06
+75.7000E-06,-550.0003E-06
+76.2000E-06,+199.9997E-06
+76.7000E-06,-50.0003E-06
+77.2000E-06,-425.0003E-06
+77.7000E-06,+74.9997E-06
+78.2000E-06,+574.9997E-06
+78.7000E-06,-50.0003E-06
+79.2000E-06,-175.0003E-06
+79.7000E-06,-50.0003E-06
+80.2000E-06,-175.0003E-06
+80.7000E-06,-50.0003E-06
+81.2000E-06,-175.0003E-06
+81.7000E-06,-50.0003E-06
+82.2000E-06,-175.0003E-06
+82.7000E-06,-50.0003E-06
+83.2000E-06,-675.0003E-06
+83.7000E-06,-800.0003E-06
+84.2000E-06,-425.0003E-06
+84.7000E-06,-425.0003E-06
+85.2000E-06,-175.0003E-06
+85.7000E-06,-50.0003E-06
+86.2000E-06,-675.0003E-06
+86.7000E-06,-800.0003E-06
+87.2000E-06,-675.0003E-06
+87.7000E-06,-800.0003E-06
+88.2000E-06,-425.0003E-06
+88.7000E-06,-425.0003E-06
+89.2000E-06,-175.0003E-06
+89.7000E-06,-50.0003E-06
+90.2000E-06,-425.0003E-06
+90.7000E-06,-425.0003E-06
+91.2000E-06,-675.0003E-06
+91.7000E-06,-1.0500003E-03
+92.2000E-06,-800.0003E-06
+92.7000E-06,-425.0003E-06
+93.2000E-06,-425.0003E-06
+93.7000E-06,-425.0003E-06
+94.2000E-06,-425.0003E-06
+94.7000E-06,-425.0003E-06
+95.2000E-06,-175.0003E-06
+95.7000E-06,-50.0003E-06
+96.2000E-06,-675.0003E-06
+96.7000E-06,-800.0003E-06
+97.2000E-06,-425.0003E-06
+97.7000E-06,-425.0003E-06
+98.2000E-06,-425.0003E-06
+98.7000E-06,-425.0003E-06
+99.2000E-06,-425.0003E-06
+99.7000E-06,-925.0003E-06
+100.2000E-06,-1.4250003E-03
+100.7000E-06,-1.0500003E-03
+101.2000E-06,-1.0500003E-03
+101.7000E-06,-550.0003E-06
+102.2000E-06,+449.9997E-06
+102.7000E-06,+574.9997E-06
+103.2000E-06,+199.9997E-06
+103.7000E-06,+199.9997E-06
+104.2000E-06,-50.0003E-06
+104.7000E-06,-675.0003E-06
+105.2000E-06,-550.0003E-06
+105.7000E-06,+199.9997E-06
+106.2000E-06,-50.0003E-06
+106.7000E-06,-425.0003E-06
+107.2000E-06,-175.0003E-06
+107.7000E-06,+199.9997E-06
+108.2000E-06,+199.9997E-06
+108.7000E-06,+699.9996E-06
+109.2000E-06,+1.6999996E-03
+109.7000E-06,+824.9996E-06
+110.2000E-06,-1.3000003E-03
+110.7000E-06,-675.0003E-06
+111.2000E-06,+1.0749996E-03
+111.7000E-06,+699.9996E-06
+112.2000E-06,-675.0003E-06
+112.7000E-06,-300.0003E-06
+113.2000E-06,+574.9997E-06
+113.7000E-06,+199.9997E-06
+114.2000E-06,-50.0003E-06
+114.7000E-06,-175.0003E-06
+115.2000E-06,-50.0003E-06
+115.7000E-06,-425.0003E-06
+116.2000E-06,-425.0003E-06
+116.7000E-06,-175.0003E-06
+117.2000E-06,+199.9997E-06
+117.7000E-06,+199.9997E-06
+118.2000E-06,+199.9997E-06
+118.7000E-06,+199.9997E-06
+119.2000E-06,-300.0003E-06
+119.7000E-06,-1.0500003E-03
+120.2000E-06,-1.0500003E-03
+120.7000E-06,-800.0003E-06
+121.2000E-06,-425.0003E-06
+121.7000E-06,-425.0003E-06
+122.2000E-06,-175.0003E-06
+122.7000E-06,-50.0003E-06
+123.2000E-06,-175.0003E-06
+123.7000E-06,+199.9997E-06
+124.2000E-06,-50.0003E-06
+124.7000E-06,-675.0003E-06
+125.2000E-06,-1.0500003E-03
+125.7000E-06,-800.0003E-06
+126.2000E-06,-425.0003E-06
+126.7000E-06,-425.0003E-06
+127.2000E-06,-425.0003E-06
+127.7000E-06,-175.0003E-06
+128.2000E-06,-50.0003E-06
+128.7000E-06,-425.0003E-06
+129.2000E-06,-425.0003E-06
+129.7000E-06,-425.0003E-06
+130.2000E-06,-675.0003E-06
+130.7000E-06,-1.0500003E-03
+131.2000E-06,-1.0500003E-03
+131.7000E-06,-800.0003E-06
+132.2000E-06,-175.0003E-06
+132.7000E-06,+199.9997E-06
+133.2000E-06,-50.0003E-06
+133.7000E-06,-175.0003E-06
+134.2000E-06,-50.0003E-06
+134.7000E-06,-675.0003E-06
+135.2000E-06,-1.0500003E-03
+135.7000E-06,-800.0003E-06
+136.2000E-06,-175.0003E-06
+136.7000E-06,-50.0003E-06
+137.2000E-06,-425.0003E-06
+137.7000E-06,-425.0003E-06
+138.2000E-06,-175.0003E-06
+138.7000E-06,-50.0003E-06
+139.2000E-06,-175.0003E-06
+139.7000E-06,-50.0003E-06
+140.2000E-06,-675.0003E-06
+140.7000E-06,-800.0003E-06
+141.2000E-06,-425.0003E-06
+141.7000E-06,-425.0003E-06
+142.2000E-06,-425.0003E-06
+142.7000E-06,-425.0003E-06
+143.2000E-06,-175.0003E-06
+143.7000E-06,+199.9997E-06
+144.2000E-06,-50.0003E-06
+144.7000E-06,-675.0003E-06
+145.2000E-06,-800.0003E-06
+145.7000E-06,+574.9997E-06
+146.2000E-06,+1.8249996E-03
+146.7000E-06,+199.9997E-06
+147.2000E-06,-1.1750003E-03
+147.7000E-06,+324.9997E-06
+148.2000E-06,+1.1999996E-03
+148.7000E-06,+74.9997E-06
+149.2000E-06,-1.0500003E-03
+149.7000E-06,-550.0003E-06
+150.2000E-06,+199.9997E-06
+150.7000E-06,-300.0003E-06
+151.2000E-06,-550.0003E-06
+151.7000E-06,+199.9997E-06
+152.2000E-06,+199.9997E-06
+152.7000E-06,+199.9997E-06
+153.2000E-06,-50.0003E-06
+153.7000E-06,-175.0003E-06
+154.2000E-06,+199.9997E-06
+154.7000E-06,-50.0003E-06
+155.2000E-06,-175.0003E-06
+155.7000E-06,-50.0003E-06
+156.2000E-06,-175.0003E-06
+156.7000E-06,+199.9997E-06
+157.2000E-06,-50.0003E-06
+157.7000E-06,-175.0003E-06
+158.2000E-06,-50.0003E-06
+158.7000E-06,-425.0003E-06
+159.2000E-06,-675.0003E-06
+159.7000E-06,-800.0003E-06
+160.2000E-06,-675.0003E-06
+160.7000E-06,-800.0003E-06
+161.2000E-06,-175.0003E-06
+161.7000E-06,-50.0003E-06
+162.2000E-06,-425.0003E-06
+162.7000E-06,-175.0003E-06
+163.2000E-06,-50.0003E-06
+163.7000E-06,-675.0003E-06
+164.2000E-06,-1.0500003E-03
+164.7000E-06,-1.0500003E-03
+165.2000E-06,-1.0500003E-03
+165.7000E-06,-800.0003E-06
+166.2000E-06,-675.0003E-06
+166.7000E-06,-800.0003E-06
+167.2000E-06,-425.0003E-06
+167.7000E-06,-675.0003E-06
+168.2000E-06,-1.0500003E-03
+168.7000E-06,-1.0500003E-03
+169.2000E-06,-800.0003E-06
+169.7000E-06,-675.0003E-06
+170.2000E-06,-800.0003E-06
+170.7000E-06,-175.0003E-06
+171.2000E-06,-50.0003E-06
+171.7000E-06,-175.0003E-06
+172.2000E-06,+199.9997E-06
+172.7000E-06,+199.9997E-06
+173.2000E-06,-300.0003E-06
+173.7000E-06,-800.0003E-06
+174.2000E-06,-675.0003E-06
+174.7000E-06,-800.0003E-06
+175.2000E-06,-175.0003E-06
+175.7000E-06,+199.9997E-06
+176.2000E-06,+199.9997E-06
+176.7000E-06,-50.0003E-06
+177.2000E-06,-175.0003E-06
+177.7000E-06,-50.0003E-06
+178.2000E-06,-425.0003E-06
+178.7000E-06,-425.0003E-06
+179.2000E-06,-675.0003E-06
+179.7000E-06,-800.0003E-06
+180.2000E-06,-425.0003E-06
+180.7000E-06,-175.0003E-06
+181.2000E-06,+199.9997E-06
+181.7000E-06,+199.9997E-06
+182.2000E-06,+199.9997E-06
+182.7000E-06,+1.4499996E-03
+183.2000E-06,+1.5749996E-03
+183.7000E-06,-1.5500003E-03
+184.2000E-06,-1.3000003E-03
+184.7000E-06,+699.9996E-06
+185.2000E-06,+949.9996E-06
+185.7000E-06,-50.0003E-06
+186.2000E-06,+74.9997E-06
+186.7000E-06,+574.9997E-06
+187.2000E-06,-50.0003E-06
+187.7000E-06,-425.0003E-06
+188.2000E-06,-175.0003E-06
+188.7000E-06,+199.9997E-06
+189.2000E-06,-50.0003E-06
+189.7000E-06,-425.0003E-06
+190.2000E-06,-175.0003E-06
+190.7000E-06,+449.9997E-06
+191.2000E-06,+574.9997E-06
+191.7000E-06,+199.9997E-06
+192.2000E-06,-50.0003E-06
+192.7000E-06,-425.0003E-06
+193.2000E-06,-425.0003E-06
+193.7000E-06,-675.0003E-06
+194.2000E-06,-800.0003E-06
+194.7000E-06,-425.0003E-06
+195.2000E-06,-175.0003E-06
+195.7000E-06,-50.0003E-06
+196.2000E-06,-425.0003E-06
+196.7000E-06,-425.0003E-06
+197.2000E-06,-425.0003E-06
+197.7000E-06,-675.0003E-06
+198.2000E-06,-1.0500003E-03
+198.7000E-06,-1.0500003E-03
+199.2000E-06,-800.0003E-06
+199.7000E-06,-425.0003E-06
+200.2000E-06,-175.0003E-06
+200.7000E-06,-50.0003E-06
+201.2000E-06,-675.0003E-06
+201.7000E-06,-800.0003E-06
+202.2000E-06,-425.0003E-06
+202.7000E-06,-675.0003E-06
+203.2000E-06,-1.0500003E-03
+203.7000E-06,-1.0500003E-03
+204.2000E-06,-800.0003E-06
+204.7000E-06,-425.0003E-06
+205.2000E-06,-425.0003E-06
+205.7000E-06,-425.0003E-06
+206.2000E-06,-175.0003E-06
+206.7000E-06,+199.9997E-06
+207.2000E-06,-50.0003E-06
+207.7000E-06,-675.0003E-06
+208.2000E-06,-800.0003E-06
+208.7000E-06,-675.0003E-06
+209.2000E-06,-1.0500003E-03
+209.7000E-06,-800.0003E-06
+210.2000E-06,-675.0003E-06
+210.7000E-06,-800.0003E-06
+211.2000E-06,-425.0003E-06
+211.7000E-06,-175.0003E-06
+212.2000E-06,-50.0003E-06
+212.7000E-06,-175.0003E-06
+213.2000E-06,-50.0003E-06
+213.7000E-06,-675.0003E-06
+214.2000E-06,-800.0003E-06
+214.7000E-06,-425.0003E-06
+215.2000E-06,-175.0003E-06
+215.7000E-06,-300.0003E-06
+216.2000E-06,-800.0003E-06
+216.7000E-06,-425.0003E-06
+217.2000E-06,-675.0003E-06
+217.7000E-06,-800.0003E-06
+218.2000E-06,-175.0003E-06
+218.7000E-06,-50.0003E-06
+219.2000E-06,+324.9997E-06
+219.7000E-06,+1.6999996E-03
+220.2000E-06,+824.9996E-06
+220.7000E-06,-1.0500003E-03
+221.2000E-06,-50.0003E-06
+221.7000E-06,+1.1999996E-03
+222.2000E-06,+324.9997E-06
+222.7000E-06,-925.0003E-06
