x-axis,1
second,Volt
-58.7800E-06,+95.1999975E-03
-58.6800E-06,+95.1999975E-03
-58.5800E-06,+95.1999975E-03
-58.4800E-06,+94.9499975E-03
-58.3800E-06,+94.1999976E-03
-58.2800E-06,+95.0749975E-03
-58.1800E-06,+94.5749976E-03
-58.0800E-06,+94.6999975E-03
-57.9800E-06,+95.1999975E-03
-57.8800E-06,+95.1999975E-03
-57.7800E-06,+95.0749975E-03
-57.6800E-06,+94.6999975E-03
-57.5800E-06,+95.4499975E-03
-57.4800E-06,+96.1999975E-03
-57.3800E-06,+95.0749975E-03
-57.2800E-06,+94.5749976E-03
-57.1800E-06,+94.6999975E-03
-57.0800E-06,+95.0749975E-03
-56.9800E-06,+94.4499976E-03
-56.8800E-06,+94.0749976E-03
-56.7800E-06,+94.5749976E-03
-56.6800E-06,+94.5749976E-03
-56.5800E-06,+94.5749976E-03
-56.4800E-06,+94.6999975E-03
-56.3800E-06,+95.0749975E-03
-56.2800E-06,+94.5749976E-03
-56.1800E-06,+94.5749976E-03
-56.0800E-06,+94.6999975E-03
-55.9800E-06,+95.0749975E-03
-55.8800E-06,+94.5749976E-03
-55.7800E-06,+94.5749976E-03
-55.6800E-06,+94.5749976E-03
-55.5800E-06,+94.6999975E-03
-55.4800E-06,+95.0749975E-03
-55.3800E-06,+94.4499976E-03
-55.2800E-06,+94.0749976E-03
-55.1800E-06,+94.5749976E-03
-55.0800E-06,+94.5749976E-03
-54.9800E-06,+94.4499976E-03
-54.8800E-06,+94.1999976E-03
-54.7800E-06,+95.0749975E-03
-54.6800E-06,+94.5749976E-03
-54.5800E-06,+94.5749976E-03
-54.4800E-06,+94.4499976E-03
-54.3800E-06,+94.0749976E-03
-54.2800E-06,+94.4499976E-03
-54.1800E-06,+94.0749976E-03
-54.0800E-06,+94.4499976E-03
-53.9800E-06,+93.9499976E-03
-53.8800E-06,+93.8249976E-03
-53.7800E-06,+93.5749976E-03
-53.6800E-06,+94.4499976E-03
-53.5800E-06,+94.0749976E-03
-53.4800E-06,+94.3249976E-03
-53.3800E-06,+93.4499976E-03
-53.2800E-06,+93.9499976E-03
-53.1800E-06,+93.9499976E-03
-53.0800E-06,+93.8249976E-03
-52.9800E-06,+93.4499976E-03
-52.8800E-06,+93.9499976E-03
-52.7800E-06,+93.8249976E-03
-52.6800E-06,+93.4499976E-03
-52.5800E-06,+94.0749976E-03
-52.4800E-06,+94.4499976E-03
-52.3800E-06,+93.4499976E-03
-52.2800E-06,+91.9499976E-03
-52.1800E-06,+93.6999976E-03
-52.0800E-06,+92.8249976E-03
-51.9800E-06,+93.3249976E-03
-51.8800E-06,+93.3249976E-03
-51.7800E-06,+93.4499976E-03
-51.6800E-06,+93.6999976E-03
-51.5800E-06,+92.9499976E-03
-51.4800E-06,+93.9499976E-03
-51.3800E-06,+93.9499976E-03
-51.2800E-06,+94.0749976E-03
-51.1800E-06,+94.4499976E-03
-51.0800E-06,+93.8249976E-03
-50.9800E-06,+93.4499976E-03
-50.8800E-06,+93.8249976E-03
-50.7800E-06,+93.5749976E-03
-50.6800E-06,+94.3249976E-03
-50.5800E-06,+93.5749976E-03
-50.4800E-06,+94.4499976E-03
-50.3800E-06,+93.9499976E-03
-50.2800E-06,+93.9499976E-03
-50.1800E-06,+93.8249976E-03
-50.0800E-06,+93.3249976E-03
-49.9800E-06,+93.1999976E-03
-49.8800E-06,+92.9499976E-03
-49.7800E-06,+93.8249976E-03
-49.6800E-06,+93.3249976E-03
-49.5800E-06,+93.1999976E-03
-49.4800E-06,+92.8249976E-03
-49.3800E-06,+93.3249976E-03
-49.2800E-06,+93.1999976E-03
-49.1800E-06,+92.8249976E-03
-49.0800E-06,+93.3249976E-03
-48.9800E-06,+93.3249976E-03
-48.8800E-06,+93.3249976E-03
-48.7800E-06,+93.3249976E-03
-48.6800E-06,+93.3249976E-03
-48.5800E-06,+93.3249976E-03
-48.4800E-06,+93.3249976E-03
-48.3800E-06,+93.1999976E-03
-48.2800E-06,+92.8249976E-03
-48.1800E-06,+93.1999976E-03
-48.0800E-06,+92.6999976E-03
-47.9800E-06,+92.8249976E-03
-47.8800E-06,+93.3249976E-03
-47.7800E-06,+92.9499976E-03
-47.6800E-06,+91.8249976E-03
-47.5800E-06,+93.1999976E-03
-47.4800E-06,+92.6999976E-03
-47.3800E-06,+92.6999976E-03
-47.2800E-06,+92.6999976E-03
-47.1800E-06,+92.6999976E-03
-47.0800E-06,+92.8249976E-03
-46.9800E-06,+92.9499976E-03
-46.8800E-06,+91.5749976E-03
-46.7800E-06,+92.0749976E-03
-46.6800E-06,+92.1999976E-03
-46.5800E-06,+92.6999976E-03
-46.4800E-06,+92.6999976E-03
-46.3800E-06,+92.6999976E-03
-46.2800E-06,+92.8249976E-03
-46.1800E-06,+93.1999976E-03
-46.0800E-06,+92.6999976E-03
-45.9800E-06,+92.6999976E-03
-45.8800E-06,+92.6999976E-03
-45.7800E-06,+92.5749976E-03
-45.6800E-06,+92.1999976E-03
-45.5800E-06,+92.5749976E-03
-45.4800E-06,+92.1999976E-03
-45.3800E-06,+92.5749976E-03
-45.2800E-06,+92.1999976E-03
-45.1800E-06,+92.6999976E-03
-45.0800E-06,+92.6999976E-03
-44.9800E-06,+92.4499976E-03
-44.8800E-06,+91.6999976E-03
-44.7800E-06,+92.6999976E-03
-44.6800E-06,+92.6999976E-03
-44.5800E-06,+92.5749976E-03
-44.4800E-06,+92.0749976E-03
-44.3800E-06,+92.1999976E-03
-44.2800E-06,+92.5749976E-03
-44.1800E-06,+91.9499976E-03
-44.0800E-06,+91.4499976E-03
-43.9800E-06,+91.4499976E-03
-43.8800E-06,+91.5749976E-03
-43.7800E-06,+91.9499976E-03
-43.6800E-06,+91.4499976E-03
-43.5800E-06,+91.3249976E-03
-43.4800E-06,+90.8249976E-03
-43.3800E-06,+90.9499976E-03
-43.2800E-06,+91.4499976E-03
-43.1800E-06,+91.1999976E-03
-43.0800E-06,+90.3249976E-03
-42.9800E-06,+90.6999976E-03
-42.8800E-06,+90.3249976E-03
-42.7800E-06,+90.6999976E-03
-42.6800E-06,+90.3249976E-03
-42.5800E-06,+90.8249976E-03
-42.4800E-06,+90.8249976E-03
-42.3800E-06,+90.6999976E-03
-42.2800E-06,+90.3249976E-03
-42.1800E-06,+90.6999976E-03
-42.0800E-06,+90.3249976E-03
-41.9800E-06,+90.5749976E-03
-41.8800E-06,+89.6999977E-03
-41.7800E-06,+90.1999976E-03
-41.6800E-06,+90.1999976E-03
-41.5800E-06,+90.3249976E-03
-41.4800E-06,+90.8249976E-03
-41.3800E-06,+90.6999976E-03
-41.2800E-06,+90.3249976E-03
-41.1800E-06,+90.6999976E-03
-41.0800E-06,+90.4499976E-03
-40.9800E-06,+91.1999976E-03
-40.8800E-06,+90.1999976E-03
-40.7800E-06,+90.0749977E-03
-40.6800E-06,+89.6999977E-03
-40.5800E-06,+90.0749977E-03
-40.4800E-06,+89.6999977E-03
-40.3800E-06,+89.9499977E-03
-40.2800E-06,+88.9499977E-03
-40.1800E-06,+89.0749977E-03
-40.0800E-06,+89.3249977E-03
-39.9800E-06,+88.5749977E-03
-39.8800E-06,+89.4499977E-03
-39.7800E-06,+89.0749977E-03
-39.6800E-06,+89.4499977E-03
-39.5800E-06,+88.8249977E-03
-39.4800E-06,+88.4499977E-03
-39.3800E-06,+89.0749977E-03
-39.2800E-06,+89.4499977E-03
-39.1800E-06,+88.8249977E-03
-39.0800E-06,+88.1999977E-03
-38.9800E-06,+87.8249977E-03
-38.8800E-06,+88.3249977E-03
-38.7800E-06,+88.3249977E-03
-38.6800E-06,+88.3249977E-03
-38.5800E-06,+88.1999977E-03
-38.4800E-06,+87.6999977E-03
-38.3800E-06,+87.6999977E-03
-38.2800E-06,+87.6999977E-03
-38.1800E-06,+87.5749977E-03
-38.0800E-06,+87.0749977E-03
-37.9800E-06,+86.8249977E-03
-37.8800E-06,+85.9499977E-03
-37.7800E-06,+86.3249977E-03
-37.6800E-06,+85.8249977E-03
-37.5800E-06,+85.8249977E-03
-37.4800E-06,+85.6999977E-03
-37.3800E-06,+85.3249978E-03
-37.2800E-06,+85.6999977E-03
-37.1800E-06,+85.1999978E-03
-37.0800E-06,+85.1999978E-03
-36.9800E-06,+84.9499978E-03
-36.8800E-06,+84.1999978E-03
-36.7800E-06,+84.8249978E-03
-36.6800E-06,+83.5749978E-03
-36.5800E-06,+84.5749978E-03
-36.4800E-06,+84.5749978E-03
-36.3800E-06,+84.4499978E-03
-36.2800E-06,+84.0749978E-03
-36.1800E-06,+84.3249978E-03
-36.0800E-06,+83.4499978E-03
-35.9800E-06,+83.9499978E-03
-35.8800E-06,+83.9499978E-03
-35.7800E-06,+83.8249978E-03
-35.6800E-06,+83.3249978E-03
-35.5800E-06,+83.4499978E-03
-35.4800E-06,+83.9499978E-03
-35.3800E-06,+83.9499978E-03
-35.2800E-06,+83.9499978E-03
-35.1800E-06,+83.8249978E-03
-35.0800E-06,+83.3249978E-03
-34.9800E-06,+83.4499978E-03
-34.8800E-06,+83.8249978E-03
-34.7800E-06,+83.3249978E-03
-34.6800E-06,+83.1999978E-03
-34.5800E-06,+82.6999978E-03
-34.4800E-06,+82.5749978E-03
-34.3800E-06,+81.8249978E-03
-34.2800E-06,+81.0749979E-03
-34.1800E-06,+81.9499978E-03
-34.0800E-06,+81.3249978E-03
-33.9800E-06,+80.8249979E-03
-33.8800E-06,+80.8249979E-03
-33.7800E-06,+80.8249979E-03
-33.6800E-06,+80.8249979E-03
-33.5800E-06,+80.6999979E-03
-33.4800E-06,+80.1999979E-03
-33.3800E-06,+80.1999979E-03
-33.2800E-06,+80.0749979E-03
-33.1800E-06,+79.5749979E-03
-33.0800E-06,+79.5749979E-03
-32.9800E-06,+79.5749979E-03
-32.8800E-06,+79.4499979E-03
-32.7800E-06,+78.8249979E-03
-32.6800E-06,+78.4499979E-03
-32.5800E-06,+78.8249979E-03
-32.4800E-06,+78.4499979E-03
-32.3800E-06,+78.9499979E-03
-32.2800E-06,+79.0749979E-03
-32.1800E-06,+79.4499979E-03
-32.0800E-06,+78.9499979E-03
-31.9800E-06,+78.9499979E-03
-31.8800E-06,+78.9499979E-03
-31.7800E-06,+78.6999979E-03
-31.6800E-06,+77.5749979E-03
-31.5800E-06,+76.8249979E-03
-31.4800E-06,+75.9499980E-03
-31.3800E-06,+76.3249980E-03
-31.2800E-06,+75.8249980E-03
-31.1800E-06,+75.8249980E-03
-31.0800E-06,+75.9499980E-03
-30.9800E-06,+76.3249980E-03
-30.8800E-06,+75.8249980E-03
-30.7800E-06,+75.8249980E-03
-30.6800E-06,+75.8249980E-03
-30.5800E-06,+75.8249980E-03
-30.4800E-06,+75.8249980E-03
-30.3800E-06,+75.5749980E-03
-30.2800E-06,+74.6999980E-03
-30.1800E-06,+75.0749980E-03
-30.0800E-06,+74.6999980E-03
-29.9800E-06,+75.0749980E-03
-29.8800E-06,+74.6999980E-03
-29.7800E-06,+74.9499980E-03
-29.6800E-06,+73.9499980E-03
-29.5800E-06,+73.9499980E-03
-29.4800E-06,+73.9499980E-03
-29.3800E-06,+73.8249980E-03
-29.2800E-06,+73.4499980E-03
-29.1800E-06,+73.6999980E-03
-29.0800E-06,+72.5749980E-03
-28.9800E-06,+72.0749981E-03
-28.8800E-06,+72.0749981E-03
-28.7800E-06,+72.0749981E-03
-28.6800E-06,+72.0749981E-03
-28.5800E-06,+71.9499981E-03
-28.4800E-06,+71.4499981E-03
-28.3800E-06,+71.4499981E-03
-28.2800E-06,+71.3249981E-03
-28.1800E-06,+70.5749981E-03
-28.0800E-06,+69.5749981E-03
-27.9800E-06,+69.5749981E-03
-27.8800E-06,+69.4499981E-03
-27.7800E-06,+69.0749981E-03
-27.6800E-06,+69.4499981E-03
-27.5800E-06,+68.9499981E-03
-27.4800E-06,+68.8249981E-03
-27.3800E-06,+68.4499981E-03
-27.2800E-06,+68.9499981E-03
-27.1800E-06,+68.9499981E-03
-27.0800E-06,+68.9499981E-03
-26.9800E-06,+68.8249981E-03
-26.8800E-06,+68.0749981E-03
-26.7800E-06,+67.1999982E-03
-26.6800E-06,+67.4499982E-03
-26.5800E-06,+66.4499982E-03
-26.4800E-06,+66.1999982E-03
-26.3800E-06,+65.0749982E-03
-26.2800E-06,+64.5749982E-03
-26.1800E-06,+64.4499982E-03
-26.0800E-06,+64.0749982E-03
-25.9800E-06,+64.5749982E-03
-25.8800E-06,+64.5749982E-03
-25.7800E-06,+64.5749982E-03
-25.6800E-06,+64.5749982E-03
-25.5800E-06,+64.6999982E-03
-25.4800E-06,+65.0749982E-03
-25.3800E-06,+64.4499982E-03
-25.2800E-06,+64.0749982E-03
-25.1800E-06,+64.4499982E-03
-25.0800E-06,+63.8249982E-03
-24.9800E-06,+63.3249982E-03
-24.8800E-06,+63.0749983E-03
-24.7800E-06,+61.9499983E-03
-24.6800E-06,+61.4499983E-03
-24.5800E-06,+61.5749983E-03
-24.4800E-06,+61.8249983E-03
-24.3800E-06,+61.0749983E-03
-24.2800E-06,+61.9499983E-03
-24.1800E-06,+61.3249983E-03
-24.0800E-06,+60.6999983E-03
-23.9800E-06,+59.9499983E-03
-23.8800E-06,+58.8249983E-03
-23.7800E-06,+58.1999984E-03
-23.6800E-06,+57.4499984E-03
-23.5800E-06,+56.3249984E-03
-23.4800E-06,+55.9499984E-03
-23.3800E-06,+56.1999984E-03
-23.2800E-06,+55.1999984E-03
-23.1800E-06,+55.1999984E-03
-23.0800E-06,+55.0749984E-03
-22.9800E-06,+54.5749984E-03
-22.8800E-06,+54.5749984E-03
-22.7800E-06,+54.4499984E-03
-22.6800E-06,+53.6999985E-03
-22.5800E-06,+52.6999985E-03
-22.4800E-06,+52.6999985E-03
-22.3800E-06,+52.4499985E-03
-22.2800E-06,+51.5749985E-03
-22.1800E-06,+51.9499985E-03
-22.0800E-06,+51.6999985E-03
-21.9800E-06,+52.5749985E-03
-21.8800E-06,+52.1999985E-03
-21.7800E-06,+52.5749985E-03
-21.6800E-06,+52.0749985E-03
-21.5800E-06,+52.0749985E-03
-21.4800E-06,+51.9499985E-03
-21.3800E-06,+51.0749985E-03
-21.2800E-06,+49.1999986E-03
-21.1800E-06,+47.6999986E-03
-21.0800E-06,+47.5749986E-03
-20.9800E-06,+47.0749986E-03
-20.8800E-06,+47.0749986E-03
-20.7800E-06,+47.3249986E-03
-20.6800E-06,+48.0749986E-03
-20.5800E-06,+47.1999986E-03
-20.4800E-06,+47.6999986E-03
-20.3800E-06,+47.4499986E-03
-20.2800E-06,+46.4499986E-03
-20.1800E-06,+46.4499986E-03
-20.0800E-06,+46.4499986E-03
-19.9800E-06,+46.4499986E-03
-19.8800E-06,+46.3249986E-03
-19.7800E-06,+45.6999986E-03
-19.6800E-06,+45.1999987E-03
-19.5800E-06,+45.1999987E-03
-19.4800E-06,+45.1999987E-03
-19.3800E-06,+45.1999987E-03
-19.2800E-06,+45.1999987E-03
-19.1800E-06,+45.1999987E-03
-19.0800E-06,+45.0749987E-03
-18.9800E-06,+44.5749987E-03
-18.8800E-06,+44.6999987E-03
-18.7800E-06,+45.0749987E-03
-18.6800E-06,+44.4499987E-03
-18.5800E-06,+43.8249987E-03
-18.4800E-06,+43.1999987E-03
-18.3800E-06,+42.5749987E-03
-18.2800E-06,+41.9499987E-03
-18.1800E-06,+41.4499987E-03
-18.0800E-06,+41.3249987E-03
-17.9800E-06,+40.9499987E-03
-17.8800E-06,+41.4499987E-03
-17.7800E-06,+41.4499987E-03
-17.6800E-06,+41.3249987E-03
-17.5800E-06,+40.9499987E-03
-17.4800E-06,+41.3249987E-03
-17.3800E-06,+40.6999988E-03
-17.2800E-06,+40.1999988E-03
-17.1800E-06,+40.0749988E-03
-17.0800E-06,+39.4499988E-03
-16.9800E-06,+38.9499988E-03
-16.8800E-06,+39.0749988E-03
-16.7800E-06,+39.4499988E-03
-16.6800E-06,+38.6999988E-03
-16.5800E-06,+37.6999988E-03
-16.4800E-06,+37.5749988E-03
-16.3800E-06,+37.0749988E-03
-16.2800E-06,+36.9499988E-03
-16.1800E-06,+36.4499989E-03
-16.0800E-06,+36.3249989E-03
-15.9800E-06,+35.9499989E-03
-15.8800E-06,+36.3249989E-03
-15.7800E-06,+35.6999989E-03
-15.6800E-06,+35.0749989E-03
-15.5800E-06,+34.6999989E-03
-15.4800E-06,+35.0749989E-03
-15.3800E-06,+34.5749989E-03
-15.2800E-06,+34.5749989E-03
-15.1800E-06,+34.4499989E-03
-15.0800E-06,+33.8249989E-03
-14.9800E-06,+33.1999989E-03
-14.8800E-06,+32.5749989E-03
-14.7800E-06,+32.0749989E-03
-14.6800E-06,+32.0749989E-03
-14.5800E-06,+32.0749989E-03
-14.4800E-06,+32.0749989E-03
-14.3800E-06,+31.9499990E-03
-14.2800E-06,+31.4499990E-03
-14.1800E-06,+31.3249990E-03
-14.0800E-06,+30.9499990E-03
-13.9800E-06,+31.3249990E-03
-13.8800E-06,+30.6999990E-03
-13.7800E-06,+29.9499990E-03
-13.6800E-06,+28.8249990E-03
-13.5800E-06,+28.3249990E-03
-13.4800E-06,+28.1999990E-03
-13.3800E-06,+27.6999990E-03
-13.2800E-06,+27.5749990E-03
-13.1800E-06,+27.0749991E-03
-13.0800E-06,+27.0749991E-03
-12.9800E-06,+27.0749991E-03
-12.8800E-06,+27.0749991E-03
-12.7800E-06,+27.0749991E-03
-12.6800E-06,+27.3249991E-03
-12.5800E-06,+28.1999990E-03
-12.4800E-06,+27.5749990E-03
-12.3800E-06,+27.1999991E-03
-12.2800E-06,+27.4499991E-03
-12.1800E-06,+26.5749991E-03
-12.0800E-06,+26.9499991E-03
-11.9800E-06,+26.3249991E-03
-11.8800E-06,+25.8249991E-03
-11.7800E-06,+25.5749991E-03
-11.6800E-06,+24.6999991E-03
-11.5800E-06,+25.1999991E-03
-11.4800E-06,+25.0749991E-03
-11.3800E-06,+24.6999991E-03
-11.2800E-06,+25.0749991E-03
-11.1800E-06,+24.5749991E-03
-11.0800E-06,+24.5749991E-03
-10.9800E-06,+24.4499991E-03
-10.8800E-06,+23.9499991E-03
-10.7800E-06,+23.8249991E-03
-10.6800E-06,+23.4499991E-03
-10.5800E-06,+23.9499991E-03
-10.4800E-06,+23.9499991E-03
-10.3800E-06,+23.8249991E-03
-10.2800E-06,+23.3249991E-03
-10.1800E-06,+23.4499991E-03
-10.0800E-06,+23.9499991E-03
-9.9800E-06,+23.6999991E-03
-9.8800E-06,+22.5749992E-03
-9.7800E-06,+21.9499992E-03
-9.6800E-06,+21.3249992E-03
-9.5800E-06,+20.8249992E-03
-9.4800E-06,+20.6999992E-03
-9.3800E-06,+20.3249992E-03
-9.2800E-06,+20.6999992E-03
-9.1800E-06,+20.1999992E-03
-9.0800E-06,+19.8249992E-03
-8.9800E-06,+18.0749993E-03
-8.8800E-06,+17.0749993E-03
-8.7800E-06,+16.9499993E-03
-8.6800E-06,+16.3249993E-03
-8.5800E-06,+15.8249993E-03
-8.4800E-06,+15.6999993E-03
-8.3800E-06,+15.1999993E-03
-8.2800E-06,+15.1999993E-03
-8.1800E-06,+15.1999993E-03
-8.0800E-06,+15.1999993E-03
-7.9800E-06,+15.1999993E-03
-7.8800E-06,+15.0749993E-03
-7.7800E-06,+14.5749993E-03
-7.6800E-06,+14.3249993E-03
-7.5800E-06,+13.6999994E-03
-7.4800E-06,+14.8249993E-03
-7.3800E-06,+13.5749994E-03
-7.2800E-06,+14.3249993E-03
-7.1800E-06,+13.4499994E-03
-7.0800E-06,+13.8249994E-03
-6.9800E-06,+13.4499994E-03
-6.8800E-06,+13.6999994E-03
-6.7800E-06,+12.8249994E-03
-6.6800E-06,+13.4499994E-03
-6.5800E-06,+13.6999994E-03
-6.4800E-06,+12.6999994E-03
-6.3800E-06,+12.6999994E-03
-6.2800E-06,+12.4499994E-03
-6.1800E-06,+11.4499994E-03
-6.0800E-06,+11.1999994E-03
-5.9800E-06,+10.1999994E-03
-5.8800E-06,+10.1999994E-03
-5.7800E-06,+10.3249994E-03
-5.6800E-06,+10.6999994E-03
-5.5800E-06,+10.3249994E-03
-5.4800E-06,+10.8249994E-03
-5.3800E-06,+10.8249994E-03
-5.2800E-06,+10.5749994E-03
-5.1800E-06,+9.4499995E-03
-5.0800E-06,+8.8249995E-03
-4.9800E-06,+8.3249995E-03
-4.8800E-06,+8.1999995E-03
-4.7800E-06,+7.8249995E-03
-4.6800E-06,+8.1999995E-03
-4.5800E-06,+7.8249995E-03
-4.4800E-06,+8.3249995E-03
-4.3800E-06,+8.3249995E-03
-4.2800E-06,+8.4499995E-03
-4.1800E-06,+9.0749995E-03
-4.0800E-06,+9.5749995E-03
-3.9800E-06,+9.5749995E-03
-3.8800E-06,+9.4499995E-03
-3.7800E-06,+9.0749995E-03
-3.6800E-06,+9.4499995E-03
-3.5800E-06,+9.0749995E-03
-3.4800E-06,+9.4499995E-03
-3.3800E-06,+8.9499995E-03
-3.2800E-06,+8.9499995E-03
-3.1800E-06,+8.9499995E-03
-3.0800E-06,+8.8249995E-03
-2.9800E-06,+8.1999995E-03
-2.8800E-06,+7.5749995E-03
-2.7800E-06,+7.0749995E-03
-2.6800E-06,+6.6999995E-03
-2.5800E-06,+4.9499996E-03
-2.4800E-06,+3.5749996E-03
-2.3800E-06,+2.0749996E-03
-2.2800E-06,+1.8249996E-03
-2.1800E-06,+949.9996E-06
-2.0800E-06,+1.1999996E-03
-1.9800E-06,+449.9997E-06
-1.8800E-06,+1.4499996E-03
-1.7800E-06,+1.4499996E-03
-1.6800E-06,+1.4499996E-03
-1.5800E-06,+1.6999996E-03
-1.4800E-06,+2.5749996E-03
-1.3800E-06,+2.0749996E-03
-1.2800E-06,+1.9499996E-03
-1.1800E-06,+1.5749996E-03
-1.0800E-06,+2.0749996E-03
-980.0E-09,+2.0749996E-03
-880.0E-09,+1.9499996E-03
-780.0E-09,+1.6999996E-03
-680.0E-09,+2.5749996E-03
-580.0E-09,+1.9499996E-03
-480.0E-09,+1.1999996E-03
-380.0E-09,+324.9997E-06
-280.0E-09,+699.9996E-06
-180.0E-09,+449.9997E-06
-80.0E-09,+1.1999996E-03
+20.0E-09,+324.9997E-06
+120.0E-09,+699.9996E-06
+220.0E-09,+449.9997E-06
+320.0E-09,+1.1999996E-03
+420.0E-09,+324.9997E-06
+520.0E-09,+824.9996E-06
+620.0E-09,+824.9996E-06
+720.0E-09,+699.9996E-06
+820.0E-09,+199.9997E-06
+920.0E-09,+74.9997E-06
+1.0200E-06,-425.0003E-06
+1.1200E-06,-425.0003E-06
+1.2200E-06,-425.0003E-06
+1.3200E-06,-550.0003E-06
+1.4200E-06,-925.0003E-06
+1.5200E-06,-425.0003E-06
+1.6200E-06,-550.0003E-06
+1.7200E-06,-925.0003E-06
+1.8200E-06,-425.0003E-06
+1.9200E-06,-550.0003E-06
+2.0200E-06,-925.0003E-06
+2.1200E-06,-425.0003E-06
+2.2200E-06,-425.0003E-06
+2.3200E-06,-425.0003E-06
+2.4200E-06,-425.0003E-06
+2.5200E-06,-425.0003E-06
+2.6200E-06,-425.0003E-06
+2.7200E-06,-425.0003E-06
+2.8200E-06,-300.0003E-06
+2.9200E-06,+74.9997E-06
+3.0200E-06,-425.0003E-06
+3.1200E-06,-550.0003E-06
+3.2200E-06,-925.0003E-06
+3.3200E-06,-425.0003E-06
+3.4200E-06,-425.0003E-06
+3.5200E-06,-550.0003E-06
+3.6200E-06,-925.0003E-06
+3.7200E-06,-425.0003E-06
+3.8200E-06,-300.0003E-06
+3.9200E-06,+74.9997E-06
+4.0200E-06,-425.0003E-06
+4.1200E-06,-550.0003E-06
+4.2200E-06,-925.0003E-06
+4.3200E-06,-550.0003E-06
+4.4200E-06,-925.0003E-06
+4.5200E-06,-425.0003E-06
+4.6200E-06,-300.0003E-06
+4.7200E-06,-50.0003E-06
+4.8200E-06,-925.0003E-06
+4.9200E-06,-425.0003E-06
+5.0200E-06,-300.0003E-06
+5.1200E-06,+74.9997E-06
+5.2200E-06,-175.0003E-06
+5.3200E-06,+699.9996E-06
+5.4200E-06,+199.9997E-06
+5.5200E-06,+74.9997E-06
+5.6200E-06,-425.0003E-06
+5.7200E-06,-425.0003E-06
+5.8200E-06,-425.0003E-06
+5.9200E-06,-425.0003E-06
+6.0200E-06,-300.0003E-06
+6.1200E-06,+74.9997E-06
+6.2200E-06,-425.0003E-06
+6.3200E-06,-425.0003E-06
+6.4200E-06,-425.0003E-06
+6.5200E-06,-425.0003E-06
+6.6200E-06,-300.0003E-06
+6.7200E-06,+74.9997E-06
+6.8200E-06,-425.0003E-06
+6.9200E-06,-425.0003E-06
+7.0200E-06,-425.0003E-06
+7.1200E-06,-550.0003E-06
+7.2200E-06,-800.0003E-06
+7.3200E-06,-50.0003E-06
+7.4200E-06,-925.0003E-06
+7.5200E-06,-425.0003E-06
+7.6200E-06,-425.0003E-06
+7.7200E-06,-550.0003E-06
+7.8200E-06,-925.0003E-06
+7.9200E-06,-425.0003E-06
+8.0200E-06,-300.0003E-06
+8.1200E-06,+74.9997E-06
+8.2200E-06,-425.0003E-06
+8.3200E-06,-425.0003E-06
+8.4200E-06,-300.0003E-06
+8.5200E-06,+74.9997E-06
+8.6200E-06,-300.0003E-06
+8.7200E-06,+74.9997E-06
+8.8200E-06,-425.0003E-06
+8.9200E-06,-425.0003E-06
+9.0200E-06,-300.0003E-06
+9.1200E-06,-50.0003E-06
+9.2200E-06,-925.0003E-06
+9.3200E-06,-425.0003E-06
+9.4200E-06,-300.0003E-06
+9.5200E-06,+74.9997E-06
+9.6200E-06,-425.0003E-06
+9.7200E-06,-550.0003E-06
+9.8200E-06,-925.0003E-06
+9.9200E-06,-425.0003E-06
+10.0200E-06,-300.0003E-06
+10.1200E-06,-50.0003E-06
+10.2200E-06,-800.0003E-06
+10.3200E-06,-50.0003E-06
+10.4200E-06,-925.0003E-06
+10.5200E-06,-425.0003E-06
+10.6200E-06,-550.0003E-06
+10.7200E-06,-1.0500003E-03
+10.8200E-06,-925.0003E-06
+10.9200E-06,-425.0003E-06
+11.0200E-06,-550.0003E-06
+11.1200E-06,-1.0500003E-03
+11.2200E-06,-925.0003E-06
+11.3200E-06,-425.0003E-06
+11.4200E-06,-425.0003E-06
+11.5200E-06,-550.0003E-06
+11.6200E-06,-1.0500003E-03
+11.7200E-06,-1.0500003E-03
+11.8200E-06,-925.0003E-06
+11.9200E-06,-550.0003E-06
+12.0200E-06,-1.0500003E-03
+12.1200E-06,-1.0500003E-03
+12.2200E-06,-925.0003E-06
+12.3200E-06,-550.0003E-06
+12.4200E-06,-925.0003E-06
+12.5200E-06,-550.0003E-06
+12.6200E-06,-1.1750003E-03
+12.7200E-06,-1.5500003E-03
+12.8200E-06,-925.0003E-06
+12.9200E-06,-550.0003E-06
+13.0200E-06,-925.0003E-06
+13.1200E-06,-550.0003E-06
+13.2200E-06,-925.0003E-06
+13.3200E-06,-550.0003E-06
+13.4200E-06,-925.0003E-06
+13.5200E-06,-550.0003E-06
+13.6200E-06,-925.0003E-06
+13.7200E-06,-550.0003E-06
+13.8200E-06,-925.0003E-06
+13.9200E-06,-550.0003E-06
+14.0200E-06,-1.0500003E-03
+14.1200E-06,-1.0500003E-03
+14.2200E-06,-925.0003E-06
+14.3200E-06,-550.0003E-06
+14.4200E-06,-925.0003E-06
+14.5200E-06,-425.0003E-06
+14.6200E-06,-300.0003E-06
+14.7200E-06,-50.0003E-06
+14.8200E-06,-1.0500003E-03
+14.9200E-06,-925.0003E-06
+15.0200E-06,-425.0003E-06
+15.1200E-06,-550.0003E-06
+15.2200E-06,-925.0003E-06
+15.3200E-06,-425.0003E-06
+15.4200E-06,-425.0003E-06
+15.5200E-06,-425.0003E-06
+15.6200E-06,-425.0003E-06
+15.7200E-06,-550.0003E-06
+15.8200E-06,-1.0500003E-03
+15.9200E-06,-925.0003E-06
+16.0200E-06,-425.0003E-06
+16.1200E-06,-425.0003E-06
+16.2200E-06,-300.0003E-06
+16.3200E-06,-50.0003E-06
+16.4200E-06,-925.0003E-06
+16.5200E-06,-550.0003E-06
+16.6200E-06,-925.0003E-06
+16.7200E-06,-425.0003E-06
+16.8200E-06,-425.0003E-06
+16.9200E-06,-550.0003E-06
+17.0200E-06,-1.0500003E-03
+17.1200E-06,-925.0003E-06
+17.2200E-06,-425.0003E-06
+17.3200E-06,-425.0003E-06
+17.4200E-06,-425.0003E-06
+17.5200E-06,-550.0003E-06
+17.6200E-06,-1.0500003E-03
+17.7200E-06,-1.0500003E-03
+17.8200E-06,-925.0003E-06
+17.9200E-06,-550.0003E-06
+18.0200E-06,-1.0500003E-03
+18.1200E-06,-1.0500003E-03
+18.2200E-06,-925.0003E-06
+18.3200E-06,-550.0003E-06
+18.4200E-06,-1.0500003E-03
+18.5200E-06,-1.0500003E-03
+18.6200E-06,-925.0003E-06
+18.7200E-06,-550.0003E-06
+18.8200E-06,-1.0500003E-03
+18.9200E-06,-1.0500003E-03
+19.0200E-06,-925.0003E-06
+19.1200E-06,-425.0003E-06
+19.2200E-06,-425.0003E-06
+19.3200E-06,-550.0003E-06
+19.4200E-06,-1.0500003E-03
+19.5200E-06,-1.1750003E-03
+19.6200E-06,-1.4250003E-03
+19.7200E-06,-550.0003E-06
+19.8200E-06,-925.0003E-06
+19.9200E-06,-550.0003E-06
+20.0200E-06,-925.0003E-06
+20.1200E-06,-550.0003E-06
+20.2200E-06,-1.0500003E-03
+20.3200E-06,-1.0500003E-03
+20.4200E-06,-1.1750003E-03
+20.5200E-06,-1.8000003E-03
+20.6200E-06,-2.3000003E-03
+20.7200E-06,-2.3000003E-03
+20.8200E-06,-2.1750003E-03
+20.9200E-06,-1.6750003E-03
+21.0200E-06,-1.5500003E-03
+21.1200E-06,-1.1750003E-03
+21.2200E-06,-1.4250003E-03
+21.3200E-06,-550.0003E-06
+21.4200E-06,-925.0003E-06
+21.5200E-06,-425.0003E-06
+21.6200E-06,-300.0003E-06
+21.7200E-06,+74.9997E-06
+21.8200E-06,-300.0003E-06
+21.9200E-06,+74.9997E-06
+22.0200E-06,-425.0003E-06
+22.1200E-06,-550.0003E-06
+22.2200E-06,-1.0500003E-03
+22.3200E-06,-1.0500003E-03
+22.4200E-06,-1.0500003E-03
+22.5200E-06,-1.0500003E-03
+22.6200E-06,-1.0500003E-03
+22.7200E-06,-1.0500003E-03
+22.8200E-06,-1.0500003E-03
+22.9200E-06,-1.0500003E-03
+23.0200E-06,-1.0500003E-03
+23.1200E-06,-1.0500003E-03
+23.2200E-06,-1.0500003E-03
+23.3200E-06,-925.0003E-06
+23.4200E-06,-425.0003E-06
+23.5200E-06,-425.0003E-06
+23.6200E-06,-300.0003E-06
+23.7200E-06,+74.9997E-06
+23.8200E-06,-300.0003E-06
+23.9200E-06,+74.9997E-06
+24.0200E-06,-425.0003E-06
+24.1200E-06,-425.0003E-06
+24.2200E-06,-425.0003E-06
+24.3200E-06,-550.0003E-06
+24.4200E-06,-925.0003E-06
+24.5200E-06,-675.0003E-06
+24.6200E-06,-1.5500003E-03
+24.7200E-06,-1.0500003E-03
+24.8200E-06,-925.0003E-06
+24.9200E-06,-675.0003E-06
+25.0200E-06,-1.5500003E-03
+25.1200E-06,-1.1750003E-03
+25.2200E-06,-1.3000003E-03
+25.3200E-06,-50.0003E-06
+25.4200E-06,-1.0500003E-03
+25.5200E-06,-925.0003E-06
+25.6200E-06,-300.0003E-06
+25.7200E-06,-50.0003E-06
+25.8200E-06,-1.0500003E-03
+25.9200E-06,-1.0500003E-03
+26.0200E-06,-800.0003E-06
+26.1200E-06,-50.0003E-06
+26.2200E-06,-925.0003E-06
+26.3200E-06,-550.0003E-06
+26.4200E-06,-1.0500003E-03
+26.5200E-06,-1.0500003E-03
+26.6200E-06,-1.0500003E-03
+26.7200E-06,-1.0500003E-03
+26.8200E-06,-1.0500003E-03
+26.9200E-06,-1.0500003E-03
+27.0200E-06,-1.0500003E-03
+27.1200E-06,-1.0500003E-03
+27.2200E-06,-1.0500003E-03
+27.3200E-06,-1.0500003E-03
+27.4200E-06,-925.0003E-06
+27.5200E-06,-550.0003E-06
+27.6200E-06,-1.0500003E-03
+27.7200E-06,-925.0003E-06
+27.8200E-06,-425.0003E-06
+27.9200E-06,-550.0003E-06
+28.0200E-06,-1.0500003E-03
+28.1200E-06,-1.0500003E-03
+28.2200E-06,-925.0003E-06
+28.3200E-06,-550.0003E-06
+28.4200E-06,-1.0500003E-03
+28.5200E-06,-1.0500003E-03
+28.6200E-06,-925.0003E-06
+28.7200E-06,-550.0003E-06
+28.8200E-06,-925.0003E-06
+28.9200E-06,-550.0003E-06
+29.0200E-06,-925.0003E-06
+29.1200E-06,-550.0003E-06
+29.2200E-06,-925.0003E-06
+29.3200E-06,-425.0003E-06
+29.4200E-06,-550.0003E-06
+29.5200E-06,-1.0500003E-03
+29.6200E-06,-925.0003E-06
+29.7200E-06,-550.0003E-06
+29.8200E-06,-800.0003E-06
+29.9200E-06,-50.0003E-06
+30.0200E-06,-925.0003E-06
+30.1200E-06,-550.0003E-06
+30.2200E-06,-1.0500003E-03
+30.3200E-06,-1.0500003E-03
+30.4200E-06,-925.0003E-06
+30.5200E-06,-550.0003E-06
+30.6200E-06,-1.0500003E-03
+30.7200E-06,-1.0500003E-03
+30.8200E-06,-925.0003E-06
+30.9200E-06,-550.0003E-06
+31.0200E-06,-925.0003E-06
+31.1200E-06,-550.0003E-06
+31.2200E-06,-925.0003E-06
+31.3200E-06,-675.0003E-06
+31.4200E-06,-1.5500003E-03
+31.5200E-06,-1.0500003E-03
+31.6200E-06,-1.0500003E-03
+31.7200E-06,-1.0500003E-03
+31.8200E-06,-1.0500003E-03
+31.9200E-06,-1.0500003E-03
+32.0200E-06,-925.0003E-06
+32.1200E-06,-550.0003E-06
+32.2200E-06,-800.0003E-06
+32.3200E-06,-50.0003E-06
+32.4200E-06,-1.0500003E-03
+32.5200E-06,-1.0500003E-03
+32.6200E-06,-800.0003E-06
+32.7200E-06,-175.0003E-06
+32.8200E-06,-1.5500003E-03
+32.9200E-06,-1.0500003E-03
+33.0200E-06,-925.0003E-06
+33.1200E-06,-550.0003E-06
+33.2200E-06,-925.0003E-06
+33.3200E-06,-425.0003E-06
+33.4200E-06,-425.0003E-06
+33.5200E-06,-550.0003E-06
+33.6200E-06,-800.0003E-06
+33.7200E-06,+74.9997E-06
+33.8200E-06,-425.0003E-06
+33.9200E-06,-425.0003E-06
+34.0200E-06,-425.0003E-06
+34.1200E-06,-550.0003E-06
+34.2200E-06,-925.0003E-06
+34.3200E-06,-550.0003E-06
+34.4200E-06,-925.0003E-06
+34.5200E-06,-425.0003E-06
+34.6200E-06,-425.0003E-06
+34.7200E-06,-550.0003E-06
+34.8200E-06,-925.0003E-06
+34.9200E-06,-550.0003E-06
+35.0200E-06,-1.0500003E-03
+35.1200E-06,-1.0500003E-03
+35.2200E-06,-1.0500003E-03
+35.3200E-06,-925.0003E-06
+35.4200E-06,-425.0003E-06
+35.5200E-06,-425.0003E-06
+35.6200E-06,-425.0003E-06
+35.7200E-06,-550.0003E-06
+35.8200E-06,-925.0003E-06
+35.9200E-06,-550.0003E-06
+36.0200E-06,-1.0500003E-03
+36.1200E-06,-1.0500003E-03
+36.2200E-06,-925.0003E-06
+36.3200E-06,-550.0003E-06
+36.4200E-06,-925.0003E-06
+36.5200E-06,-550.0003E-06
+36.6200E-06,-925.0003E-06
+36.7200E-06,-425.0003E-06
+36.8200E-06,-550.0003E-06
+36.9200E-06,-1.0500003E-03
+37.0200E-06,-925.0003E-06
+37.1200E-06,-550.0003E-06
+37.2200E-06,-925.0003E-06
+37.3200E-06,-675.0003E-06
+37.4200E-06,-1.4250003E-03
+37.5200E-06,-425.0003E-06
+37.6200E-06,-550.0003E-06
+37.7200E-06,-925.0003E-06
+37.8200E-06,-425.0003E-06
+37.9200E-06,-425.0003E-06
+38.0200E-06,-300.0003E-06
+38.1200E-06,-50.0003E-06
+38.2200E-06,-925.0003E-06
+38.3200E-06,-425.0003E-06
+38.4200E-06,-550.0003E-06
+38.5200E-06,-925.0003E-06
+38.6200E-06,-425.0003E-06
+38.7200E-06,-425.0003E-06
+38.8200E-06,-425.0003E-06
+38.9200E-06,-425.0003E-06
+39.0200E-06,-425.0003E-06
+39.1200E-06,-550.0003E-06
+39.2200E-06,-925.0003E-06
+39.3200E-06,-425.0003E-06
+39.4200E-06,-300.0003E-06
+39.5200E-06,-50.0003E-06
+39.6200E-06,-925.0003E-06
+39.7200E-06,-550.0003E-06
+39.8200E-06,-925.0003E-06
+39.9200E-06,-425.0003E-06
+40.0200E-06,-300.0003E-06
+40.1200E-06,+74.9997E-06
+40.2200E-06,-425.0003E-06
+40.3200E-06,-550.0003E-06
+40.4200E-06,-800.0003E-06
+40.5200E-06,+74.9997E-06
+40.6200E-06,-425.0003E-06
+40.7200E-06,-550.0003E-06
+40.8200E-06,-925.0003E-06
+40.9200E-06,-550.0003E-06
+41.0200E-06,-925.0003E-06
+41.1200E-06,-300.0003E-06
