x-axis,1
second,Volt
-7.450000E-06,+27.699999046E-03
-7.445000E-06,+27.699999046E-03
-7.440000E-06,+28.324999032E-03
-7.435000E-06,+27.074999060E-03
-7.430000E-06,+27.074999060E-03
-7.425000E-06,+27.699999046E-03
-7.420000E-06,+27.699999046E-03
-7.415000E-06,+27.699999046E-03
-7.410000E-06,+27.699999046E-03
-7.405000E-06,+27.074999060E-03
-7.400000E-06,+27.074999060E-03
-7.395000E-06,+26.449999074E-03
-7.390000E-06,+27.074999060E-03
-7.385000E-06,+26.449999074E-03
-7.380000E-06,+26.449999074E-03
-7.375000E-06,+26.449999074E-03
-7.370000E-06,+26.449999074E-03
-7.365000E-06,+26.449999074E-03
-7.360000E-06,+27.074999060E-03
-7.355000E-06,+25.824999087E-03
-7.350000E-06,+26.449999074E-03
-7.345000E-06,+27.074999060E-03
-7.340000E-06,+27.074999060E-03
-7.335000E-06,+27.074999060E-03
-7.330000E-06,+26.449999074E-03
-7.325000E-06,+26.449999074E-03
-7.320000E-06,+27.074999060E-03
-7.315000E-06,+26.449999074E-03
-7.310000E-06,+27.074999060E-03
-7.305000E-06,+25.824999087E-03
-7.300000E-06,+26.449999074E-03
-7.295000E-06,+26.449999074E-03
-7.290000E-06,+26.449999074E-03
-7.285000E-06,+25.824999087E-03
-7.280000E-06,+26.449999074E-03
-7.275000E-06,+25.824999087E-03
-7.270000E-06,+26.449999074E-03
-7.265000E-06,+26.449999074E-03
-7.260000E-06,+25.824999087E-03
-7.255000E-06,+26.449999074E-03
-7.250000E-06,+26.449999074E-03
-7.245000E-06,+25.824999087E-03
-7.240000E-06,+26.449999074E-03
-7.235000E-06,+25.199999101E-03
-7.230000E-06,+25.824999087E-03
-7.225000E-06,+25.824999087E-03
-7.220000E-06,+25.824999087E-03
-7.215000E-06,+26.449999074E-03
-7.210000E-06,+25.199999101E-03
-7.205000E-06,+24.574999115E-03
-7.200000E-06,+25.824999087E-03
-7.195000E-06,+25.199999101E-03
-7.190000E-06,+25.199999101E-03
-7.185000E-06,+25.199999101E-03
-7.180000E-06,+24.574999115E-03
-7.175000E-06,+23.949999129E-03
-7.170000E-06,+23.949999129E-03
-7.165000E-06,+23.324999143E-03
-7.160000E-06,+23.949999129E-03
-7.155000E-06,+22.699999157E-03
-7.150000E-06,+23.949999129E-03
-7.145000E-06,+22.699999157E-03
-7.140000E-06,+23.324999143E-03
-7.135000E-06,+23.324999143E-03
-7.130000E-06,+22.699999157E-03
-7.125000E-06,+22.699999157E-03
-7.120000E-06,+22.699999157E-03
-7.115000E-06,+22.074999171E-03
-7.110000E-06,+22.699999157E-03
-7.105000E-06,+21.449999185E-03
-7.100000E-06,+22.074999171E-03
-7.095000E-06,+22.074999171E-03
-7.090000E-06,+21.449999185E-03
-7.085000E-06,+21.449999185E-03
-7.080000E-06,+22.074999171E-03
-7.075000E-06,+20.824999199E-03
-7.070000E-06,+21.449999185E-03
-7.065000E-06,+20.199999213E-03
-7.060000E-06,+21.449999185E-03
-7.055000E-06,+21.449999185E-03
-7.050000E-06,+21.449999185E-03
-7.045000E-06,+20.199999213E-03
-7.040000E-06,+20.824999199E-03
-7.035000E-06,+20.199999213E-03
-7.030000E-06,+20.199999213E-03
-7.025000E-06,+20.824999199E-03
-7.020000E-06,+20.824999199E-03
-7.015000E-06,+20.199999213E-03
-7.010000E-06,+20.199999213E-03
-7.005000E-06,+20.199999213E-03
-7.000000E-06,+20.824999199E-03
-6.995000E-06,+20.199999213E-03
-6.990000E-06,+20.199999213E-03
-6.985000E-06,+20.199999213E-03
-6.980000E-06,+20.199999213E-03
-6.975000E-06,+20.199999213E-03
-6.970000E-06,+19.574999227E-03
-6.965000E-06,+19.574999227E-03
-6.960000E-06,+20.199999213E-03
-6.955000E-06,+19.574999227E-03
-6.950000E-06,+20.199999213E-03
-6.945000E-06,+20.199999213E-03
-6.940000E-06,+20.199999213E-03
-6.935000E-06,+19.574999227E-03
-6.930000E-06,+18.949999241E-03
-6.925000E-06,+18.324999255E-03
-6.920000E-06,+18.949999241E-03
-6.915000E-06,+18.324999255E-03
-6.910000E-06,+18.324999255E-03
-6.905000E-06,+18.949999241E-03
-6.900000E-06,+18.949999241E-03
-6.895000E-06,+18.949999241E-03
-6.890000E-06,+18.949999241E-03
-6.885000E-06,+18.324999255E-03
-6.880000E-06,+18.949999241E-03
-6.875000E-06,+17.699999269E-03
-6.870000E-06,+18.324999255E-03
-6.865000E-06,+18.949999241E-03
-6.860000E-06,+18.949999241E-03
-6.855000E-06,+18.949999241E-03
-6.850000E-06,+18.324999255E-03
-6.845000E-06,+17.699999269E-03
-6.840000E-06,+18.324999255E-03
-6.835000E-06,+18.324999255E-03
-6.830000E-06,+18.949999241E-03
-6.825000E-06,+18.324999255E-03
-6.820000E-06,+17.699999269E-03
-6.815000E-06,+18.949999241E-03
-6.810000E-06,+18.324999255E-03
-6.805000E-06,+18.324999255E-03
-6.800000E-06,+18.324999255E-03
-6.795000E-06,+17.074999283E-03
-6.790000E-06,+18.324999255E-03
-6.785000E-06,+17.074999283E-03
-6.780000E-06,+18.324999255E-03
-6.775000E-06,+18.324999255E-03
-6.770000E-06,+17.699999269E-03
-6.765000E-06,+17.074999283E-03
-6.760000E-06,+17.699999269E-03
-6.755000E-06,+17.699999269E-03
-6.750000E-06,+17.699999269E-03
-6.745000E-06,+17.074999283E-03
-6.740000E-06,+17.699999269E-03
-6.735000E-06,+17.699999269E-03
-6.730000E-06,+17.699999269E-03
-6.725000E-06,+17.699999269E-03
-6.720000E-06,+18.324999255E-03
-6.715000E-06,+17.699999269E-03
-6.710000E-06,+18.949999241E-03
-6.705000E-06,+17.699999269E-03
-6.700000E-06,+17.699999269E-03
-6.695000E-06,+18.324999255E-03
-6.690000E-06,+17.074999283E-03
-6.685000E-06,+16.449999297E-03
-6.680000E-06,+17.699999269E-03
-6.675000E-06,+17.074999283E-03
-6.670000E-06,+17.074999283E-03
-6.665000E-06,+17.074999283E-03
-6.660000E-06,+17.699999269E-03
-6.655000E-06,+17.699999269E-03
-6.650000E-06,+17.074999283E-03
-6.645000E-06,+17.074999283E-03
-6.640000E-06,+17.699999269E-03
-6.635000E-06,+17.074999283E-03
-6.630000E-06,+17.074999283E-03
-6.625000E-06,+17.699999269E-03
-6.620000E-06,+17.699999269E-03
-6.615000E-06,+17.699999269E-03
-6.610000E-06,+16.449999297E-03
-6.605000E-06,+17.074999283E-03
-6.600000E-06,+17.699999269E-03
-6.595000E-06,+17.074999283E-03
-6.590000E-06,+17.074999283E-03
-6.585000E-06,+17.074999283E-03
-6.580000E-06,+16.449999297E-03
-6.575000E-06,+17.074999283E-03
-6.570000E-06,+16.449999297E-03
-6.565000E-06,+15.824999311E-03
-6.560000E-06,+17.699999269E-03
-6.555000E-06,+16.449999297E-03
-6.550000E-06,+16.449999297E-03
-6.545000E-06,+17.699999269E-03
-6.540000E-06,+17.074999283E-03
-6.535000E-06,+17.074999283E-03
-6.530000E-06,+17.074999283E-03
-6.525000E-06,+15.824999311E-03
-6.520000E-06,+17.699999269E-03
-6.515000E-06,+17.074999283E-03
-6.510000E-06,+16.449999297E-03
-6.505000E-06,+15.824999311E-03
-6.500000E-06,+16.449999297E-03
-6.495000E-06,+17.074999283E-03
-6.490000E-06,+16.449999297E-03
-6.485000E-06,+16.449999297E-03
-6.480000E-06,+17.074999283E-03
-6.475000E-06,+17.074999283E-03
-6.470000E-06,+17.074999283E-03
-6.465000E-06,+16.449999297E-03
-6.460000E-06,+16.449999297E-03
-6.455000E-06,+17.699999269E-03
-6.450000E-06,+17.074999283E-03
-6.445000E-06,+16.449999297E-03
-6.440000E-06,+17.074999283E-03
-6.435000E-06,+16.449999297E-03
-6.430000E-06,+16.449999297E-03
-6.425000E-06,+16.449999297E-03
-6.420000E-06,+16.449999297E-03
-6.415000E-06,+17.074999283E-03
-6.410000E-06,+17.074999283E-03
-6.405000E-06,+16.449999297E-03
-6.400000E-06,+17.699999269E-03
-6.395000E-06,+16.449999297E-03
-6.390000E-06,+16.449999297E-03
-6.385000E-06,+17.074999283E-03
-6.380000E-06,+17.074999283E-03
-6.375000E-06,+17.074999283E-03
-6.370000E-06,+17.074999283E-03
-6.365000E-06,+16.449999297E-03
-6.360000E-06,+17.074999283E-03
-6.355000E-06,+16.449999297E-03
-6.350000E-06,+17.074999283E-03
-6.345000E-06,+17.074999283E-03
-6.340000E-06,+16.449999297E-03
-6.335000E-06,+17.074999283E-03
-6.330000E-06,+16.449999297E-03
-6.325000E-06,+16.449999297E-03
-6.320000E-06,+17.074999283E-03
-6.315000E-06,+16.449999297E-03
-6.310000E-06,+16.449999297E-03
-6.305000E-06,+17.699999269E-03
-6.300000E-06,+17.074999283E-03
-6.295000E-06,+17.699999269E-03
-6.290000E-06,+17.074999283E-03
-6.285000E-06,+16.449999297E-03
-6.280000E-06,+17.074999283E-03
-6.275000E-06,+16.449999297E-03
-6.270000E-06,+16.449999297E-03
-6.265000E-06,+16.449999297E-03
-6.260000E-06,+17.699999269E-03
-6.255000E-06,+17.699999269E-03
-6.250000E-06,+17.074999283E-03
-6.245000E-06,+15.824999311E-03
-6.240000E-06,+17.699999269E-03
-6.235000E-06,+15.824999311E-03
-6.230000E-06,+16.449999297E-03
-6.225000E-06,+16.449999297E-03
-6.220000E-06,+16.449999297E-03
-6.215000E-06,+16.449999297E-03
-6.210000E-06,+16.449999297E-03
-6.205000E-06,+15.824999311E-03
-6.200000E-06,+17.074999283E-03
-6.195000E-06,+16.449999297E-03
-6.190000E-06,+16.449999297E-03
-6.185000E-06,+16.449999297E-03
-6.180000E-06,+16.449999297E-03
-6.175000E-06,+17.074999283E-03
-6.170000E-06,+16.449999297E-03
-6.165000E-06,+15.824999311E-03
-6.160000E-06,+17.074999283E-03
-6.155000E-06,+15.824999311E-03
-6.150000E-06,+16.449999297E-03
-6.145000E-06,+17.074999283E-03
-6.140000E-06,+16.449999297E-03
-6.135000E-06,+16.449999297E-03
-6.130000E-06,+16.449999297E-03
-6.125000E-06,+15.824999311E-03
-6.120000E-06,+16.449999297E-03
-6.115000E-06,+16.449999297E-03
-6.110000E-06,+17.074999283E-03
-6.105000E-06,+16.449999297E-03
-6.100000E-06,+16.449999297E-03
-6.095000E-06,+17.074999283E-03
-6.090000E-06,+16.449999297E-03
-6.085000E-06,+15.824999311E-03
-6.080000E-06,+17.074999283E-03
-6.075000E-06,+15.824999311E-03
-6.070000E-06,+15.824999311E-03
-6.065000E-06,+15.199999325E-03
-6.060000E-06,+16.449999297E-03
-6.055000E-06,+16.449999297E-03
-6.050000E-06,+16.449999297E-03
-6.045000E-06,+15.824999311E-03
-6.040000E-06,+16.449999297E-03
-6.035000E-06,+16.449999297E-03
-6.030000E-06,+15.824999311E-03
-6.025000E-06,+16.449999297E-03
-6.020000E-06,+15.824999311E-03
-6.015000E-06,+16.449999297E-03
-6.010000E-06,+16.449999297E-03
-6.005000E-06,+15.824999311E-03
-6.000000E-06,+16.449999297E-03
-5.995000E-06,+15.824999311E-03
-5.990000E-06,+16.449999297E-03
-5.985000E-06,+15.199999325E-03
-5.980000E-06,+16.449999297E-03
-5.975000E-06,+17.074999283E-03
-5.970000E-06,+16.449999297E-03
-5.965000E-06,+15.199999325E-03
-5.960000E-06,+15.824999311E-03
-5.955000E-06,+15.824999311E-03
-5.950000E-06,+16.449999297E-03
-5.945000E-06,+17.074999283E-03
-5.940000E-06,+16.449999297E-03
-5.935000E-06,+16.449999297E-03
-5.930000E-06,+17.074999283E-03
-5.925000E-06,+15.824999311E-03
-5.920000E-06,+16.449999297E-03
-5.915000E-06,+15.824999311E-03
-5.910000E-06,+16.449999297E-03
-5.905000E-06,+16.449999297E-03
-5.900000E-06,+16.449999297E-03
-5.895000E-06,+16.449999297E-03
-5.890000E-06,+15.824999311E-03
-5.885000E-06,+15.824999311E-03
-5.880000E-06,+16.449999297E-03
-5.875000E-06,+15.824999311E-03
-5.870000E-06,+15.824999311E-03
-5.865000E-06,+15.824999311E-03
-5.860000E-06,+15.824999311E-03
-5.855000E-06,+15.824999311E-03
-5.850000E-06,+15.824999311E-03
-5.845000E-06,+15.199999325E-03
-5.840000E-06,+15.824999311E-03
-5.835000E-06,+15.199999325E-03
-5.830000E-06,+15.199999325E-03
-5.825000E-06,+16.449999297E-03
-5.820000E-06,+15.824999311E-03
-5.815000E-06,+16.449999297E-03
-5.810000E-06,+15.824999311E-03
-5.805000E-06,+15.199999325E-03
-5.800000E-06,+16.449999297E-03
-5.795000E-06,+15.199999325E-03
-5.790000E-06,+15.824999311E-03
-5.785000E-06,+15.824999311E-03
-5.780000E-06,+15.824999311E-03
-5.775000E-06,+15.824999311E-03
-5.770000E-06,+15.824999311E-03
-5.765000E-06,+15.199999325E-03
-5.760000E-06,+15.824999311E-03
-5.755000E-06,+15.199999325E-03
-5.750000E-06,+15.824999311E-03
-5.745000E-06,+15.199999325E-03
-5.740000E-06,+15.824999311E-03
-5.735000E-06,+16.449999297E-03
-5.730000E-06,+15.824999311E-03
-5.725000E-06,+15.199999325E-03
-5.720000E-06,+15.824999311E-03
-5.715000E-06,+15.199999325E-03
-5.710000E-06,+15.199999325E-03
-5.705000E-06,+15.199999325E-03
-5.700000E-06,+15.824999311E-03
-5.695000E-06,+16.449999297E-03
-5.690000E-06,+15.824999311E-03
-5.685000E-06,+15.199999325E-03
-5.680000E-06,+15.824999311E-03
-5.675000E-06,+15.199999325E-03
-5.670000E-06,+16.449999297E-03
-5.665000E-06,+16.449999297E-03
-5.660000E-06,+16.449999297E-03
-5.655000E-06,+15.824999311E-03
-5.650000E-06,+15.824999311E-03
-5.645000E-06,+15.199999325E-03
-5.640000E-06,+15.824999311E-03
-5.635000E-06,+14.574999339E-03
-5.630000E-06,+15.824999311E-03
-5.625000E-06,+15.199999325E-03
-5.620000E-06,+15.824999311E-03
-5.615000E-06,+16.449999297E-03
-5.610000E-06,+15.199999325E-03
-5.605000E-06,+14.574999339E-03
-5.600000E-06,+16.449999297E-03
-5.595000E-06,+15.824999311E-03
-5.590000E-06,+15.199999325E-03
-5.585000E-06,+15.199999325E-03
-5.580000E-06,+15.824999311E-03
-5.575000E-06,+15.824999311E-03
-5.570000E-06,+15.199999325E-03
-5.565000E-06,+15.199999325E-03
-5.560000E-06,+15.824999311E-03
-5.555000E-06,+15.199999325E-03
-5.550000E-06,+15.824999311E-03
-5.545000E-06,+13.949999353E-03
-5.540000E-06,+15.824999311E-03
-5.535000E-06,+15.824999311E-03
-5.530000E-06,+15.199999325E-03
-5.525000E-06,+15.199999325E-03
-5.520000E-06,+15.199999325E-03
-5.515000E-06,+15.199999325E-03
-5.510000E-06,+15.824999311E-03
-5.505000E-06,+14.574999339E-03
-5.500000E-06,+15.199999325E-03
-5.495000E-06,+15.824999311E-03
-5.490000E-06,+14.574999339E-03
-5.485000E-06,+14.574999339E-03
-5.480000E-06,+15.199999325E-03
-5.475000E-06,+14.574999339E-03
-5.470000E-06,+15.199999325E-03
-5.465000E-06,+15.199999325E-03
-5.460000E-06,+15.824999311E-03
-5.455000E-06,+15.824999311E-03
-5.450000E-06,+14.574999339E-03
-5.445000E-06,+13.949999353E-03
-5.440000E-06,+14.574999339E-03
-5.435000E-06,+13.949999353E-03
-5.430000E-06,+14.574999339E-03
-5.425000E-06,+13.324999367E-03
-5.420000E-06,+14.574999339E-03
-5.415000E-06,+14.574999339E-03
-5.410000E-06,+13.949999353E-03
-5.405000E-06,+13.949999353E-03
-5.400000E-06,+14.574999339E-03
-5.395000E-06,+13.949999353E-03
-5.390000E-06,+13.949999353E-03
-5.385000E-06,+13.949999353E-03
-5.380000E-06,+13.949999353E-03
-5.375000E-06,+13.949999353E-03
-5.370000E-06,+13.949999353E-03
-5.365000E-06,+12.699999381E-03
-5.360000E-06,+13.949999353E-03
-5.355000E-06,+13.324999367E-03
-5.350000E-06,+12.699999381E-03
-5.345000E-06,+13.324999367E-03
-5.340000E-06,+13.324999367E-03
-5.335000E-06,+13.324999367E-03
-5.330000E-06,+12.699999381E-03
-5.325000E-06,+12.074999395E-03
-5.320000E-06,+12.699999381E-03
-5.315000E-06,+12.699999381E-03
-5.310000E-06,+12.699999381E-03
-5.305000E-06,+13.324999367E-03
-5.300000E-06,+12.699999381E-03
-5.295000E-06,+12.699999381E-03
-5.290000E-06,+12.699999381E-03
-5.285000E-06,+11.449999409E-03
-5.280000E-06,+12.699999381E-03
-5.275000E-06,+12.699999381E-03
-5.270000E-06,+12.074999395E-03
-5.265000E-06,+13.324999367E-03
-5.260000E-06,+12.699999381E-03
-5.255000E-06,+12.699999381E-03
-5.250000E-06,+11.449999409E-03
-5.245000E-06,+12.074999395E-03
-5.240000E-06,+12.699999381E-03
-5.235000E-06,+12.074999395E-03
-5.230000E-06,+12.699999381E-03
-5.225000E-06,+12.074999395E-03
-5.220000E-06,+12.074999395E-03
-5.215000E-06,+12.074999395E-03
-5.210000E-06,+11.449999409E-03
-5.205000E-06,+11.449999409E-03
-5.200000E-06,+12.074999395E-03
-5.195000E-06,+11.449999409E-03
-5.190000E-06,+12.074999395E-03
-5.185000E-06,+10.824999423E-03
-5.180000E-06,+12.074999395E-03
-5.175000E-06,+12.074999395E-03
-5.170000E-06,+11.449999409E-03
-5.165000E-06,+10.824999423E-03
-5.160000E-06,+12.074999395E-03
-5.155000E-06,+10.824999423E-03
-5.150000E-06,+12.074999395E-03
-5.145000E-06,+10.199999437E-03
-5.140000E-06,+12.074999395E-03
-5.135000E-06,+11.449999409E-03
-5.130000E-06,+10.824999423E-03
-5.125000E-06,+10.199999437E-03
-5.120000E-06,+11.449999409E-03
-5.115000E-06,+10.824999423E-03
-5.110000E-06,+10.824999423E-03
-5.105000E-06,+11.449999409E-03
-5.100000E-06,+10.824999423E-03
-5.095000E-06,+11.449999409E-03
-5.090000E-06,+10.824999423E-03
-5.085000E-06,+10.824999423E-03
-5.080000E-06,+11.449999409E-03
-5.075000E-06,+10.824999423E-03
-5.070000E-06,+11.449999409E-03
-5.065000E-06,+11.449999409E-03
-5.060000E-06,+10.824999423E-03
-5.055000E-06,+11.449999409E-03
-5.050000E-06,+10.824999423E-03
-5.045000E-06,+10.199999437E-03
-5.040000E-06,+11.449999409E-03
-5.035000E-06,+10.199999437E-03
-5.030000E-06,+10.824999423E-03
-5.025000E-06,+10.199999437E-03
-5.020000E-06,+11.449999409E-03
-5.015000E-06,+11.449999409E-03
-5.010000E-06,+10.824999423E-03
-5.005000E-06,+10.824999423E-03
-5.000000E-06,+11.449999409E-03
-4.995000E-06,+10.199999437E-03
-4.990000E-06,+11.449999409E-03
-4.985000E-06,+11.449999409E-03
-4.980000E-06,+10.824999423E-03
-4.975000E-06,+11.449999409E-03
-4.970000E-06,+10.824999423E-03
-4.965000E-06,+10.199999437E-03
-4.960000E-06,+10.824999423E-03
-4.955000E-06,+10.199999437E-03
-4.950000E-06,+10.824999423E-03
-4.945000E-06,+10.199999437E-03
-4.940000E-06,+10.824999423E-03
-4.935000E-06,+10.824999423E-03
-4.930000E-06,+10.824999423E-03
-4.925000E-06,+10.824999423E-03
-4.920000E-06,+10.824999423E-03
-4.915000E-06,+10.824999423E-03
-4.910000E-06,+10.824999423E-03
-4.905000E-06,+10.199999437E-03
-4.900000E-06,+11.449999409E-03
-4.895000E-06,+11.449999409E-03
-4.890000E-06,+10.824999423E-03
-4.885000E-06,+10.199999437E-03
-4.880000E-06,+10.824999423E-03
-4.875000E-06,+10.199999437E-03
-4.870000E-06,+10.824999423E-03
-4.865000E-06,+9.574999451E-03
-4.860000E-06,+10.199999437E-03
-4.855000E-06,+10.824999423E-03
-4.850000E-06,+9.574999451E-03
-4.845000E-06,+9.574999451E-03
-4.840000E-06,+10.824999423E-03
-4.835000E-06,+10.199999437E-03
-4.830000E-06,+10.199999437E-03
-4.825000E-06,+11.449999409E-03
-4.820000E-06,+10.199999437E-03
-4.815000E-06,+10.824999423E-03
-4.810000E-06,+10.824999423E-03
-4.805000E-06,+9.574999451E-03
-4.800000E-06,+10.824999423E-03
-4.795000E-06,+9.574999451E-03
-4.790000E-06,+9.574999451E-03
-4.785000E-06,+10.824999423E-03
-4.780000E-06,+10.199999437E-03
-4.775000E-06,+10.824999423E-03
-4.770000E-06,+10.199999437E-03
-4.765000E-06,+9.574999451E-03
-4.760000E-06,+10.199999437E-03
-4.755000E-06,+9.574999451E-03
-4.750000E-06,+10.199999437E-03
-4.745000E-06,+10.824999423E-03
-4.740000E-06,+10.199999437E-03
-4.735000E-06,+10.199999437E-03
-4.730000E-06,+10.199999437E-03
-4.725000E-06,+9.574999451E-03
-4.720000E-06,+10.199999437E-03
-4.715000E-06,+10.199999437E-03
-4.710000E-06,+10.199999437E-03
-4.705000E-06,+9.574999451E-03
-4.700000E-06,+10.199999437E-03
-4.695000E-06,+10.824999423E-03
-4.690000E-06,+10.824999423E-03
-4.685000E-06,+9.574999451E-03
-4.680000E-06,+10.824999423E-03
-4.675000E-06,+10.199999437E-03
-4.670000E-06,+10.199999437E-03
-4.665000E-06,+9.574999451E-03
-4.660000E-06,+10.199999437E-03
-4.655000E-06,+10.199999437E-03
-4.650000E-06,+10.199999437E-03
-4.645000E-06,+9.574999451E-03
-4.640000E-06,+10.199999437E-03
-4.635000E-06,+10.199999437E-03
-4.630000E-06,+10.199999437E-03
-4.625000E-06,+10.199999437E-03
-4.620000E-06,+10.199999437E-03
-4.615000E-06,+10.199999437E-03
-4.610000E-06,+10.199999437E-03
-4.605000E-06,+9.574999451E-03
-4.600000E-06,+10.824999423E-03
-4.595000E-06,+9.574999451E-03
-4.590000E-06,+9.574999451E-03
-4.585000E-06,+9.574999451E-03
-4.580000E-06,+10.199999437E-03
-4.575000E-06,+10.199999437E-03
-4.570000E-06,+9.574999451E-03
-4.565000E-06,+9.574999451E-03
-4.560000E-06,+10.199999437E-03
-4.555000E-06,+9.574999451E-03
-4.550000E-06,+9.574999451E-03
-4.545000E-06,+10.199999437E-03
-4.540000E-06,+10.199999437E-03
-4.535000E-06,+10.199999437E-03
-4.530000E-06,+9.574999451E-03
-4.525000E-06,+9.574999451E-03
-4.520000E-06,+10.199999437E-03
-4.515000E-06,+8.949999465E-03
-4.510000E-06,+9.574999451E-03
-4.505000E-06,+8.949999465E-03
-4.500000E-06,+10.199999437E-03
-4.495000E-06,+9.574999451E-03
-4.490000E-06,+10.199999437E-03
-4.485000E-06,+9.574999451E-03
-4.480000E-06,+10.199999437E-03
-4.475000E-06,+9.574999451E-03
-4.470000E-06,+10.199999437E-03
-4.465000E-06,+8.949999465E-03
-4.460000E-06,+10.199999437E-03
-4.455000E-06,+10.199999437E-03
-4.450000E-06,+10.199999437E-03
-4.445000E-06,+8.949999465E-03
-4.440000E-06,+10.199999437E-03
-4.435000E-06,+9.574999451E-03
-4.430000E-06,+9.574999451E-03
-4.425000E-06,+9.574999451E-03
-4.420000E-06,+10.199999437E-03
-4.415000E-06,+10.199999437E-03
-4.410000E-06,+8.949999465E-03
-4.405000E-06,+8.949999465E-03
-4.400000E-06,+9.574999451E-03
-4.395000E-06,+9.574999451E-03
-4.390000E-06,+10.199999437E-03
-4.385000E-06,+8.949999465E-03
-4.380000E-06,+10.199999437E-03
-4.375000E-06,+9.574999451E-03
-4.370000E-06,+9.574999451E-03
-4.365000E-06,+8.949999465E-03
-4.360000E-06,+10.199999437E-03
-4.355000E-06,+9.574999451E-03
-4.350000E-06,+9.574999451E-03
-4.345000E-06,+8.949999465E-03
-4.340000E-06,+10.199999437E-03
-4.335000E-06,+9.574999451E-03
-4.330000E-06,+9.574999451E-03
-4.325000E-06,+8.949999465E-03
-4.320000E-06,+10.199999437E-03
-4.315000E-06,+8.949999465E-03
-4.310000E-06,+9.574999451E-03
-4.305000E-06,+8.324999479E-03
-4.300000E-06,+9.574999451E-03
-4.295000E-06,+9.574999451E-03
-4.290000E-06,+9.574999451E-03
-4.285000E-06,+9.574999451E-03
-4.280000E-06,+9.574999451E-03
-4.275000E-06,+9.574999451E-03
-4.270000E-06,+9.574999451E-03
-4.265000E-06,+8.324999479E-03
-4.260000E-06,+9.574999451E-03
-4.255000E-06,+9.574999451E-03
-4.250000E-06,+8.949999465E-03
-4.245000E-06,+7.699999493E-03
-4.240000E-06,+10.199999437E-03
-4.235000E-06,+8.324999479E-03
-4.230000E-06,+9.574999451E-03
-4.225000E-06,+9.574999451E-03
-4.220000E-06,+9.574999451E-03
-4.215000E-06,+9.574999451E-03
-4.210000E-06,+8.949999465E-03
-4.205000E-06,+8.949999465E-03
-4.200000E-06,+9.574999451E-03
-4.195000E-06,+8.949999465E-03
-4.190000E-06,+8.949999465E-03
-4.185000E-06,+8.324999479E-03
-4.180000E-06,+9.574999451E-03
-4.175000E-06,+9.574999451E-03
-4.170000E-06,+8.949999465E-03
-4.165000E-06,+7.699999493E-03
-4.160000E-06,+8.949999465E-03
-4.155000E-06,+8.949999465E-03
-4.150000E-06,+8.324999479E-03
-4.145000E-06,+8.324999479E-03
-4.140000E-06,+7.699999493E-03
-4.135000E-06,+8.949999465E-03
-4.130000E-06,+7.699999493E-03
-4.125000E-06,+8.324999479E-03
-4.120000E-06,+8.949999465E-03
-4.115000E-06,+7.699999493E-03
-4.110000E-06,+8.324999479E-03
-4.105000E-06,+8.949999465E-03
-4.100000E-06,+8.324999479E-03
-4.095000E-06,+8.324999479E-03
-4.090000E-06,+7.699999493E-03
-4.085000E-06,+7.074999507E-03
-4.080000E-06,+7.699999493E-03
-4.075000E-06,+7.699999493E-03
-4.070000E-06,+7.699999493E-03
-4.065000E-06,+7.699999493E-03
-4.060000E-06,+8.324999479E-03
-4.055000E-06,+8.324999479E-03
-4.050000E-06,+7.074999507E-03
-4.045000E-06,+7.074999507E-03
-4.040000E-06,+7.074999507E-03
-4.035000E-06,+6.449999521E-03
-4.030000E-06,+7.074999507E-03
-4.025000E-06,+7.074999507E-03
-4.020000E-06,+7.074999507E-03
-4.015000E-06,+7.699999493E-03
-4.010000E-06,+6.449999521E-03
-4.005000E-06,+6.449999521E-03
-4.000000E-06,+7.074999507E-03
-3.995000E-06,+6.449999521E-03
-3.990000E-06,+7.074999507E-03
-3.985000E-06,+6.449999521E-03
-3.980000E-06,+7.699999493E-03
-3.975000E-06,+7.699999493E-03
-3.970000E-06,+6.449999521E-03
-3.965000E-06,+6.449999521E-03
-3.960000E-06,+7.699999493E-03
-3.955000E-06,+6.449999521E-03
-3.950000E-06,+7.074999507E-03
-3.945000E-06,+7.699999493E-03
-3.940000E-06,+7.699999493E-03
-3.935000E-06,+7.074999507E-03
-3.930000E-06,+7.074999507E-03
-3.925000E-06,+6.449999521E-03
-3.920000E-06,+7.074999507E-03
-3.915000E-06,+6.449999521E-03
-3.910000E-06,+6.449999521E-03
-3.905000E-06,+7.699999493E-03
-3.900000E-06,+7.074999507E-03
-3.895000E-06,+6.449999521E-03
-3.890000E-06,+6.449999521E-03
-3.885000E-06,+6.449999521E-03
-3.880000E-06,+7.074999507E-03
-3.875000E-06,+6.449999521E-03
-3.870000E-06,+6.449999521E-03
-3.865000E-06,+6.449999521E-03
-3.860000E-06,+7.074999507E-03
-3.855000E-06,+7.074999507E-03
-3.850000E-06,+6.449999521E-03
-3.845000E-06,+5.824999535E-03
-3.840000E-06,+6.449999521E-03
-3.835000E-06,+5.199999549E-03
-3.830000E-06,+6.449999521E-03
-3.825000E-06,+6.449999521E-03
-3.820000E-06,+6.449999521E-03
-3.815000E-06,+7.074999507E-03
-3.810000E-06,+7.074999507E-03
-3.805000E-06,+6.449999521E-03
-3.800000E-06,+6.449999521E-03
-3.795000E-06,+6.449999521E-03
-3.790000E-06,+6.449999521E-03
-3.785000E-06,+7.699999493E-03
-3.780000E-06,+7.699999493E-03
-3.775000E-06,+7.074999507E-03
-3.770000E-06,+6.449999521E-03
-3.765000E-06,+6.449999521E-03
-3.760000E-06,+7.074999507E-03
-3.755000E-06,+5.824999535E-03
-3.750000E-06,+7.074999507E-03
-3.745000E-06,+7.074999507E-03
-3.740000E-06,+7.074999507E-03
-3.735000E-06,+6.449999521E-03
-3.730000E-06,+6.449999521E-03
-3.725000E-06,+6.449999521E-03
-3.720000E-06,+7.074999507E-03
-3.715000E-06,+5.824999535E-03
-3.710000E-06,+6.449999521E-03
-3.705000E-06,+6.449999521E-03
-3.700000E-06,+6.449999521E-03
-3.695000E-06,+7.074999507E-03
-3.690000E-06,+6.449999521E-03
-3.685000E-06,+5.824999535E-03
-3.680000E-06,+7.074999507E-03
-3.675000E-06,+6.449999521E-03
-3.670000E-06,+7.074999507E-03
-3.665000E-06,+7.699999493E-03
-3.660000E-06,+7.074999507E-03
-3.655000E-06,+6.449999521E-03
-3.650000E-06,+6.449999521E-03
-3.645000E-06,+5.824999535E-03
-3.640000E-06,+7.074999507E-03
-3.635000E-06,+6.449999521E-03
-3.630000E-06,+6.449999521E-03
-3.625000E-06,+7.699999493E-03
-3.620000E-06,+7.074999507E-03
-3.615000E-06,+7.074999507E-03
-3.610000E-06,+5.824999535E-03
-3.605000E-06,+6.449999521E-03
-3.600000E-06,+6.449999521E-03
-3.595000E-06,+6.449999521E-03
-3.590000E-06,+6.449999521E-03
-3.585000E-06,+7.074999507E-03
-3.580000E-06,+7.074999507E-03
-3.575000E-06,+6.449999521E-03
-3.570000E-06,+6.449999521E-03
-3.565000E-06,+6.449999521E-03
-3.560000E-06,+6.449999521E-03
-3.555000E-06,+5.824999535E-03
-3.550000E-06,+6.449999521E-03
-3.545000E-06,+7.074999507E-03
-3.540000E-06,+7.074999507E-03
-3.535000E-06,+6.449999521E-03
-3.530000E-06,+6.449999521E-03
-3.525000E-06,+5.824999535E-03
-3.520000E-06,+6.449999521E-03
-3.515000E-06,+5.824999535E-03
-3.510000E-06,+6.449999521E-03
-3.505000E-06,+5.824999535E-03
-3.500000E-06,+7.074999507E-03
-3.495000E-06,+7.074999507E-03
-3.490000E-06,+6.449999521E-03
-3.485000E-06,+5.824999535E-03
-3.480000E-06,+6.449999521E-03
-3.475000E-06,+5.199999549E-03
-3.470000E-06,+6.449999521E-03
-3.465000E-06,+6.449999521E-03
-3.460000E-06,+6.449999521E-03
-3.455000E-06,+7.074999507E-03
-3.450000E-06,+6.449999521E-03
-3.445000E-06,+6.449999521E-03
-3.440000E-06,+7.074999507E-03
-3.435000E-06,+5.824999535E-03
-3.430000E-06,+6.449999521E-03
-3.425000E-06,+6.449999521E-03
-3.420000E-06,+6.449999521E-03
-3.415000E-06,+7.074999507E-03
-3.410000E-06,+6.449999521E-03
-3.405000E-06,+6.449999521E-03
-3.400000E-06,+6.449999521E-03
-3.395000E-06,+6.449999521E-03
-3.390000E-06,+7.074999507E-03
-3.385000E-06,+5.824999535E-03
-3.380000E-06,+6.449999521E-03
-3.375000E-06,+7.074999507E-03
-3.370000E-06,+6.449999521E-03
-3.365000E-06,+5.824999535E-03
-3.360000E-06,+6.449999521E-03
-3.355000E-06,+5.824999535E-03
-3.350000E-06,+7.074999507E-03
-3.345000E-06,+6.449999521E-03
-3.340000E-06,+6.449999521E-03
-3.335000E-06,+7.074999507E-03
-3.330000E-06,+6.449999521E-03
-3.325000E-06,+6.449999521E-03
-3.320000E-06,+6.449999521E-03
-3.315000E-06,+6.449999521E-03
-3.310000E-06,+6.449999521E-03
-3.305000E-06,+7.074999507E-03
-3.300000E-06,+7.074999507E-03
-3.295000E-06,+6.449999521E-03
-3.290000E-06,+6.449999521E-03
-3.285000E-06,+6.449999521E-03
-3.280000E-06,+7.074999507E-03
-3.275000E-06,+7.074999507E-03
-3.270000E-06,+7.074999507E-03
-3.265000E-06,+7.074999507E-03
-3.260000E-06,+6.449999521E-03
-3.255000E-06,+7.074999507E-03
-3.250000E-06,+6.449999521E-03
-3.245000E-06,+5.824999535E-03
-3.240000E-06,+6.449999521E-03
-3.235000E-06,+5.824999535E-03
-3.230000E-06,+7.074999507E-03
-3.225000E-06,+5.824999535E-03
-3.220000E-06,+7.074999507E-03
-3.215000E-06,+6.449999521E-03
-3.210000E-06,+5.824999535E-03
-3.205000E-06,+6.449999521E-03
-3.200000E-06,+6.449999521E-03
-3.195000E-06,+6.449999521E-03
-3.190000E-06,+6.449999521E-03
-3.185000E-06,+5.824999535E-03
-3.180000E-06,+5.824999535E-03
-3.175000E-06,+5.199999549E-03
-3.170000E-06,+3.949999576E-03
-3.165000E-06,+4.574999562E-03
-3.160000E-06,+4.574999562E-03
-3.155000E-06,+3.949999576E-03
-3.150000E-06,+4.574999562E-03
-3.145000E-06,+3.949999576E-03
-3.140000E-06,+3.949999576E-03
-3.135000E-06,+4.574999562E-03
-3.130000E-06,+3.949999576E-03
-3.125000E-06,+3.324999590E-03
-3.120000E-06,+3.949999576E-03
-3.115000E-06,+2.699999604E-03
-3.110000E-06,+2.699999604E-03
-3.105000E-06,+2.074999618E-03
-3.100000E-06,+3.324999590E-03
-3.095000E-06,+3.949999576E-03
-3.090000E-06,+3.324999590E-03
-3.085000E-06,+2.074999618E-03
-3.080000E-06,+3.324999590E-03
-3.075000E-06,+2.699999604E-03
-3.070000E-06,+2.699999604E-03
-3.065000E-06,+1.449999632E-03
-3.060000E-06,+2.074999618E-03
-3.055000E-06,+2.074999618E-03
-3.050000E-06,+1.449999632E-03
-3.045000E-06,+824.999646E-06
-3.040000E-06,+2.074999618E-03
-3.035000E-06,+1.449999632E-03
-3.030000E-06,+2.074999618E-03
-3.025000E-06,+824.999646E-06
-3.020000E-06,+1.449999632E-03
-3.015000E-06,+2.074999618E-03
-3.010000E-06,+1.449999632E-03
-3.005000E-06,+824.999646E-06
-3.000000E-06,+2.074999618E-03
-2.995000E-06,+1.449999632E-03
-2.990000E-06,+824.999646E-06
-2.985000E-06,+199.999660E-06
-2.980000E-06,+1.449999632E-03
-2.975000E-06,+824.999646E-06
-2.970000E-06,+1.449999632E-03
-2.965000E-06,+824.999646E-06
-2.960000E-06,+824.999646E-06
-2.955000E-06,+824.999646E-06
-2.950000E-06,+199.999660E-06
-2.945000E-06,+824.999646E-06
-2.940000E-06,+824.999646E-06
-2.935000E-06,+1.449999632E-03
-2.930000E-06,+824.999646E-06
-2.925000E-06,+199.999660E-06
-2.920000E-06,+824.999646E-06
-2.915000E-06,+199.999660E-06
-2.910000E-06,+199.999660E-06
-2.905000E-06,-425.000326E-06
-2.900000E-06,+824.999646E-06
-2.895000E-06,+199.999660E-06
-2.890000E-06,+199.999660E-06
-2.885000E-06,+199.999660E-06
-2.880000E-06,+199.999660E-06
-2.875000E-06,-425.000326E-06
-2.870000E-06,+199.999660E-06
-2.865000E-06,+824.999646E-06
-2.860000E-06,+199.999660E-06
-2.855000E-06,+199.999660E-06
-2.850000E-06,-425.000326E-06
-2.845000E-06,-425.000326E-06
-2.840000E-06,+199.999660E-06
-2.835000E-06,-425.000326E-06
-2.830000E-06,+199.999660E-06
-2.825000E-06,+199.999660E-06
-2.820000E-06,+199.999660E-06
-2.815000E-06,-425.000326E-06
-2.810000E-06,-425.000326E-06
-2.805000E-06,-425.000326E-06
-2.800000E-06,+199.999660E-06
-2.795000E-06,+199.999660E-06
-2.790000E-06,+199.999660E-06
-2.785000E-06,+199.999660E-06
-2.780000E-06,-425.000326E-06
-2.775000E-06,+199.999660E-06
-2.770000E-06,-1.050000312E-03
-2.765000E-06,-1.050000312E-03
-2.760000E-06,+199.999660E-06
-2.755000E-06,-425.000326E-06
-2.750000E-06,-425.000326E-06
-2.745000E-06,-425.000326E-06
-2.740000E-06,-1.050000312E-03
-2.735000E-06,+199.999660E-06
-2.730000E-06,-425.000326E-06
-2.725000E-06,-425.000326E-06
-2.720000E-06,+199.999660E-06
-2.715000E-06,-1.050000312E-03
-2.710000E-06,+199.999660E-06
-2.705000E-06,-1.050000312E-03
-2.700000E-06,-425.000326E-06
-2.695000E-06,+824.999646E-06
-2.690000E-06,-425.000326E-06
-2.685000E-06,-425.000326E-06
-2.680000E-06,+199.999660E-06
-2.675000E-06,-425.000326E-06
-2.670000E-06,+199.999660E-06
-2.665000E-06,+199.999660E-06
-2.660000E-06,-425.000326E-06
-2.655000E-06,+199.999660E-06
-2.650000E-06,-1.050000312E-03
-2.645000E-06,-425.000326E-06
-2.640000E-06,+199.999660E-06
-2.635000E-06,-1.675000298E-03
-2.630000E-06,-425.000326E-06
-2.625000E-06,+824.999646E-06
-2.620000E-06,-425.000326E-06
-2.615000E-06,+199.999660E-06
-2.610000E-06,-425.000326E-06
-2.605000E-06,-425.000326E-06
-2.600000E-06,+199.999660E-06
-2.595000E-06,-425.000326E-06
-2.590000E-06,-425.000326E-06
-2.585000E-06,+824.999646E-06
-2.580000E-06,+199.999660E-06
-2.575000E-06,+199.999660E-06
-2.570000E-06,-425.000326E-06
-2.565000E-06,-1.050000312E-03
-2.560000E-06,+199.999660E-06
-2.555000E-06,-425.000326E-06
-2.550000E-06,+199.999660E-06
-2.545000E-06,+199.999660E-06
-2.540000E-06,-425.000326E-06
-2.535000E-06,+199.999660E-06
-2.530000E-06,-1.050000312E-03
-2.525000E-06,-1.675000298E-03
-2.520000E-06,+199.999660E-06
-2.515000E-06,-425.000326E-06
-2.510000E-06,-425.000326E-06
-2.505000E-06,-1.050000312E-03
-2.500000E-06,+199.999660E-06
-2.495000E-06,-425.000326E-06
-2.490000E-06,-1.050000312E-03
-2.485000E-06,-425.000326E-06
-2.480000E-06,-425.000326E-06
-2.475000E-06,-1.050000312E-03
-2.470000E-06,-1.050000312E-03
-2.465000E-06,+199.999660E-06
-2.460000E-06,-425.000326E-06
-2.455000E-06,-425.000326E-06
