x-axis,1
second,Volt
-126.3000E-06,+48.0124986E-03
-126.1000E-06,+47.3874986E-03
-125.9000E-06,+47.0749986E-03
-125.7000E-06,+47.6999986E-03
-125.5000E-06,+48.3249986E-03
-125.3000E-06,+48.0124986E-03
-125.1000E-06,+47.6999986E-03
-124.9000E-06,+47.6999986E-03
-124.7000E-06,+47.6999986E-03
-124.5000E-06,+47.6999986E-03
-124.3000E-06,+47.6999986E-03
-124.1000E-06,+47.6999986E-03
-123.9000E-06,+47.3874986E-03
-123.7000E-06,+47.0749986E-03
-123.5000E-06,+46.7624986E-03
-123.3000E-06,+47.0749986E-03
-123.1000E-06,+47.6999986E-03
-122.9000E-06,+47.6999986E-03
-122.7000E-06,+47.3874986E-03
-122.5000E-06,+47.3874986E-03
-122.3000E-06,+47.6999986E-03
-122.1000E-06,+47.6999986E-03
-121.9000E-06,+47.6999986E-03
-121.7000E-06,+47.6999986E-03
-121.5000E-06,+47.6999986E-03
-121.3000E-06,+48.0124986E-03
-121.1000E-06,+48.0124986E-03
-120.9000E-06,+47.6999986E-03
-120.7000E-06,+47.6999986E-03
-120.5000E-06,+47.6999986E-03
-120.3000E-06,+48.0124986E-03
-120.1000E-06,+48.3249986E-03
-119.9000E-06,+48.0124986E-03
-119.7000E-06,+47.3874986E-03
-119.5000E-06,+47.3874986E-03
-119.3000E-06,+47.6999986E-03
-119.1000E-06,+47.6999986E-03
-118.9000E-06,+47.6999986E-03
-118.7000E-06,+47.3874986E-03
-118.5000E-06,+47.3874986E-03
-118.3000E-06,+47.3874986E-03
-118.1000E-06,+47.3874986E-03
-117.9000E-06,+47.3874986E-03
-117.7000E-06,+47.0749986E-03
-117.5000E-06,+47.3874986E-03
-117.3000E-06,+47.6999986E-03
-117.1000E-06,+47.3874986E-03
-116.9000E-06,+47.0749986E-03
-116.7000E-06,+47.3874986E-03
-116.5000E-06,+48.0124986E-03
-116.3000E-06,+48.3249986E-03
-116.1000E-06,+48.0124986E-03
-115.9000E-06,+48.0124986E-03
-115.7000E-06,+48.3249986E-03
-115.5000E-06,+47.6999986E-03
-115.3000E-06,+47.0749986E-03
-115.1000E-06,+47.0749986E-03
-114.9000E-06,+47.0749986E-03
-114.7000E-06,+47.0749986E-03
-114.5000E-06,+47.0749986E-03
-114.3000E-06,+47.0749986E-03
-114.1000E-06,+47.0749986E-03
-113.9000E-06,+47.0749986E-03
-113.7000E-06,+47.3874986E-03
-113.5000E-06,+47.3874986E-03
-113.3000E-06,+47.3874986E-03
-113.1000E-06,+47.6999986E-03
-112.9000E-06,+47.6999986E-03
-112.7000E-06,+47.6999986E-03
-112.5000E-06,+47.6999986E-03
-112.3000E-06,+47.3874986E-03
-112.1000E-06,+47.0749986E-03
-111.9000E-06,+47.0749986E-03
-111.7000E-06,+47.3874986E-03
-111.5000E-06,+47.3874986E-03
-111.3000E-06,+47.3874986E-03
-111.1000E-06,+47.6999986E-03
-110.9000E-06,+47.6999986E-03
-110.7000E-06,+47.6999986E-03
-110.5000E-06,+48.0124986E-03
-110.3000E-06,+48.3249986E-03
-110.1000E-06,+48.3249986E-03
-109.9000E-06,+48.3249986E-03
-109.7000E-06,+48.3249986E-03
-109.5000E-06,+48.0124986E-03
-109.3000E-06,+48.0124986E-03
-109.1000E-06,+48.0124986E-03
-108.9000E-06,+47.0749986E-03
-108.7000E-06,+46.4499986E-03
-108.5000E-06,+46.4499986E-03
-108.3000E-06,+46.1374986E-03
-108.1000E-06,+45.5124986E-03
-107.9000E-06,+44.8874987E-03
-107.7000E-06,+44.5749987E-03
-107.5000E-06,+44.8874987E-03
-107.3000E-06,+44.8874987E-03
-107.1000E-06,+44.8874987E-03
-106.9000E-06,+45.5124986E-03
-106.7000E-06,+45.5124986E-03
-106.5000E-06,+44.8874987E-03
-106.3000E-06,+44.8874987E-03
-106.1000E-06,+45.5124986E-03
-105.9000E-06,+45.5124986E-03
-105.7000E-06,+45.1999987E-03
-105.5000E-06,+45.1999987E-03
-105.3000E-06,+44.8874987E-03
-105.1000E-06,+44.5749987E-03
-104.9000E-06,+44.5749987E-03
-104.7000E-06,+44.2624987E-03
-104.5000E-06,+44.2624987E-03
-104.3000E-06,+44.2624987E-03
-104.1000E-06,+44.2624987E-03
-103.9000E-06,+44.2624987E-03
-103.7000E-06,+43.9499987E-03
-103.5000E-06,+44.2624987E-03
-103.3000E-06,+44.5749987E-03
-103.1000E-06,+44.2624987E-03
-102.9000E-06,+43.6374987E-03
-102.7000E-06,+43.6374987E-03
-102.5000E-06,+43.9499987E-03
-102.3000E-06,+44.2624987E-03
-102.1000E-06,+44.2624987E-03
-101.9000E-06,+44.2624987E-03
-101.7000E-06,+44.5749987E-03
-101.5000E-06,+44.5749987E-03
-101.3000E-06,+44.5749987E-03
-101.1000E-06,+44.8874987E-03
-100.9000E-06,+44.8874987E-03
-100.7000E-06,+44.8874987E-03
-100.5000E-06,+44.8874987E-03
-100.3000E-06,+44.8874987E-03
-100.1000E-06,+44.8874987E-03
-99.9000E-06,+44.5749987E-03
-99.7000E-06,+44.8874987E-03
-99.5000E-06,+45.1999987E-03
-99.3000E-06,+44.5749987E-03
-99.1000E-06,+43.9499987E-03
-98.9000E-06,+43.6374987E-03
-98.7000E-06,+43.9499987E-03
-98.5000E-06,+44.2624987E-03
-98.3000E-06,+43.9499987E-03
-98.1000E-06,+43.9499987E-03
-97.9000E-06,+43.9499987E-03
-97.7000E-06,+43.9499987E-03
-97.5000E-06,+44.2624987E-03
-97.3000E-06,+44.2624987E-03
-97.1000E-06,+43.6374987E-03
-96.9000E-06,+43.0124987E-03
-96.7000E-06,+43.0124987E-03
-96.5000E-06,+43.6374987E-03
-96.3000E-06,+43.9499987E-03
-96.1000E-06,+43.6374987E-03
-95.9000E-06,+43.6374987E-03
-95.7000E-06,+43.3249987E-03
-95.5000E-06,+42.6999987E-03
-95.3000E-06,+42.3874987E-03
-95.1000E-06,+42.0749987E-03
-94.9000E-06,+42.3874987E-03
-94.7000E-06,+42.3874987E-03
-94.5000E-06,+42.3874987E-03
-94.3000E-06,+41.7624987E-03
-94.1000E-06,+41.1374987E-03
-93.9000E-06,+41.4499987E-03
-93.7000E-06,+41.4499987E-03
-93.5000E-06,+41.4499987E-03
-93.3000E-06,+41.1374987E-03
-93.1000E-06,+40.8249988E-03
-92.9000E-06,+41.1374987E-03
-92.7000E-06,+41.4499987E-03
-92.5000E-06,+41.4499987E-03
-92.3000E-06,+41.4499987E-03
-92.1000E-06,+41.4499987E-03
-91.9000E-06,+41.4499987E-03
-91.7000E-06,+41.4499987E-03
-91.5000E-06,+41.4499987E-03
-91.3000E-06,+41.4499987E-03
-91.1000E-06,+41.4499987E-03
-90.9000E-06,+41.4499987E-03
-90.7000E-06,+41.4499987E-03
-90.5000E-06,+41.1374987E-03
-90.3000E-06,+40.8249988E-03
-90.1000E-06,+40.1999988E-03
-89.9000E-06,+39.8874988E-03
-89.7000E-06,+39.8874988E-03
-89.5000E-06,+39.8874988E-03
-89.3000E-06,+40.1999988E-03
-89.1000E-06,+40.1999988E-03
-88.9000E-06,+40.1999988E-03
-88.7000E-06,+40.1999988E-03
-88.5000E-06,+39.8874988E-03
-88.3000E-06,+39.8874988E-03
-88.1000E-06,+40.5124988E-03
-87.9000E-06,+40.5124988E-03
-87.7000E-06,+39.8874988E-03
-87.5000E-06,+39.8874988E-03
-87.3000E-06,+39.8874988E-03
-87.1000E-06,+39.8874988E-03
-86.9000E-06,+40.1999988E-03
-86.7000E-06,+39.8874988E-03
-86.5000E-06,+39.2624988E-03
-86.3000E-06,+38.9499988E-03
-86.1000E-06,+38.6374988E-03
-85.9000E-06,+38.0124988E-03
-85.7000E-06,+38.0124988E-03
-85.5000E-06,+38.0124988E-03
-85.3000E-06,+38.0124988E-03
-85.1000E-06,+38.3249988E-03
-84.9000E-06,+38.3249988E-03
-84.7000E-06,+38.3249988E-03
-84.5000E-06,+38.3249988E-03
-84.3000E-06,+37.6999988E-03
-84.1000E-06,+36.7624988E-03
-83.9000E-06,+36.1374989E-03
-83.7000E-06,+35.8249989E-03
-83.5000E-06,+35.8249989E-03
-83.3000E-06,+36.1374989E-03
-83.1000E-06,+37.0749988E-03
-82.9000E-06,+38.0124988E-03
-82.7000E-06,+38.3249988E-03
-82.5000E-06,+38.6374988E-03
-82.3000E-06,+38.9499988E-03
-82.1000E-06,+38.9499988E-03
-81.9000E-06,+38.9499988E-03
-81.7000E-06,+38.9499988E-03
-81.5000E-06,+39.2624988E-03
-81.3000E-06,+39.2624988E-03
-81.1000E-06,+39.2624988E-03
-80.9000E-06,+39.5749988E-03
-80.7000E-06,+39.8874988E-03
-80.5000E-06,+40.8249988E-03
-80.3000E-06,+40.8249988E-03
-80.1000E-06,+39.5749988E-03
-79.9000E-06,+38.9499988E-03
-79.7000E-06,+38.9499988E-03
-79.5000E-06,+38.9499988E-03
-79.3000E-06,+38.9499988E-03
-79.1000E-06,+38.9499988E-03
-78.9000E-06,+38.6374988E-03
-78.7000E-06,+38.6374988E-03
-78.5000E-06,+38.9499988E-03
-78.3000E-06,+38.9499988E-03
-78.1000E-06,+38.9499988E-03
-77.9000E-06,+39.2624988E-03
-77.7000E-06,+39.2624988E-03
-77.5000E-06,+38.9499988E-03
-77.3000E-06,+39.2624988E-03
-77.1000E-06,+39.5749988E-03
-76.9000E-06,+39.8874988E-03
-76.7000E-06,+39.8874988E-03
-76.5000E-06,+39.5749988E-03
-76.3000E-06,+39.5749988E-03
-76.1000E-06,+39.5749988E-03
-75.9000E-06,+39.2624988E-03
-75.7000E-06,+39.2624988E-03
-75.5000E-06,+39.5749988E-03
-75.3000E-06,+40.5124988E-03
-75.1000E-06,+41.4499987E-03
-74.9000E-06,+40.8249988E-03
-74.7000E-06,+40.1999988E-03
-74.5000E-06,+39.8874988E-03
-74.3000E-06,+39.5749988E-03
-74.1000E-06,+39.2624988E-03
-73.9000E-06,+38.9499988E-03
-73.7000E-06,+38.9499988E-03
-73.5000E-06,+38.9499988E-03
-73.3000E-06,+38.9499988E-03
-73.1000E-06,+38.9499988E-03
-72.9000E-06,+38.9499988E-03
-72.7000E-06,+38.9499988E-03
-72.5000E-06,+38.9499988E-03
-72.3000E-06,+39.2624988E-03
-72.1000E-06,+39.8874988E-03
-71.9000E-06,+39.8874988E-03
-71.7000E-06,+39.5749988E-03
-71.5000E-06,+39.5749988E-03
-71.3000E-06,+39.8874988E-03
-71.1000E-06,+40.1999988E-03
-70.9000E-06,+40.1999988E-03
-70.7000E-06,+39.8874988E-03
-70.5000E-06,+39.5749988E-03
-70.3000E-06,+39.2624988E-03
-70.1000E-06,+39.2624988E-03
-69.9000E-06,+39.2624988E-03
-69.7000E-06,+38.9499988E-03
-69.5000E-06,+39.2624988E-03
-69.3000E-06,+39.2624988E-03
-69.1000E-06,+38.9499988E-03
-68.9000E-06,+38.9499988E-03
-68.7000E-06,+38.9499988E-03
-68.5000E-06,+38.9499988E-03
-68.3000E-06,+38.9499988E-03
-68.1000E-06,+38.6374988E-03
-67.9000E-06,+38.0124988E-03
-67.7000E-06,+37.6999988E-03
-67.5000E-06,+37.3874988E-03
-67.3000E-06,+36.7624988E-03
-67.1000E-06,+36.1374989E-03
-66.9000E-06,+35.8249989E-03
-66.7000E-06,+35.8249989E-03
-66.5000E-06,+36.1374989E-03
-66.3000E-06,+37.0749988E-03
-66.1000E-06,+37.6999988E-03
-65.9000E-06,+37.6999988E-03
-65.7000E-06,+37.6999988E-03
-65.5000E-06,+37.3874988E-03
-65.3000E-06,+37.3874988E-03
-65.1000E-06,+38.0124988E-03
-64.9000E-06,+38.3249988E-03
-64.7000E-06,+38.3249988E-03
-64.5000E-06,+38.3249988E-03
-64.3000E-06,+38.0124988E-03
-64.1000E-06,+38.0124988E-03
-63.9000E-06,+38.0124988E-03
-63.7000E-06,+36.7624988E-03
-63.5000E-06,+35.5124989E-03
-63.3000E-06,+34.8874989E-03
-63.1000E-06,+33.9499989E-03
-62.9000E-06,+32.6999989E-03
-62.7000E-06,+32.0749989E-03
-62.5000E-06,+32.3874989E-03
-62.3000E-06,+32.6999989E-03
-62.1000E-06,+31.7624990E-03
-61.9000E-06,+30.8249990E-03
-61.7000E-06,+30.5124990E-03
-61.5000E-06,+30.5124990E-03
-61.3000E-06,+30.5124990E-03
-61.1000E-06,+30.5124990E-03
-60.9000E-06,+30.8249990E-03
-60.7000E-06,+30.8249990E-03
-60.5000E-06,+30.5124990E-03
-60.3000E-06,+30.8249990E-03
-60.1000E-06,+31.1374990E-03
-59.9000E-06,+30.8249990E-03
-59.7000E-06,+30.8249990E-03
-59.5000E-06,+30.8249990E-03
-59.3000E-06,+30.5124990E-03
-59.1000E-06,+30.1999990E-03
-58.9000E-06,+30.1999990E-03
-58.7000E-06,+30.5124990E-03
-58.5000E-06,+30.5124990E-03
-58.3000E-06,+30.1999990E-03
-58.1000E-06,+30.1999990E-03
-57.9000E-06,+29.8874990E-03
-57.7000E-06,+30.1999990E-03
-57.5000E-06,+30.5124990E-03
-57.3000E-06,+30.1999990E-03
-57.1000E-06,+29.8874990E-03
-56.9000E-06,+30.1999990E-03
-56.7000E-06,+30.5124990E-03
-56.5000E-06,+29.8874990E-03
-56.3000E-06,+29.8874990E-03
-56.1000E-06,+29.8874990E-03
-55.9000E-06,+29.5749990E-03
-55.7000E-06,+29.5749990E-03
-55.5000E-06,+29.5749990E-03
-55.3000E-06,+29.5749990E-03
-55.1000E-06,+29.5749990E-03
-54.9000E-06,+29.8874990E-03
-54.7000E-06,+29.8874990E-03
-54.5000E-06,+29.5749990E-03
-54.3000E-06,+29.5749990E-03
-54.1000E-06,+29.2624990E-03
-53.9000E-06,+28.9499990E-03
-53.7000E-06,+28.6374990E-03
-53.5000E-06,+28.3249990E-03
-53.3000E-06,+28.3249990E-03
-53.1000E-06,+28.6374990E-03
-52.9000E-06,+28.6374990E-03
-52.7000E-06,+28.6374990E-03
-52.5000E-06,+28.6374990E-03
-52.3000E-06,+28.3249990E-03
-52.1000E-06,+28.0124990E-03
-51.9000E-06,+28.0124990E-03
-51.7000E-06,+28.3249990E-03
-51.5000E-06,+28.0124990E-03
-51.3000E-06,+27.6999990E-03
-51.1000E-06,+27.3874991E-03
-50.9000E-06,+26.7624991E-03
-50.7000E-06,+27.0749991E-03
-50.5000E-06,+27.3874991E-03
-50.3000E-06,+27.0749991E-03
-50.1000E-06,+26.7624991E-03
-49.9000E-06,+26.7624991E-03
-49.7000E-06,+27.0749991E-03
-49.5000E-06,+27.0749991E-03
-49.3000E-06,+27.0749991E-03
-49.1000E-06,+26.7624991E-03
-48.9000E-06,+26.4499991E-03
-48.7000E-06,+26.4499991E-03
-48.5000E-06,+26.4499991E-03
-48.3000E-06,+26.7624991E-03
-48.1000E-06,+27.3874991E-03
-47.9000E-06,+27.3874991E-03
-47.7000E-06,+27.6999990E-03
-47.5000E-06,+28.0124990E-03
-47.3000E-06,+27.6999990E-03
-47.1000E-06,+27.6999990E-03
-46.9000E-06,+27.3874991E-03
-46.7000E-06,+27.0749991E-03
-46.5000E-06,+27.0749991E-03
-46.3000E-06,+27.0749991E-03
-46.1000E-06,+27.0749991E-03
-45.9000E-06,+27.3874991E-03
-45.7000E-06,+27.6999990E-03
-45.5000E-06,+27.3874991E-03
-45.3000E-06,+27.0749991E-03
-45.1000E-06,+26.7624991E-03
-44.9000E-06,+26.4499991E-03
-44.7000E-06,+26.4499991E-03
-44.5000E-06,+26.1374991E-03
-44.3000E-06,+25.5124991E-03
-44.1000E-06,+25.5124991E-03
-43.9000E-06,+25.5124991E-03
-43.7000E-06,+24.8874991E-03
-43.5000E-06,+24.5749991E-03
-43.3000E-06,+23.9499991E-03
-43.1000E-06,+23.3249991E-03
-42.9000E-06,+22.3874992E-03
-42.7000E-06,+20.8249992E-03
-42.5000E-06,+19.5749992E-03
-42.3000E-06,+18.6374992E-03
-42.1000E-06,+18.6374992E-03
-41.9000E-06,+18.9499992E-03
-41.7000E-06,+18.6374992E-03
-41.5000E-06,+18.3249993E-03
-41.3000E-06,+18.9499992E-03
-41.1000E-06,+20.5124992E-03
-40.9000E-06,+22.0749992E-03
-40.7000E-06,+22.6999992E-03
-40.5000E-06,+22.6999992E-03
-40.3000E-06,+22.6999992E-03
-40.1000E-06,+22.0749992E-03
-39.9000E-06,+21.4499992E-03
-39.7000E-06,+21.4499992E-03
-39.5000E-06,+21.4499992E-03
-39.3000E-06,+21.4499992E-03
-39.1000E-06,+21.1374992E-03
-38.9000E-06,+21.1374992E-03
-38.7000E-06,+21.4499992E-03
-38.5000E-06,+21.4499992E-03
-38.3000E-06,+21.4499992E-03
-38.1000E-06,+21.4499992E-03
-37.9000E-06,+21.4499992E-03
-37.7000E-06,+21.4499992E-03
-37.5000E-06,+21.4499992E-03
-37.3000E-06,+21.1374992E-03
-37.1000E-06,+20.8249992E-03
-36.9000E-06,+20.8249992E-03
-36.7000E-06,+20.8249992E-03
-36.5000E-06,+20.8249992E-03
-36.3000E-06,+20.8249992E-03
-36.1000E-06,+20.8249992E-03
-35.9000E-06,+20.8249992E-03
-35.7000E-06,+20.8249992E-03
-35.5000E-06,+20.8249992E-03
-35.3000E-06,+20.8249992E-03
-35.1000E-06,+20.8249992E-03
-34.9000E-06,+19.8874992E-03
-34.7000E-06,+18.6374992E-03
-34.5000E-06,+18.3249993E-03
-34.3000E-06,+18.0124993E-03
-34.1000E-06,+18.0124993E-03
-33.9000E-06,+18.0124993E-03
-33.7000E-06,+17.6999993E-03
-33.5000E-06,+17.6999993E-03
-33.3000E-06,+17.6999993E-03
-33.1000E-06,+18.0124993E-03
-32.9000E-06,+18.3249993E-03
-32.7000E-06,+18.0124993E-03
-32.5000E-06,+18.0124993E-03
-32.3000E-06,+18.3249993E-03
-32.1000E-06,+18.0124993E-03
-31.9000E-06,+18.0124993E-03
-31.7000E-06,+18.6374992E-03
-31.5000E-06,+18.6374992E-03
-31.3000E-06,+18.0124993E-03
-31.1000E-06,+17.6999993E-03
-30.9000E-06,+17.3874993E-03
-30.7000E-06,+17.0749993E-03
-30.5000E-06,+17.0749993E-03
-30.3000E-06,+16.7624993E-03
-30.1000E-06,+16.4499993E-03
-29.9000E-06,+16.4499993E-03
-29.7000E-06,+16.4499993E-03
-29.5000E-06,+16.4499993E-03
-29.3000E-06,+16.4499993E-03
-29.1000E-06,+16.4499993E-03
-28.9000E-06,+15.8249993E-03
-28.7000E-06,+15.5124993E-03
-28.5000E-06,+15.5124993E-03
-28.3000E-06,+15.5124993E-03
-28.1000E-06,+15.8249993E-03
-27.9000E-06,+15.8249993E-03
-27.7000E-06,+16.1374993E-03
-27.5000E-06,+16.4499993E-03
-27.3000E-06,+16.1374993E-03
-27.1000E-06,+15.8249993E-03
-26.9000E-06,+15.5124993E-03
-26.7000E-06,+15.1999993E-03
-26.5000E-06,+15.1999993E-03
-26.3000E-06,+14.2624993E-03
-26.1000E-06,+13.0124994E-03
-25.9000E-06,+12.0749994E-03
-25.7000E-06,+11.1374994E-03
-25.5000E-06,+10.8249994E-03
-25.3000E-06,+10.5124994E-03
-25.1000E-06,+10.1999994E-03
-24.9000E-06,+9.8874994E-03
-24.7000E-06,+9.5749995E-03
-24.5000E-06,+9.8874994E-03
-24.3000E-06,+9.8874994E-03
-24.1000E-06,+9.8874994E-03
-23.9000E-06,+10.1999994E-03
-23.7000E-06,+10.1999994E-03
-23.5000E-06,+9.8874994E-03
-23.3000E-06,+9.8874994E-03
-23.1000E-06,+10.1999994E-03
-22.9000E-06,+10.1999994E-03
-22.7000E-06,+9.8874994E-03
-22.5000E-06,+9.8874994E-03
-22.3000E-06,+10.1999994E-03
-22.1000E-06,+10.5124994E-03
-21.9000E-06,+10.1999994E-03
-21.7000E-06,+9.8874994E-03
-21.5000E-06,+9.8874994E-03
-21.3000E-06,+9.5749995E-03
-21.1000E-06,+9.8874994E-03
-20.9000E-06,+9.8874994E-03
-20.7000E-06,+9.2624995E-03
-20.5000E-06,+9.2624995E-03
-20.3000E-06,+9.8874994E-03
-20.1000E-06,+9.8874994E-03
-19.9000E-06,+9.5749995E-03
-19.7000E-06,+9.2624995E-03
-19.5000E-06,+8.9499995E-03
-19.3000E-06,+8.9499995E-03
-19.1000E-06,+8.9499995E-03
-18.9000E-06,+8.6374995E-03
-18.7000E-06,+8.6374995E-03
-18.5000E-06,+8.9499995E-03
-18.3000E-06,+8.9499995E-03
-18.1000E-06,+8.6374995E-03
-17.9000E-06,+8.3249995E-03
-17.7000E-06,+8.6374995E-03
-17.5000E-06,+8.6374995E-03
-17.3000E-06,+8.6374995E-03
-17.1000E-06,+8.9499995E-03
-16.9000E-06,+8.9499995E-03
-16.7000E-06,+8.6374995E-03
-16.5000E-06,+8.3249995E-03
-16.3000E-06,+8.3249995E-03
-16.1000E-06,+8.0124995E-03
-15.9000E-06,+8.0124995E-03
-15.7000E-06,+8.0124995E-03
-15.5000E-06,+7.6999995E-03
-15.3000E-06,+8.0124995E-03
-15.1000E-06,+8.3249995E-03
-14.9000E-06,+8.3249995E-03
-14.7000E-06,+8.3249995E-03
-14.5000E-06,+8.9499995E-03
-14.3000E-06,+9.2624995E-03
-14.1000E-06,+8.6374995E-03
-13.9000E-06,+8.6374995E-03
-13.7000E-06,+8.6374995E-03
-13.5000E-06,+8.9499995E-03
-13.3000E-06,+9.2624995E-03
-13.1000E-06,+9.2624995E-03
-12.9000E-06,+8.9499995E-03
-12.7000E-06,+8.6374995E-03
-12.5000E-06,+9.2624995E-03
-12.3000E-06,+9.2624995E-03
-12.1000E-06,+8.6374995E-03
-11.9000E-06,+8.3249995E-03
-11.7000E-06,+8.3249995E-03
-11.5000E-06,+8.3249995E-03
-11.3000E-06,+8.6374995E-03
-11.1000E-06,+8.6374995E-03
-10.9000E-06,+8.6374995E-03
-10.7000E-06,+8.3249995E-03
-10.5000E-06,+7.6999995E-03
-10.3000E-06,+7.6999995E-03
-10.1000E-06,+7.3874995E-03
-9.9000E-06,+7.3874995E-03
-9.7000E-06,+7.6999995E-03
-9.5000E-06,+7.3874995E-03
-9.3000E-06,+7.3874995E-03
-9.1000E-06,+7.3874995E-03
-8.9000E-06,+7.0749995E-03
-8.7000E-06,+7.0749995E-03
-8.5000E-06,+7.0749995E-03
-8.3000E-06,+7.0749995E-03
-8.1000E-06,+7.0749995E-03
-7.9000E-06,+7.3874995E-03
-7.7000E-06,+7.3874995E-03
-7.5000E-06,+7.0749995E-03
-7.3000E-06,+7.0749995E-03
-7.1000E-06,+7.0749995E-03
-6.9000E-06,+6.4499995E-03
-6.7000E-06,+6.1374995E-03
-6.5000E-06,+6.4499995E-03
-6.3000E-06,+6.4499995E-03
-6.1000E-06,+6.4499995E-03
-5.9000E-06,+6.4499995E-03
-5.7000E-06,+6.4499995E-03
-5.5000E-06,+6.4499995E-03
-5.3000E-06,+7.0749995E-03
-5.1000E-06,+7.3874995E-03
-4.9000E-06,+7.0749995E-03
-4.7000E-06,+7.0749995E-03
-4.5000E-06,+7.0749995E-03
-4.3000E-06,+7.0749995E-03
-4.1000E-06,+7.0749995E-03
-3.9000E-06,+7.0749995E-03
-3.7000E-06,+7.0749995E-03
-3.5000E-06,+7.0749995E-03
-3.3000E-06,+6.7624995E-03
-3.1000E-06,+6.7624995E-03
-2.9000E-06,+6.7624995E-03
-2.7000E-06,+6.4499995E-03
-2.5000E-06,+6.4499995E-03
-2.3000E-06,+6.4499995E-03
-2.1000E-06,+6.7624995E-03
-1.9000E-06,+7.0749995E-03
-1.7000E-06,+7.0749995E-03
-1.5000E-06,+6.7624995E-03
-1.3000E-06,+6.7624995E-03
-1.1000E-06,+7.3874995E-03
-900.0E-09,+7.3874995E-03
-700.0E-09,+5.5124995E-03
-500.0E-09,+3.0124996E-03
-300.0E-09,+2.0749996E-03
-100.0E-09,+2.0749996E-03
+100.0E-09,+1.7624996E-03
+300.0E-09,+1.4499996E-03
+500.0E-09,+1.7624996E-03
+700.0E-09,+1.7624996E-03
+900.0E-09,+1.1374996E-03
+1.1000E-06,+1.1374996E-03
+1.3000E-06,+1.7624996E-03
+1.5000E-06,+2.0749996E-03
+1.7000E-06,+2.0749996E-03
+1.9000E-06,+2.0749996E-03
+2.1000E-06,+2.0749996E-03
+2.3000E-06,+1.4499996E-03
+2.5000E-06,+1.1374996E-03
+2.7000E-06,+1.4499996E-03
+2.9000E-06,+1.1374996E-03
+3.1000E-06,+1.1374996E-03
+3.3000E-06,+1.4499996E-03
+3.5000E-06,+1.1374996E-03
+3.7000E-06,+1.1374996E-03
+3.9000E-06,+1.4499996E-03
+4.1000E-06,+1.1374996E-03
+4.3000E-06,+1.1374996E-03
+4.5000E-06,+1.4499996E-03
+4.7000E-06,+1.4499996E-03
+4.9000E-06,+1.1374996E-03
+5.1000E-06,+1.4499996E-03
+5.3000E-06,+1.7624996E-03
+5.5000E-06,+1.1374996E-03
+5.7000E-06,+824.9996E-06
+5.9000E-06,+1.1374996E-03
+6.1000E-06,+1.4499996E-03
+6.3000E-06,+1.4499996E-03
+6.5000E-06,+1.4499996E-03
+6.7000E-06,+1.4499996E-03
+6.9000E-06,+1.4499996E-03
+7.1000E-06,+1.1374996E-03
+7.3000E-06,+824.9996E-06
+7.5000E-06,+824.9996E-06
+7.7000E-06,+824.9996E-06
+7.9000E-06,+824.9996E-06
+8.1000E-06,+824.9996E-06
+8.3000E-06,+824.9996E-06
+8.5000E-06,+1.1374996E-03
+8.7000E-06,+1.7624996E-03
+8.9000E-06,+2.0749996E-03
+9.1000E-06,+1.7624996E-03
+9.3000E-06,+824.9996E-06
+9.5000E-06,+512.4997E-06
+9.7000E-06,+512.4997E-06
+9.9000E-06,+512.4997E-06
+10.1000E-06,+824.9996E-06
+10.3000E-06,+1.1374996E-03
+10.5000E-06,+1.4499996E-03
+10.7000E-06,+1.4499996E-03
+10.9000E-06,+1.4499996E-03
+11.1000E-06,+1.4499996E-03
+11.3000E-06,+1.4499996E-03
+11.5000E-06,+1.1374996E-03
+11.7000E-06,+824.9996E-06
+11.9000E-06,+824.9996E-06
+12.1000E-06,+824.9996E-06
+12.3000E-06,+1.4499996E-03
+12.5000E-06,+1.4499996E-03
+12.7000E-06,+824.9996E-06
+12.9000E-06,+824.9996E-06
+13.1000E-06,+824.9996E-06
+13.3000E-06,+824.9996E-06
+13.5000E-06,+824.9996E-06
+13.7000E-06,+824.9996E-06
+13.9000E-06,+824.9996E-06
+14.1000E-06,+824.9996E-06
+14.3000E-06,+1.1374996E-03
+14.5000E-06,+1.1374996E-03
+14.7000E-06,+1.1374996E-03
+14.9000E-06,+1.1374996E-03
+15.1000E-06,+824.9996E-06
+15.3000E-06,+824.9996E-06
+15.5000E-06,+824.9996E-06
+15.7000E-06,+824.9996E-06
+15.9000E-06,+1.1374996E-03
+16.1000E-06,+1.1374996E-03
+16.3000E-06,+824.9996E-06
+16.5000E-06,+1.1374996E-03
+16.7000E-06,+1.4499996E-03
+16.9000E-06,+1.4499996E-03
+17.1000E-06,+1.4499996E-03
+17.3000E-06,+1.1374996E-03
+17.5000E-06,+824.9996E-06
+17.7000E-06,+824.9996E-06
+17.9000E-06,+824.9996E-06
+18.1000E-06,+824.9996E-06
+18.3000E-06,+824.9996E-06
+18.5000E-06,+1.1374996E-03
+18.7000E-06,+1.1374996E-03
+18.9000E-06,+824.9996E-06
+19.1000E-06,+824.9996E-06
+19.3000E-06,+824.9996E-06
+19.5000E-06,+824.9996E-06
+19.7000E-06,+824.9996E-06
+19.9000E-06,+824.9996E-06
+20.1000E-06,+1.1374996E-03
+20.3000E-06,+1.4499996E-03
+20.5000E-06,+1.4499996E-03
+20.7000E-06,+1.1374996E-03
+20.9000E-06,+824.9996E-06
+21.1000E-06,+824.9996E-06
+21.3000E-06,+824.9996E-06
+21.5000E-06,+824.9996E-06
+21.7000E-06,+1.1374996E-03
+21.9000E-06,+1.4499996E-03
+22.1000E-06,+1.4499996E-03
+22.3000E-06,+1.1374996E-03
+22.5000E-06,+824.9996E-06
+22.7000E-06,+824.9996E-06
+22.9000E-06,+824.9996E-06
+23.1000E-06,+512.4997E-06
+23.3000E-06,+512.4997E-06
+23.5000E-06,+512.4997E-06
+23.7000E-06,+199.9997E-06
+23.9000E-06,+199.9997E-06
+24.1000E-06,+512.4997E-06
+24.3000E-06,+512.4997E-06
+24.5000E-06,+512.4997E-06
+24.7000E-06,+512.4997E-06
+24.9000E-06,+512.4997E-06
+25.1000E-06,+1.1374996E-03
+25.3000E-06,+1.1374996E-03
+25.5000E-06,+824.9996E-06
+25.7000E-06,+824.9996E-06
+25.9000E-06,+1.1374996E-03
+26.1000E-06,+1.4499996E-03
+26.3000E-06,+1.1374996E-03
+26.5000E-06,+824.9996E-06
+26.7000E-06,+1.1374996E-03
+26.9000E-06,+1.4499996E-03
+27.1000E-06,+1.4499996E-03
+27.3000E-06,+1.4499996E-03
+27.5000E-06,+1.4499996E-03
+27.7000E-06,+1.1374996E-03
+27.9000E-06,+824.9996E-06
+28.1000E-06,+824.9996E-06
+28.3000E-06,+1.1374996E-03
+28.5000E-06,+1.1374996E-03
+28.7000E-06,+824.9996E-06
+28.9000E-06,+824.9996E-06
+29.1000E-06,+824.9996E-06
+29.3000E-06,+1.1374996E-03
+29.5000E-06,+1.1374996E-03
+29.7000E-06,+824.9996E-06
+29.9000E-06,+824.9996E-06
+30.1000E-06,+1.4499996E-03
+30.3000E-06,+1.7624996E-03
+30.5000E-06,+1.4499996E-03
+30.7000E-06,+1.4499996E-03
+30.9000E-06,+1.7624996E-03
+31.1000E-06,+2.0749996E-03
+31.3000E-06,+2.0749996E-03
+31.5000E-06,+2.0749996E-03
+31.7000E-06,+1.7624996E-03
+31.9000E-06,+1.7624996E-03
+32.1000E-06,+1.7624996E-03
+32.3000E-06,+1.4499996E-03
+32.5000E-06,+1.1374996E-03
+32.7000E-06,+1.1374996E-03
+32.9000E-06,+1.4499996E-03
+33.1000E-06,+1.4499996E-03
+33.3000E-06,+1.4499996E-03
+33.5000E-06,+1.7624996E-03
+33.7000E-06,+1.4499996E-03
+33.9000E-06,+1.1374996E-03
+34.1000E-06,+1.1374996E-03
+34.3000E-06,+824.9996E-06
+34.5000E-06,+1.1374996E-03
+34.7000E-06,+1.1374996E-03
+34.9000E-06,+824.9996E-06
+35.1000E-06,+824.9996E-06
+35.3000E-06,+1.1374996E-03
+35.5000E-06,+1.1374996E-03
+35.7000E-06,+1.4499996E-03
+35.9000E-06,+1.4499996E-03
+36.1000E-06,+1.1374996E-03
+36.3000E-06,+1.7624996E-03
+36.5000E-06,+1.7624996E-03
+36.7000E-06,+1.7624996E-03
+36.9000E-06,+2.0749996E-03
+37.1000E-06,+1.7624996E-03
+37.3000E-06,+1.4499996E-03
+37.5000E-06,+1.1374996E-03
+37.7000E-06,+1.1374996E-03
+37.9000E-06,+1.4499996E-03
+38.1000E-06,+1.1374996E-03
+38.3000E-06,+824.9996E-06
+38.5000E-06,+824.9996E-06
+38.7000E-06,+824.9996E-06
+38.9000E-06,+824.9996E-06
+39.1000E-06,+1.1374996E-03
+39.3000E-06,+1.1374996E-03
+39.5000E-06,+824.9996E-06
+39.7000E-06,+1.1374996E-03
+39.9000E-06,+1.4499996E-03
+40.1000E-06,+1.4499996E-03
+40.3000E-06,+1.4499996E-03
+40.5000E-06,+1.1374996E-03
+40.7000E-06,+1.1374996E-03
+40.9000E-06,+1.7624996E-03
+41.1000E-06,+1.7624996E-03
+41.3000E-06,+1.7624996E-03
+41.5000E-06,+2.0749996E-03
+41.7000E-06,+2.0749996E-03
+41.9000E-06,+2.0749996E-03
+42.1000E-06,+1.7624996E-03
+42.3000E-06,+1.4499996E-03
+42.5000E-06,+1.4499996E-03
+42.7000E-06,+1.4499996E-03
+42.9000E-06,+1.4499996E-03
+43.1000E-06,+1.4499996E-03
+43.3000E-06,+1.4499996E-03
+43.5000E-06,+1.4499996E-03
+43.7000E-06,+1.4499996E-03
+43.9000E-06,+1.4499996E-03
+44.1000E-06,+1.1374996E-03
+44.3000E-06,+824.9996E-06
+44.5000E-06,+824.9996E-06
+44.7000E-06,+824.9996E-06
+44.9000E-06,+824.9996E-06
+45.1000E-06,+1.1374996E-03
+45.3000E-06,+1.7624996E-03
+45.5000E-06,+1.4499996E-03
+45.7000E-06,+824.9996E-06
+45.9000E-06,+824.9996E-06
+46.1000E-06,+824.9996E-06
+46.3000E-06,+824.9996E-06
+46.5000E-06,+1.1374996E-03
+46.7000E-06,+1.4499996E-03
+46.9000E-06,+1.7624996E-03
+47.1000E-06,+2.0749996E-03
+47.3000E-06,+2.0749996E-03
+47.5000E-06,+1.4499996E-03
+47.7000E-06,+1.1374996E-03
+47.9000E-06,+1.1374996E-03
+48.1000E-06,+512.4997E-06
+48.3000E-06,+512.4997E-06
+48.5000E-06,+1.1374996E-03
+48.7000E-06,+1.1374996E-03
+48.9000E-06,+824.9996E-06
+49.1000E-06,+824.9996E-06
+49.3000E-06,+1.1374996E-03
+49.5000E-06,+1.1374996E-03
+49.7000E-06,+824.9996E-06
+49.9000E-06,+824.9996E-06
+50.1000E-06,+1.1374996E-03
+50.3000E-06,+1.1374996E-03
+50.5000E-06,+1.1374996E-03
+50.7000E-06,+1.1374996E-03
+50.9000E-06,+824.9996E-06
+51.1000E-06,+1.1374996E-03
+51.3000E-06,+1.4499996E-03
+51.5000E-06,+1.1374996E-03
+51.7000E-06,+1.1374996E-03
+51.9000E-06,+1.1374996E-03
+52.1000E-06,+824.9996E-06
+52.3000E-06,+824.9996E-06
+52.5000E-06,+824.9996E-06
+52.7000E-06,+824.9996E-06
+52.9000E-06,+1.1374996E-03
+53.1000E-06,+1.1374996E-03
+53.3000E-06,+824.9996E-06
+53.5000E-06,+824.9996E-06
+53.7000E-06,+824.9996E-06
+53.9000E-06,+824.9996E-06
+54.1000E-06,+1.1374996E-03
+54.3000E-06,+1.1374996E-03
+54.5000E-06,+824.9996E-06
+54.7000E-06,+1.4499996E-03
+54.9000E-06,+2.0749996E-03
+55.1000E-06,+1.7624996E-03
+55.3000E-06,+1.4499996E-03
+55.5000E-06,+1.4499996E-03
+55.7000E-06,+1.7624996E-03
+55.9000E-06,+1.7624996E-03
+56.1000E-06,+1.4499996E-03
+56.3000E-06,+1.4499996E-03
+56.5000E-06,+1.7624996E-03
+56.7000E-06,+2.0749996E-03
+56.9000E-06,+1.7624996E-03
+57.1000E-06,+1.1374996E-03
+57.3000E-06,+1.1374996E-03
+57.5000E-06,+1.1374996E-03
+57.7000E-06,+824.9996E-06
+57.9000E-06,+1.1374996E-03
+58.1000E-06,+1.4499996E-03
+58.3000E-06,+1.1374996E-03
+58.5000E-06,+1.1374996E-03
+58.7000E-06,+1.1374996E-03
+58.9000E-06,+824.9996E-06
+59.1000E-06,+1.1374996E-03
+59.3000E-06,+1.1374996E-03
+59.5000E-06,+1.1374996E-03
+59.7000E-06,+1.7624996E-03
+59.9000E-06,+1.7624996E-03
+60.1000E-06,+1.4499996E-03
+60.3000E-06,+1.4499996E-03
+60.5000E-06,+1.4499996E-03
+60.7000E-06,+1.4499996E-03
+60.9000E-06,+1.4499996E-03
+61.1000E-06,+1.4499996E-03
+61.3000E-06,+1.4499996E-03
+61.5000E-06,+1.4499996E-03
+61.7000E-06,+1.4499996E-03
+61.9000E-06,+1.1374996E-03
+62.1000E-06,+824.9996E-06
+62.3000E-06,+824.9996E-06
+62.5000E-06,+1.1374996E-03
+62.7000E-06,+1.1374996E-03
+62.9000E-06,+1.1374996E-03
+63.1000E-06,+1.1374996E-03
+63.3000E-06,+1.1374996E-03
+63.5000E-06,+1.4499996E-03
+63.7000E-06,+1.7624996E-03
+63.9000E-06,+2.0749996E-03
+64.1000E-06,+2.0749996E-03
+64.3000E-06,+2.0749996E-03
+64.5000E-06,+2.0749996E-03
+64.7000E-06,+2.0749996E-03
+64.9000E-06,+2.3874996E-03
+65.1000E-06,+2.3874996E-03
+65.3000E-06,+2.0749996E-03
+65.5000E-06,+2.6999996E-03
+65.7000E-06,+2.6999996E-03
+65.9000E-06,+2.0749996E-03
+66.1000E-06,+1.7624996E-03
+66.3000E-06,+1.7624996E-03
+66.5000E-06,+2.0749996E-03
+66.7000E-06,+2.0749996E-03
+66.9000E-06,+2.0749996E-03
+67.1000E-06,+2.0749996E-03
+67.3000E-06,+2.3874996E-03
+67.5000E-06,+2.3874996E-03
+67.7000E-06,+2.0749996E-03
+67.9000E-06,+1.7624996E-03
+68.1000E-06,+1.7624996E-03
+68.3000E-06,+2.0749996E-03
+68.5000E-06,+2.0749996E-03
+68.7000E-06,+2.0749996E-03
+68.9000E-06,+2.0749996E-03
+69.1000E-06,+2.0749996E-03
+69.3000E-06,+1.7624996E-03
+69.5000E-06,+1.7624996E-03
+69.7000E-06,+2.0749996E-03
+69.9000E-06,+2.0749996E-03
+70.1000E-06,+2.0749996E-03
+70.3000E-06,+2.3874996E-03
+70.5000E-06,+2.6999996E-03
+70.7000E-06,+2.3874996E-03
+70.9000E-06,+2.3874996E-03
+71.1000E-06,+2.6999996E-03
+71.3000E-06,+2.3874996E-03
+71.5000E-06,+2.3874996E-03
+71.7000E-06,+2.3874996E-03
+71.9000E-06,+2.6999996E-03
+72.1000E-06,+3.0124996E-03
+72.3000E-06,+2.6999996E-03
+72.5000E-06,+2.3874996E-03
+72.7000E-06,+2.3874996E-03
+72.9000E-06,+2.3874996E-03
+73.1000E-06,+2.0749996E-03
+73.3000E-06,+2.0749996E-03
+73.5000E-06,+2.3874996E-03
