x-axis,1
second,Volt
-12.88000E-06,+50.82499853E-03
-12.86000E-06,+49.57499856E-03
-12.84000E-06,+50.19999854E-03
-12.82000E-06,+49.57499856E-03
-12.80000E-06,+50.19999854E-03
-12.78000E-06,+49.57499856E-03
-12.76000E-06,+49.57499856E-03
-12.74000E-06,+49.57499856E-03
-12.72000E-06,+50.19999854E-03
-12.70000E-06,+49.57499856E-03
-12.68000E-06,+50.19999854E-03
-12.66000E-06,+49.57499856E-03
-12.64000E-06,+49.57499856E-03
-12.62000E-06,+49.57499856E-03
-12.60000E-06,+49.57499856E-03
-12.58000E-06,+49.57499856E-03
-12.56000E-06,+50.19999854E-03
-12.54000E-06,+50.19999854E-03
-12.52000E-06,+50.19999854E-03
-12.50000E-06,+49.57499856E-03
-12.48000E-06,+50.82499853E-03
-12.46000E-06,+50.19999854E-03
-12.44000E-06,+50.19999854E-03
-12.42000E-06,+50.19999854E-03
-12.40000E-06,+50.82499853E-03
-12.38000E-06,+50.19999854E-03
-12.36000E-06,+50.19999854E-03
-12.34000E-06,+50.19999854E-03
-12.32000E-06,+49.57499856E-03
-12.30000E-06,+49.57499856E-03
-12.28000E-06,+49.57499856E-03
-12.26000E-06,+48.94999857E-03
-12.24000E-06,+48.94999857E-03
-12.22000E-06,+48.94999857E-03
-12.20000E-06,+48.32499858E-03
-12.18000E-06,+48.32499858E-03
-12.16000E-06,+48.32499858E-03
-12.14000E-06,+48.32499858E-03
-12.12000E-06,+48.32499858E-03
-12.10000E-06,+48.32499858E-03
-12.08000E-06,+48.32499858E-03
-12.06000E-06,+47.07499861E-03
-12.04000E-06,+47.69999860E-03
-12.02000E-06,+47.69999860E-03
-12.00000E-06,+47.07499861E-03
-11.98000E-06,+47.69999860E-03
-11.96000E-06,+47.07499861E-03
-11.94000E-06,+48.32499858E-03
-11.92000E-06,+47.69999860E-03
-11.90000E-06,+48.94999857E-03
-11.88000E-06,+48.94999857E-03
-11.86000E-06,+48.94999857E-03
-11.84000E-06,+48.94999857E-03
-11.82000E-06,+48.32499858E-03
-11.80000E-06,+48.32499858E-03
-11.78000E-06,+47.69999860E-03
-11.76000E-06,+48.32499858E-03
-11.74000E-06,+48.32499858E-03
-11.72000E-06,+47.69999860E-03
-11.70000E-06,+48.32499858E-03
-11.68000E-06,+47.69999860E-03
-11.66000E-06,+48.32499858E-03
-11.64000E-06,+48.32499858E-03
-11.62000E-06,+48.32499858E-03
-11.60000E-06,+47.69999860E-03
-11.58000E-06,+47.69999860E-03
-11.56000E-06,+47.07499861E-03
-11.54000E-06,+47.07499861E-03
-11.52000E-06,+47.07499861E-03
-11.50000E-06,+47.07499861E-03
-11.48000E-06,+47.07499861E-03
-11.46000E-06,+47.69999860E-03
-11.44000E-06,+47.69999860E-03
-11.42000E-06,+48.32499858E-03
-11.40000E-06,+48.32499858E-03
-11.38000E-06,+48.32499858E-03
-11.36000E-06,+48.32499858E-03
-11.34000E-06,+48.94999857E-03
-11.32000E-06,+48.32499858E-03
-11.30000E-06,+48.32499858E-03
-11.28000E-06,+48.32499858E-03
-11.26000E-06,+48.32499858E-03
-11.24000E-06,+47.69999860E-03
-11.22000E-06,+48.32499858E-03
-11.20000E-06,+48.32499858E-03
-11.18000E-06,+47.69999860E-03
-11.16000E-06,+47.69999860E-03
-11.14000E-06,+47.69999860E-03
-11.12000E-06,+47.69999860E-03
-11.10000E-06,+47.69999860E-03
-11.08000E-06,+48.32499858E-03
-11.06000E-06,+47.69999860E-03
-11.04000E-06,+47.69999860E-03
-11.02000E-06,+47.69999860E-03
-11.00000E-06,+48.32499858E-03
-10.98000E-06,+47.69999860E-03
-10.96000E-06,+48.94999857E-03
-10.94000E-06,+47.69999860E-03
-10.92000E-06,+47.69999860E-03
-10.90000E-06,+48.32499858E-03
-10.88000E-06,+47.69999860E-03
-10.86000E-06,+47.07499861E-03
-10.84000E-06,+47.69999860E-03
-10.82000E-06,+47.69999860E-03
-10.80000E-06,+47.69999860E-03
-10.78000E-06,+48.32499858E-03
-10.76000E-06,+47.69999860E-03
-10.74000E-06,+48.32499858E-03
-10.72000E-06,+47.69999860E-03
-10.70000E-06,+47.69999860E-03
-10.68000E-06,+47.69999860E-03
-10.66000E-06,+47.07499861E-03
-10.64000E-06,+47.07499861E-03
-10.62000E-06,+47.07499861E-03
-10.60000E-06,+46.44999863E-03
-10.58000E-06,+46.44999863E-03
-10.56000E-06,+46.44999863E-03
-10.54000E-06,+46.44999863E-03
-10.52000E-06,+46.44999863E-03
-10.50000E-06,+46.44999863E-03
-10.48000E-06,+46.44999863E-03
-10.46000E-06,+46.44999863E-03
-10.44000E-06,+46.44999863E-03
-10.42000E-06,+46.44999863E-03
-10.40000E-06,+46.44999863E-03
-10.38000E-06,+46.44999863E-03
-10.36000E-06,+46.44999863E-03
-10.34000E-06,+47.07499861E-03
-10.32000E-06,+46.44999863E-03
-10.30000E-06,+45.82499864E-03
-10.28000E-06,+47.07499861E-03
-10.26000E-06,+46.44999863E-03
-10.24000E-06,+47.07499861E-03
-10.22000E-06,+47.07499861E-03
-10.20000E-06,+46.44999863E-03
-10.18000E-06,+46.44999863E-03
-10.16000E-06,+46.44999863E-03
-10.14000E-06,+45.82499864E-03
-10.12000E-06,+45.19999865E-03
-10.10000E-06,+45.82499864E-03
-10.08000E-06,+45.19999865E-03
-10.06000E-06,+44.57499867E-03
-10.04000E-06,+44.57499867E-03
-10.02000E-06,+44.57499867E-03
-10.00000E-06,+44.57499867E-03
-9.98000E-06,+43.94999868E-03
-9.96000E-06,+43.94999868E-03
-9.94000E-06,+43.32499870E-03
-9.92000E-06,+42.69999871E-03
-9.90000E-06,+43.32499870E-03
-9.88000E-06,+43.32499870E-03
-9.86000E-06,+42.07499872E-03
-9.84000E-06,+42.69999871E-03
-9.82000E-06,+42.07499872E-03
-9.80000E-06,+42.07499872E-03
-9.78000E-06,+41.44999874E-03
-9.76000E-06,+41.44999874E-03
-9.74000E-06,+41.44999874E-03
-9.72000E-06,+41.44999874E-03
-9.70000E-06,+41.44999874E-03
-9.68000E-06,+41.44999874E-03
-9.66000E-06,+41.44999874E-03
-9.64000E-06,+40.82499875E-03
-9.62000E-06,+41.44999874E-03
-9.60000E-06,+40.82499875E-03
-9.58000E-06,+40.19999877E-03
-9.56000E-06,+40.82499875E-03
-9.54000E-06,+40.82499875E-03
-9.52000E-06,+40.19999877E-03
-9.50000E-06,+39.57499878E-03
-9.48000E-06,+40.82499875E-03
-9.46000E-06,+40.82499875E-03
-9.44000E-06,+40.19999877E-03
-9.42000E-06,+39.57499878E-03
-9.40000E-06,+40.19999877E-03
-9.38000E-06,+40.19999877E-03
-9.36000E-06,+40.82499875E-03
-9.34000E-06,+41.44999874E-03
-9.32000E-06,+40.82499875E-03
-9.30000E-06,+40.82499875E-03
-9.28000E-06,+40.82499875E-03
-9.26000E-06,+40.82499875E-03
-9.24000E-06,+39.57499878E-03
-9.22000E-06,+40.19999877E-03
-9.20000E-06,+39.57499878E-03
-9.18000E-06,+39.57499878E-03
-9.16000E-06,+38.94999879E-03
-9.14000E-06,+39.57499878E-03
-9.12000E-06,+38.94999879E-03
-9.10000E-06,+38.94999879E-03
-9.08000E-06,+38.32499881E-03
-9.06000E-06,+37.69999882E-03
-9.04000E-06,+37.69999882E-03
-9.02000E-06,+37.69999882E-03
-9.00000E-06,+37.07499884E-03
-8.98000E-06,+37.07499884E-03
-8.96000E-06,+37.07499884E-03
-8.94000E-06,+37.69999882E-03
-8.92000E-06,+37.07499884E-03
-8.90000E-06,+37.07499884E-03
-8.88000E-06,+36.44999885E-03
-8.86000E-06,+37.07499884E-03
-8.84000E-06,+36.44999885E-03
-8.82000E-06,+36.44999885E-03
-8.80000E-06,+35.82499886E-03
-8.78000E-06,+36.44999885E-03
-8.76000E-06,+35.82499886E-03
-8.74000E-06,+35.82499886E-03
-8.72000E-06,+35.82499886E-03
-8.70000E-06,+35.82499886E-03
-8.68000E-06,+35.82499886E-03
-8.66000E-06,+35.82499886E-03
-8.64000E-06,+35.19999888E-03
-8.62000E-06,+35.19999888E-03
-8.60000E-06,+35.19999888E-03
-8.58000E-06,+35.19999888E-03
-8.56000E-06,+35.19999888E-03
-8.54000E-06,+34.57499889E-03
-8.52000E-06,+33.94999891E-03
-8.50000E-06,+34.57499889E-03
-8.48000E-06,+34.57499889E-03
-8.46000E-06,+33.94999891E-03
-8.44000E-06,+33.94999891E-03
-8.42000E-06,+33.94999891E-03
-8.40000E-06,+33.94999891E-03
-8.38000E-06,+34.57499889E-03
-8.36000E-06,+33.94999891E-03
-8.34000E-06,+33.32499892E-03
-8.32000E-06,+32.07499895E-03
-8.30000E-06,+31.44999896E-03
-8.28000E-06,+31.44999896E-03
-8.26000E-06,+30.82499898E-03
-8.24000E-06,+30.82499898E-03
-8.22000E-06,+30.82499898E-03
-8.20000E-06,+30.82499898E-03
-8.18000E-06,+29.57499900E-03
-8.16000E-06,+29.57499900E-03
-8.14000E-06,+29.57499900E-03
-8.12000E-06,+29.57499900E-03
-8.10000E-06,+28.32499903E-03
-8.08000E-06,+28.94999902E-03
-8.06000E-06,+27.69999905E-03
-8.04000E-06,+28.94999902E-03
-8.02000E-06,+28.94999902E-03
-8.00000E-06,+28.32499903E-03
-7.98000E-06,+28.32499903E-03
-7.96000E-06,+28.32499903E-03
-7.94000E-06,+27.69999905E-03
-7.92000E-06,+28.32499903E-03
-7.90000E-06,+27.69999905E-03
-7.88000E-06,+28.32499903E-03
-7.86000E-06,+28.94999902E-03
-7.84000E-06,+27.69999905E-03
-7.82000E-06,+27.69999905E-03
-7.80000E-06,+27.69999905E-03
-7.78000E-06,+28.32499903E-03
-7.76000E-06,+28.32499903E-03
-7.74000E-06,+28.32499903E-03
-7.72000E-06,+28.32499903E-03
-7.70000E-06,+27.69999905E-03
-7.68000E-06,+28.32499903E-03
-7.66000E-06,+28.94999902E-03
-7.64000E-06,+28.94999902E-03
-7.62000E-06,+28.94999902E-03
-7.60000E-06,+28.32499903E-03
-7.58000E-06,+28.94999902E-03
-7.56000E-06,+28.94999902E-03
-7.54000E-06,+28.94999902E-03
-7.52000E-06,+28.32499903E-03
-7.50000E-06,+28.32499903E-03
-7.48000E-06,+28.32499903E-03
-7.46000E-06,+27.69999905E-03
-7.44000E-06,+27.69999905E-03
-7.42000E-06,+27.69999905E-03
-7.40000E-06,+27.69999905E-03
-7.38000E-06,+27.07499906E-03
-7.36000E-06,+27.07499906E-03
-7.34000E-06,+27.07499906E-03
-7.32000E-06,+27.07499906E-03
-7.30000E-06,+26.44999907E-03
-7.28000E-06,+26.44999907E-03
-7.26000E-06,+26.44999907E-03
-7.24000E-06,+25.82499909E-03
-7.22000E-06,+25.19999910E-03
-7.20000E-06,+25.82499909E-03
-7.18000E-06,+25.19999910E-03
-7.16000E-06,+25.19999910E-03
-7.14000E-06,+24.57499912E-03
-7.12000E-06,+24.57499912E-03
-7.10000E-06,+24.57499912E-03
-7.08000E-06,+24.57499912E-03
-7.06000E-06,+24.57499912E-03
-7.04000E-06,+24.57499912E-03
-7.02000E-06,+24.57499912E-03
-7.00000E-06,+24.57499912E-03
-6.98000E-06,+24.57499912E-03
-6.96000E-06,+24.57499912E-03
-6.94000E-06,+23.94999913E-03
-6.92000E-06,+23.94999913E-03
-6.90000E-06,+24.57499912E-03
-6.88000E-06,+23.32499914E-03
-6.86000E-06,+23.94999913E-03
-6.84000E-06,+23.94999913E-03
-6.82000E-06,+22.69999916E-03
-6.80000E-06,+22.07499917E-03
-6.78000E-06,+21.44999919E-03
-6.76000E-06,+20.82499920E-03
-6.74000E-06,+19.57499923E-03
-6.72000E-06,+18.94999924E-03
-6.70000E-06,+19.57499923E-03
-6.68000E-06,+18.32499926E-03
-6.66000E-06,+17.69999927E-03
-6.64000E-06,+17.69999927E-03
-6.62000E-06,+17.07499928E-03
-6.60000E-06,+17.07499928E-03
-6.58000E-06,+17.07499928E-03
-6.56000E-06,+16.44999930E-03
-6.54000E-06,+15.82499931E-03
-6.52000E-06,+15.19999932E-03
-6.50000E-06,+15.19999932E-03
-6.48000E-06,+15.19999932E-03
-6.46000E-06,+15.19999932E-03
-6.44000E-06,+14.57499934E-03
-6.42000E-06,+15.19999932E-03
-6.40000E-06,+15.19999932E-03
-6.38000E-06,+15.19999932E-03
-6.36000E-06,+14.57499934E-03
-6.34000E-06,+15.19999932E-03
-6.32000E-06,+14.57499934E-03
-6.30000E-06,+14.57499934E-03
-6.28000E-06,+14.57499934E-03
-6.26000E-06,+13.94999935E-03
-6.24000E-06,+13.94999935E-03
-6.22000E-06,+13.32499937E-03
-6.20000E-06,+13.32499937E-03
-6.18000E-06,+13.32499937E-03
-6.16000E-06,+13.32499937E-03
-6.14000E-06,+13.32499937E-03
-6.12000E-06,+13.32499937E-03
-6.10000E-06,+12.69999938E-03
-6.08000E-06,+12.69999938E-03
-6.06000E-06,+12.07499939E-03
-6.04000E-06,+12.69999938E-03
-6.02000E-06,+12.07499939E-03
-6.00000E-06,+12.69999938E-03
-5.98000E-06,+12.69999938E-03
-5.96000E-06,+12.69999938E-03
-5.94000E-06,+12.07499939E-03
-5.92000E-06,+12.69999938E-03
-5.90000E-06,+12.69999938E-03
-5.88000E-06,+12.07499939E-03
-5.86000E-06,+12.07499939E-03
-5.84000E-06,+12.07499939E-03
-5.82000E-06,+11.44999941E-03
-5.80000E-06,+11.44999941E-03
-5.78000E-06,+11.44999941E-03
-5.76000E-06,+11.44999941E-03
-5.74000E-06,+11.44999941E-03
-5.72000E-06,+11.44999941E-03
-5.70000E-06,+12.07499939E-03
-5.68000E-06,+10.82499942E-03
-5.66000E-06,+10.82499942E-03
-5.64000E-06,+10.82499942E-03
-5.62000E-06,+10.19999944E-03
-5.60000E-06,+10.82499942E-03
-5.58000E-06,+10.82499942E-03
-5.56000E-06,+9.57499945E-03
-5.54000E-06,+8.32499948E-03
-5.52000E-06,+8.94999946E-03
-5.50000E-06,+8.32499948E-03
-5.48000E-06,+7.69999949E-03
-5.46000E-06,+7.69999949E-03
-5.44000E-06,+7.07499951E-03
-5.42000E-06,+6.44999952E-03
-5.40000E-06,+7.07499951E-03
-5.38000E-06,+6.44999952E-03
-5.36000E-06,+5.82499953E-03
-5.34000E-06,+6.44999952E-03
-5.32000E-06,+5.82499953E-03
-5.30000E-06,+5.19999955E-03
-5.28000E-06,+5.19999955E-03
-5.26000E-06,+5.82499953E-03
-5.24000E-06,+5.82499953E-03
-5.22000E-06,+5.19999955E-03
-5.20000E-06,+4.57499956E-03
-5.18000E-06,+5.19999955E-03
-5.16000E-06,+5.19999955E-03
-5.14000E-06,+4.57499956E-03
-5.12000E-06,+4.57499956E-03
-5.10000E-06,+4.57499956E-03
-5.08000E-06,+5.19999955E-03
-5.06000E-06,+3.94999958E-03
-5.04000E-06,+3.94999958E-03
-5.02000E-06,+3.94999958E-03
-5.00000E-06,+3.94999958E-03
-4.98000E-06,+3.32499959E-03
-4.96000E-06,+4.57499956E-03
-4.94000E-06,+3.94999958E-03
-4.92000E-06,+4.57499956E-03
-4.90000E-06,+3.94999958E-03
-4.88000E-06,+3.94999958E-03
-4.86000E-06,+4.57499956E-03
-4.84000E-06,+4.57499956E-03
-4.82000E-06,+3.94999958E-03
-4.80000E-06,+3.94999958E-03
-4.78000E-06,+3.94999958E-03
-4.76000E-06,+3.94999958E-03
-4.74000E-06,+3.94999958E-03
-4.72000E-06,+4.57499956E-03
-4.70000E-06,+3.94999958E-03
-4.68000E-06,+3.94999958E-03
-4.66000E-06,+3.32499959E-03
-4.64000E-06,+3.94999958E-03
-4.62000E-06,+3.94999958E-03
-4.60000E-06,+4.57499956E-03
-4.58000E-06,+3.94999958E-03
-4.56000E-06,+3.94999958E-03
-4.54000E-06,+3.32499959E-03
-4.52000E-06,+3.32499959E-03
-4.50000E-06,+3.32499959E-03
-4.48000E-06,+3.94999958E-03
-4.46000E-06,+3.32499959E-03
-4.44000E-06,+3.94999958E-03
-4.42000E-06,+3.32499959E-03
-4.40000E-06,+3.94999958E-03
-4.38000E-06,+3.32499959E-03
-4.36000E-06,+3.94999958E-03
-4.34000E-06,+3.32499959E-03
-4.32000E-06,+3.32499959E-03
-4.30000E-06,+3.32499959E-03
-4.28000E-06,+3.32499959E-03
-4.26000E-06,+2.69999960E-03
-4.24000E-06,+3.32499959E-03
-4.22000E-06,+2.69999960E-03
-4.20000E-06,+3.32499959E-03
-4.18000E-06,+3.32499959E-03
-4.16000E-06,+2.69999960E-03
-4.14000E-06,+3.32499959E-03
-4.12000E-06,+3.32499959E-03
-4.10000E-06,+2.69999960E-03
-4.08000E-06,+3.32499959E-03
-4.06000E-06,+3.32499959E-03
-4.04000E-06,+2.69999960E-03
-4.02000E-06,+3.32499959E-03
-4.00000E-06,+2.69999960E-03
-3.98000E-06,+2.69999960E-03
-3.96000E-06,+2.69999960E-03
-3.94000E-06,+3.32499959E-03
-3.92000E-06,+3.32499959E-03
-3.90000E-06,+2.69999960E-03
-3.88000E-06,+2.69999960E-03
-3.86000E-06,+3.32499959E-03
-3.84000E-06,+2.69999960E-03
-3.82000E-06,+3.32499959E-03
-3.80000E-06,+3.32499959E-03
-3.78000E-06,+2.07499962E-03
-3.76000E-06,+3.32499959E-03
-3.74000E-06,+3.32499959E-03
-3.72000E-06,+3.32499959E-03
-3.70000E-06,+2.69999960E-03
-3.68000E-06,+3.32499959E-03
-3.66000E-06,+3.32499959E-03
-3.64000E-06,+3.32499959E-03
-3.62000E-06,+2.69999960E-03
-3.60000E-06,+3.32499959E-03
-3.58000E-06,+2.69999960E-03
-3.56000E-06,+3.32499959E-03
-3.54000E-06,+3.32499959E-03
-3.52000E-06,+3.32499959E-03
-3.50000E-06,+3.32499959E-03
-3.48000E-06,+3.32499959E-03
-3.46000E-06,+3.32499959E-03
-3.44000E-06,+3.32499959E-03
-3.42000E-06,+2.69999960E-03
-3.40000E-06,+3.32499959E-03
-3.38000E-06,+3.32499959E-03
-3.36000E-06,+3.32499959E-03
-3.34000E-06,+2.69999960E-03
-3.32000E-06,+3.32499959E-03
-3.30000E-06,+2.69999960E-03
-3.28000E-06,+3.32499959E-03
-3.26000E-06,+3.32499959E-03
-3.24000E-06,+2.69999960E-03
-3.22000E-06,+2.69999960E-03
-3.20000E-06,+3.32499959E-03
-3.18000E-06,+2.69999960E-03
-3.16000E-06,+2.69999960E-03
-3.14000E-06,+2.69999960E-03
-3.12000E-06,+2.69999960E-03
-3.10000E-06,+2.69999960E-03
-3.08000E-06,+2.69999960E-03
-3.06000E-06,+2.69999960E-03
-3.04000E-06,+2.69999960E-03
-3.02000E-06,+2.07499962E-03
-3.00000E-06,+2.07499962E-03
-2.98000E-06,+2.69999960E-03
-2.96000E-06,+2.07499962E-03
-2.94000E-06,+2.69999960E-03
-2.92000E-06,+2.07499962E-03
-2.90000E-06,+2.69999960E-03
-2.88000E-06,+2.69999960E-03
-2.86000E-06,+2.69999960E-03
-2.84000E-06,+2.69999960E-03
-2.82000E-06,+2.07499962E-03
-2.80000E-06,+2.69999960E-03
-2.78000E-06,+1.44999963E-03
-2.76000E-06,+2.69999960E-03
-2.74000E-06,+2.69999960E-03
-2.72000E-06,+2.69999960E-03
-2.70000E-06,+2.07499962E-03
-2.68000E-06,+3.32499959E-03
-2.66000E-06,+2.69999960E-03
-2.64000E-06,+2.69999960E-03
-2.62000E-06,+2.69999960E-03
-2.60000E-06,+2.69999960E-03
-2.58000E-06,+2.07499962E-03
-2.56000E-06,+2.07499962E-03
-2.54000E-06,+2.69999960E-03
-2.52000E-06,+2.69999960E-03
-2.50000E-06,+2.69999960E-03
-2.48000E-06,+2.69999960E-03
-2.46000E-06,+2.69999960E-03
-2.44000E-06,+2.69999960E-03
-2.42000E-06,+3.32499959E-03
-2.40000E-06,+3.32499959E-03
-2.38000E-06,+2.69999960E-03
-2.36000E-06,+2.69999960E-03
-2.34000E-06,+2.69999960E-03
-2.32000E-06,+2.69999960E-03
-2.30000E-06,+2.69999960E-03
-2.28000E-06,+3.32499959E-03
-2.26000E-06,+2.69999960E-03
-2.24000E-06,+2.69999960E-03
-2.22000E-06,+2.69999960E-03
-2.20000E-06,+3.32499959E-03
-2.18000E-06,+2.69999960E-03
-2.16000E-06,+3.32499959E-03
-2.14000E-06,+2.69999960E-03
-2.12000E-06,+3.32499959E-03
-2.10000E-06,+2.69999960E-03
-2.08000E-06,+2.69999960E-03
-2.06000E-06,+2.69999960E-03
-2.04000E-06,+3.32499959E-03
-2.02000E-06,+2.69999960E-03
-2.00000E-06,+2.07499962E-03
-1.98000E-06,+2.69999960E-03
-1.96000E-06,+2.07499962E-03
-1.94000E-06,+2.07499962E-03
-1.92000E-06,+2.07499962E-03
-1.90000E-06,+2.69999960E-03
-1.88000E-06,+2.69999960E-03
-1.86000E-06,+2.07499962E-03
-1.84000E-06,+2.07499962E-03
-1.82000E-06,+2.07499962E-03
-1.80000E-06,+2.07499962E-03
-1.78000E-06,+1.44999963E-03
-1.76000E-06,+2.69999960E-03
-1.74000E-06,+2.07499962E-03
-1.72000E-06,+2.07499962E-03
-1.70000E-06,+1.44999963E-03
-1.68000E-06,+2.07499962E-03
-1.66000E-06,+1.44999963E-03
-1.64000E-06,+2.07499962E-03
-1.62000E-06,+1.44999963E-03
-1.60000E-06,+2.07499962E-03
-1.58000E-06,+2.07499962E-03
-1.56000E-06,+2.07499962E-03
-1.54000E-06,+1.44999963E-03
-1.52000E-06,+2.07499962E-03
-1.50000E-06,+1.44999963E-03
-1.48000E-06,+1.44999963E-03
-1.46000E-06,+1.44999963E-03
-1.44000E-06,+2.07499962E-03
-1.42000E-06,+1.44999963E-03
-1.40000E-06,+2.07499962E-03
-1.38000E-06,+1.44999963E-03
-1.36000E-06,+2.07499962E-03
-1.34000E-06,+1.44999963E-03
-1.32000E-06,+2.07499962E-03
-1.30000E-06,+1.44999963E-03
-1.28000E-06,+1.44999963E-03
-1.26000E-06,+1.44999963E-03
-1.24000E-06,+1.44999963E-03
-1.22000E-06,+1.44999963E-03
-1.20000E-06,+1.44999963E-03
-1.18000E-06,+1.44999963E-03
-1.16000E-06,+1.44999963E-03
-1.14000E-06,+1.44999963E-03
-1.12000E-06,+1.44999963E-03
-1.10000E-06,+824.99965E-06
-1.08000E-06,+1.44999963E-03
-1.06000E-06,+824.99965E-06
-1.04000E-06,+1.44999963E-03
-1.02000E-06,+1.44999963E-03
-1.00000E-06,+1.44999963E-03
-980.00E-09,+1.44999963E-03
-960.00E-09,+1.44999963E-03
-940.00E-09,+1.44999963E-03
-920.00E-09,+1.44999963E-03
-900.00E-09,+1.44999963E-03
-880.00E-09,+1.44999963E-03
-860.00E-09,+824.99965E-06
-840.00E-09,+1.44999963E-03
-820.00E-09,+1.44999963E-03
-800.00E-09,+1.44999963E-03
-780.00E-09,+824.99965E-06
-760.00E-09,+2.07499962E-03
-740.00E-09,+824.99965E-06
-720.00E-09,+824.99965E-06
-700.00E-09,+824.99965E-06
-680.00E-09,+1.44999963E-03
-660.00E-09,+824.99965E-06
-640.00E-09,+824.99965E-06
-620.00E-09,+199.99966E-06
-600.00E-09,+824.99965E-06
-580.00E-09,+824.99965E-06
-560.00E-09,+1.44999963E-03
-540.00E-09,+199.99966E-06
-520.00E-09,+824.99965E-06
-500.00E-09,+824.99965E-06
-480.00E-09,+824.99965E-06
-460.00E-09,+824.99965E-06
-440.00E-09,+824.99965E-06
-420.00E-09,+199.99966E-06
-400.00E-09,+824.99965E-06
-380.00E-09,+824.99965E-06
-360.00E-09,+824.99965E-06
-340.00E-09,+824.99965E-06
-320.00E-09,+824.99965E-06
-300.00E-09,+824.99965E-06
-280.00E-09,+1.44999963E-03
-260.00E-09,+824.99965E-06
-240.00E-09,+1.44999963E-03
-220.00E-09,+824.99965E-06
-200.00E-09,+824.99965E-06
-180.00E-09,+824.99965E-06
-160.00E-09,+824.99965E-06
-140.00E-09,+824.99965E-06
-120.00E-09,+824.99965E-06
-100.00E-09,+824.99965E-06
-80.00E-09,+824.99965E-06
-60.00E-09,+1.44999963E-03
-40.00E-09,+824.99965E-06
-20.00E-09,+824.99965E-06
-0.0E+00,+824.99965E-06
+20.00E-09,+199.99966E-06
+40.00E-09,+824.99965E-06
+60.00E-09,+824.99965E-06
+80.00E-09,+824.99965E-06
+100.00E-09,+824.99965E-06
+120.00E-09,+1.44999963E-03
+140.00E-09,+824.99965E-06
+160.00E-09,+824.99965E-06
+180.00E-09,+824.99965E-06
+200.00E-09,+824.99965E-06
+220.00E-09,+199.99966E-06
+240.00E-09,+824.99965E-06
+260.00E-09,+824.99965E-06
+280.00E-09,+824.99965E-06
+300.00E-09,+199.99966E-06
+320.00E-09,+824.99965E-06
+340.00E-09,+824.99965E-06
+360.00E-09,+824.99965E-06
+380.00E-09,+824.99965E-06
+400.00E-09,+1.44999963E-03
+420.00E-09,+824.99965E-06
+440.00E-09,+824.99965E-06
+460.00E-09,+824.99965E-06
+480.00E-09,+824.99965E-06
+500.00E-09,+199.99966E-06
+520.00E-09,+1.44999963E-03
+540.00E-09,+824.99965E-06
+560.00E-09,+824.99965E-06
+580.00E-09,+199.99966E-06
+600.00E-09,+824.99965E-06
+620.00E-09,+199.99966E-06
+640.00E-09,+824.99965E-06
+660.00E-09,+824.99965E-06
+680.00E-09,+824.99965E-06
+700.00E-09,+824.99965E-06
+720.00E-09,+199.99966E-06
+740.00E-09,+199.99966E-06
+760.00E-09,+824.99965E-06
+780.00E-09,+824.99965E-06
+800.00E-09,+824.99965E-06
+820.00E-09,+824.99965E-06
+840.00E-09,+199.99966E-06
+860.00E-09,+824.99965E-06
+880.00E-09,+199.99966E-06
+900.00E-09,+199.99966E-06
+920.00E-09,+199.99966E-06
+940.00E-09,+199.99966E-06
+960.00E-09,+824.99965E-06
+980.00E-09,+199.99966E-06
+1.00000E-06,+824.99965E-06
+1.02000E-06,+199.99966E-06
+1.04000E-06,-425.00033E-06
+1.06000E-06,+199.99966E-06
+1.08000E-06,+824.99965E-06
+1.10000E-06,+199.99966E-06
+1.12000E-06,+824.99965E-06
+1.14000E-06,+199.99966E-06
+1.16000E-06,+824.99965E-06
+1.18000E-06,+199.99966E-06
+1.20000E-06,+199.99966E-06
+1.22000E-06,-425.00033E-06
+1.24000E-06,+824.99965E-06
+1.26000E-06,+199.99966E-06
+1.28000E-06,+199.99966E-06
+1.30000E-06,+199.99966E-06
+1.32000E-06,+824.99965E-06
+1.34000E-06,+199.99966E-06
+1.36000E-06,+199.99966E-06
+1.38000E-06,+199.99966E-06
+1.40000E-06,+199.99966E-06
+1.42000E-06,+824.99965E-06
+1.44000E-06,+824.99965E-06
+1.46000E-06,+199.99966E-06
+1.48000E-06,+199.99966E-06
+1.50000E-06,+199.99966E-06
+1.52000E-06,+824.99965E-06
+1.54000E-06,+199.99966E-06
+1.56000E-06,+199.99966E-06
+1.58000E-06,+199.99966E-06
+1.60000E-06,+824.99965E-06
+1.62000E-06,+199.99966E-06
+1.64000E-06,+824.99965E-06
+1.66000E-06,-425.00033E-06
+1.68000E-06,+199.99966E-06
+1.70000E-06,+199.99966E-06
+1.72000E-06,+199.99966E-06
+1.74000E-06,+199.99966E-06
+1.76000E-06,+824.99965E-06
+1.78000E-06,+824.99965E-06
+1.80000E-06,+199.99966E-06
+1.82000E-06,+199.99966E-06
+1.84000E-06,+199.99966E-06
+1.86000E-06,+199.99966E-06
+1.88000E-06,+199.99966E-06
+1.90000E-06,+824.99965E-06
+1.92000E-06,+824.99965E-06
+1.94000E-06,+199.99966E-06
+1.96000E-06,+824.99965E-06
+1.98000E-06,+199.99966E-06
+2.00000E-06,+824.99965E-06
+2.02000E-06,+199.99966E-06
+2.04000E-06,+199.99966E-06
+2.06000E-06,+199.99966E-06
+2.08000E-06,+199.99966E-06
+2.10000E-06,+199.99966E-06
+2.12000E-06,+824.99965E-06
+2.14000E-06,+824.99965E-06
+2.16000E-06,+824.99965E-06
+2.18000E-06,+199.99966E-06
+2.20000E-06,+824.99965E-06
+2.22000E-06,+824.99965E-06
+2.24000E-06,+199.99966E-06
+2.26000E-06,+199.99966E-06
+2.28000E-06,+824.99965E-06
+2.30000E-06,+824.99965E-06
+2.32000E-06,+824.99965E-06
+2.34000E-06,+824.99965E-06
+2.36000E-06,+824.99965E-06
+2.38000E-06,+199.99966E-06
+2.40000E-06,+824.99965E-06
+2.42000E-06,+199.99966E-06
+2.44000E-06,+824.99965E-06
+2.46000E-06,+199.99966E-06
+2.48000E-06,+1.44999963E-03
+2.50000E-06,+824.99965E-06
+2.52000E-06,+824.99965E-06
+2.54000E-06,+199.99966E-06
+2.56000E-06,+199.99966E-06
+2.58000E-06,+199.99966E-06
+2.60000E-06,+824.99965E-06
+2.62000E-06,+824.99965E-06
+2.64000E-06,+1.44999963E-03
+2.66000E-06,+824.99965E-06
+2.68000E-06,+824.99965E-06
+2.70000E-06,+824.99965E-06
+2.72000E-06,+199.99966E-06
+2.74000E-06,+199.99966E-06
+2.76000E-06,+199.99966E-06
+2.78000E-06,+199.99966E-06
+2.80000E-06,+824.99965E-06
+2.82000E-06,+824.99965E-06
+2.84000E-06,+824.99965E-06
+2.86000E-06,+199.99966E-06
+2.88000E-06,+199.99966E-06
+2.90000E-06,+199.99966E-06
+2.92000E-06,+824.99965E-06
+2.94000E-06,+824.99965E-06
+2.96000E-06,+824.99965E-06
+2.98000E-06,+199.99966E-06
+3.00000E-06,+824.99965E-06
+3.02000E-06,+824.99965E-06
+3.04000E-06,+824.99965E-06
+3.06000E-06,+824.99965E-06
+3.08000E-06,+824.99965E-06
+3.10000E-06,+199.99966E-06
+3.12000E-06,+824.99965E-06
+3.14000E-06,+824.99965E-06
+3.16000E-06,+199.99966E-06
+3.18000E-06,+199.99966E-06
+3.20000E-06,+199.99966E-06
+3.22000E-06,+824.99965E-06
+3.24000E-06,+824.99965E-06
+3.26000E-06,+199.99966E-06
+3.28000E-06,+199.99966E-06
+3.30000E-06,+199.99966E-06
+3.32000E-06,+824.99965E-06
+3.34000E-06,+824.99965E-06
+3.36000E-06,+824.99965E-06
+3.38000E-06,+199.99966E-06
+3.40000E-06,+824.99965E-06
+3.42000E-06,+199.99966E-06
+3.44000E-06,+824.99965E-06
+3.46000E-06,+199.99966E-06
+3.48000E-06,+824.99965E-06
+3.50000E-06,+199.99966E-06
+3.52000E-06,+824.99965E-06
+3.54000E-06,+199.99966E-06
+3.56000E-06,+824.99965E-06
+3.58000E-06,+824.99965E-06
+3.60000E-06,+824.99965E-06
+3.62000E-06,+824.99965E-06
+3.64000E-06,+199.99966E-06
+3.66000E-06,+824.99965E-06
+3.68000E-06,+824.99965E-06
+3.70000E-06,+824.99965E-06
+3.72000E-06,+824.99965E-06
+3.74000E-06,+199.99966E-06
+3.76000E-06,+824.99965E-06
+3.78000E-06,+199.99966E-06
+3.80000E-06,+199.99966E-06
+3.82000E-06,+199.99966E-06
+3.84000E-06,+824.99965E-06
+3.86000E-06,+199.99966E-06
+3.88000E-06,+199.99966E-06
+3.90000E-06,+199.99966E-06
+3.92000E-06,+824.99965E-06
+3.94000E-06,+199.99966E-06
+3.96000E-06,+199.99966E-06
+3.98000E-06,+199.99966E-06
+4.00000E-06,+824.99965E-06
+4.02000E-06,-425.00033E-06
+4.04000E-06,+199.99966E-06
+4.06000E-06,-425.00033E-06
+4.08000E-06,+199.99966E-06
+4.10000E-06,+199.99966E-06
+4.12000E-06,+824.99965E-06
+4.14000E-06,+199.99966E-06
+4.16000E-06,+824.99965E-06
+4.18000E-06,+199.99966E-06
+4.20000E-06,+199.99966E-06
+4.22000E-06,+199.99966E-06
+4.24000E-06,+824.99965E-06
+4.26000E-06,+824.99965E-06
+4.28000E-06,+824.99965E-06
+4.30000E-06,+199.99966E-06
+4.32000E-06,+199.99966E-06
+4.34000E-06,+199.99966E-06
+4.36000E-06,+199.99966E-06
+4.38000E-06,+199.99966E-06
+4.40000E-06,+824.99965E-06
+4.42000E-06,+199.99966E-06
+4.44000E-06,+824.99965E-06
+4.46000E-06,+199.99966E-06
+4.48000E-06,+824.99965E-06
+4.50000E-06,+199.99966E-06
+4.52000E-06,+199.99966E-06
+4.54000E-06,+199.99966E-06
+4.56000E-06,+199.99966E-06
+4.58000E-06,+199.99966E-06
+4.60000E-06,+199.99966E-06
+4.62000E-06,+199.99966E-06
+4.64000E-06,+824.99965E-06
+4.66000E-06,+199.99966E-06
+4.68000E-06,+824.99965E-06
+4.70000E-06,+199.99966E-06
+4.72000E-06,+199.99966E-06
+4.74000E-06,-425.00033E-06
+4.76000E-06,+199.99966E-06
+4.78000E-06,+199.99966E-06
+4.80000E-06,+199.99966E-06
+4.82000E-06,+199.99966E-06
+4.84000E-06,+199.99966E-06
+4.86000E-06,+199.99966E-06
+4.88000E-06,+824.99965E-06
+4.90000E-06,+199.99966E-06
+4.92000E-06,+824.99965E-06
+4.94000E-06,-425.00033E-06
+4.96000E-06,+824.99965E-06
+4.98000E-06,+199.99966E-06
+5.00000E-06,+199.99966E-06
+5.02000E-06,+199.99966E-06
+5.04000E-06,+199.99966E-06
+5.06000E-06,+199.99966E-06
+5.08000E-06,+199.99966E-06
+5.10000E-06,-425.00033E-06
+5.12000E-06,+199.99966E-06
+5.14000E-06,-425.00033E-06
+5.16000E-06,+199.99966E-06
+5.18000E-06,-425.00033E-06
+5.20000E-06,+199.99966E-06
+5.22000E-06,-425.00033E-06
+5.24000E-06,-425.00033E-06
+5.26000E-06,-425.00033E-06
+5.28000E-06,+199.99966E-06
+5.30000E-06,+199.99966E-06
+5.32000E-06,+199.99966E-06
+5.34000E-06,+199.99966E-06
+5.36000E-06,-425.00033E-06
+5.38000E-06,-425.00033E-06
+5.40000E-06,-425.00033E-06
+5.42000E-06,-425.00033E-06
+5.44000E-06,-425.00033E-06
+5.46000E-06,-425.00033E-06
+5.48000E-06,-425.00033E-06
+5.50000E-06,-1.05000031E-03
+5.52000E-06,+199.99966E-06
+5.54000E-06,-425.00033E-06
+5.56000E-06,+199.99966E-06
+5.58000E-06,-1.05000031E-03
+5.60000E-06,-425.00033E-06
+5.62000E-06,-425.00033E-06
+5.64000E-06,+199.99966E-06
+5.66000E-06,-425.00033E-06
+5.68000E-06,-425.00033E-06
+5.70000E-06,-425.00033E-06
+5.72000E-06,+199.99966E-06
+5.74000E-06,-1.05000031E-03
+5.76000E-06,-1.05000031E-03
+5.78000E-06,-1.05000031E-03
+5.80000E-06,-425.00033E-06
+5.82000E-06,-1.05000031E-03
+5.84000E-06,+199.99966E-06
+5.86000E-06,-425.00033E-06
+5.88000E-06,-425.00033E-06
+5.90000E-06,-425.00033E-06
+5.92000E-06,-1.05000031E-03
+5.94000E-06,-1.05000031E-03
+5.96000E-06,-425.00033E-06
+5.98000E-06,-1.05000031E-03
+6.00000E-06,-425.00033E-06
+6.02000E-06,-1.05000031E-03
+6.04000E-06,-1.05000031E-03
+6.06000E-06,-425.00033E-06
+6.08000E-06,-1.05000031E-03
+6.10000E-06,-425.00033E-06
+6.12000E-06,-425.00033E-06
+6.14000E-06,-425.00033E-06
+6.16000E-06,-425.00033E-06
+6.18000E-06,-425.00033E-06
+6.20000E-06,-1.05000031E-03
+6.22000E-06,-425.00033E-06
+6.24000E-06,-1.05000031E-03
+6.26000E-06,-1.05000031E-03
+6.28000E-06,+199.99966E-06
+6.30000E-06,-1.05000031E-03
+6.32000E-06,-1.05000031E-03
+6.34000E-06,-1.05000031E-03
+6.36000E-06,-425.00033E-06
+6.38000E-06,-425.00033E-06
+6.40000E-06,-1.05000031E-03
+6.42000E-06,-1.05000031E-03
+6.44000E-06,-425.00033E-06
+6.46000E-06,-1.05000031E-03
+6.48000E-06,-1.05000031E-03
+6.50000E-06,-425.00033E-06
+6.52000E-06,-425.00033E-06
+6.54000E-06,-1.05000031E-03
+6.56000E-06,-425.00033E-06
+6.58000E-06,-1.05000031E-03
+6.60000E-06,-425.00033E-06
+6.62000E-06,-1.05000031E-03
+6.64000E-06,-425.00033E-06
+6.66000E-06,-1.05000031E-03
+6.68000E-06,-425.00033E-06
+6.70000E-06,-1.05000031E-03
+6.72000E-06,-425.00033E-06
+6.74000E-06,-1.05000031E-03
+6.76000E-06,-425.00033E-06
+6.78000E-06,-425.00033E-06
+6.80000E-06,-425.00033E-06
+6.82000E-06,+199.99966E-06
+6.84000E-06,-425.00033E-06
+6.86000E-06,-425.00033E-06
+6.88000E-06,-425.00033E-06
+6.90000E-06,-425.00033E-06
+6.92000E-06,+199.99966E-06
+6.94000E-06,+199.99966E-06
+6.96000E-06,+199.99966E-06
+6.98000E-06,-425.00033E-06
+7.00000E-06,+199.99966E-06
+7.02000E-06,-425.00033E-06
+7.04000E-06,+199.99966E-06
+7.06000E-06,-425.00033E-06
+7.08000E-06,+199.99966E-06
+7.10000E-06,+199.99966E-06
